{
    "ate_drug": [
        4.94609,
        1.2284,
        0.641269,
        0.0,
        1.86126,
        0.984356,
        9.53179,
        0.140406,
        0.174982,
        0.0,
        1.30065,
        2.66412,
        6.08428,
        0.0,
        0.0,
        21.7896
    ],
    "cibi_drug": [
        5.58613,
        9.98767,
        8.23755,
        1.02481,
        28.5654,
        12.2723,
        0.0212298,
        0.0149644,
        5.13183,
        10.3167,
        50.1747,
        0.0,
        5.98781,
        0.0,
        9.90115,
        24.1027
    ],
    "inefficacy": 28.32153785425219,
    "total_drugs": 2.7065739930555557,
    "objective_value": 25.760041468132524,
    "tumour_diameter": [
        34.16369487091799,
        34.239572294915526,
        34.31466298256499,
        34.38896594252066,
        34.462480801729235,
        34.535207803608934,
        34.60714780859477,
        34.678302283953535,
        34.74867327621564,
        34.81826337529045,
        34.88707566214743,
        34.95511366479561,
        35.02238131053595,
        35.08888288188787,
        35.15462297559271,
        35.21960646295454,
        35.28383846281554,
        35.34732429865613,
        35.41006947740338,
        35.4720796613605,
        35.53336064403139,
        35.59391832742068,
        35.65375870023482,
        35.712887817445015,
        35.77131178031726,
        35.82903671918756,
        35.88606877790593,
        35.94241410049827,
        35.99807881970338,
        36.053069046802996,
        36.1073908642071,
        36.16105031625088,
        36.21405340381595,
        36.266406078342214,
        36.31811423684782,
        36.369183717604024,
        36.41962028712704,
        36.46942964270742,
        36.51861742145449,
        36.56718919001569,
        36.61515044273549,
        36.6625066001863,
        36.709263008025744,
        36.7554274064259,
        36.801007576845336,
        36.84600741120951,
        36.890430663778,
        36.93428109074319,
        36.977562546133846,
        37.02027902781194,
        37.062434673445125,
        37.10403373726694,
        37.145080542085125,
        37.185579450349074,
        37.225534833419005,
        37.26495104945009,
        37.30383242740756,
        37.342183255490674,
        37.38000777633906,
        37.4173101795244,
        37.45409460194705,
        37.49036512662643,
        37.52612578224749,
        37.56138054184061,
        37.59613331957089,
        37.63038796916574,
        37.66414827727688,
        37.69741796314315,
        37.7302006771585,
        37.76250000139226,
        37.79431945105824,
        37.82566247427297,
        37.856532463580145,
        37.88693274444498,
        37.91686658675585,
        37.94633720463912,
        37.97534775843608,
        38.00390135652969,
        38.03200099410551,
        38.05964980668001,
        38.08685069324324,
        38.113606570077884,
        38.13992030886009,
        38.1657947378652,
        38.19123264310891,
        38.21623821267978,
        38.240815768565305,
        38.2649665327792,
        38.28869193641675,
        38.311993690514754,
        38.3348737326775,
        38.3573341693942,
        38.37937722499001,
        38.401005202971376,
        38.422220453336436,
        38.443025352270766,
        38.46342228648981,
        38.483413643118766,
        38.503001803438835,
        38.522189139149255,
        38.540978010752,
        38.5593707642231,
        38.57736972788677,
        38.59497720683713,
        38.612195476771674,
        38.629026778537025,
        38.645473182719435,
        38.66153667509567,
        38.677219314558926,
        38.69252312305716,
        38.70745008717061,
        38.72200215992572,
        38.736181262612995,
        38.749989286020295,
        38.763428093871006,
        38.77649952134859,
        38.78920537830608,
        38.80154744943293,
        38.81352749581077,
        38.825147255328716,
        38.83640836796896,
        38.847312677936785,
        38.85786178415443,
        38.86805733769841,
        38.877900973260864,
        38.8873942977388,
        38.89653890805863,
        38.905341265645575,
        38.91380803069415,
        38.92193858680812,
        38.92973212776801,
        38.93718786967468,
        38.944305250043925,
        38.951084064617206,
        38.95752450608259,
        38.96362712918165,
        38.96939278199236,
        38.97482253388644,
        38.97991761268621,
        38.98467935510618,
        38.98910916970403,
        38.99320849384441,
        38.99697878552857,
        39.000421531819526,
        39.00353822707516,
        39.00633036861376,
        39.00879945393627,
        39.010946977693656,
        39.01277442624667,
        39.01428327373545,
        39.01547497033893,
        39.01635093848532,
        39.016912567757416,
        39.017161212964744,
        39.01709819422493,
        39.01672479813835,
        39.01604228074067,
        39.01505186850402,
        39.013754761502156,
        39.0121521353138,
        39.01024514292503,
        39.00803491640311,
        39.00552256731121,
        39.00270919214978,
        38.999595867192824,
        38.996183653614985,
        38.992473597291806,
        38.988466729527985,
        38.98416406770469,
        38.97956660072812,
        38.97467534845553,
        38.96949127782242,
        38.9640153539669,
        38.95824853208899,
        38.95219175613735,
        38.94584595907257,
        38.939212048968244,
        38.9322909179307,
        38.92508346065577,
        38.91759056209095,
        38.90981309759127,
        38.901751933036984,
        38.893407924998165,
        38.884781907358395,
        38.87587474439635,
        38.86668725528377,
        38.85722025919291,
        38.847474568298146,
        38.83745098622259,
        38.82715030818678,
        38.81657330808072,
        38.80572078902451,
        38.79459351172453,
        38.78319223691996,
        38.77151771904176,
        38.75957070462256,
        38.74735193242862,
        38.73486211303,
        38.722102009101654,
        38.70907231953599,
        38.695773750903086,
        38.68220700407443,
        38.66837277265263,
        38.6542717429834,
        38.639904538985114,
        38.62527194187943,
        38.61037456464251,
        38.59521306363444,
        38.57978809002274,
        38.56410028819403,
        38.54815029581505,
        38.53194280823923,
        38.515482851515976,
        38.498768193186116,
        38.48179665561835,
        38.46456643487136,
        38.44707622265171,
        38.429325211383116,
        38.41131302659723,
        38.39303963938861,
        38.37450527412396,
        38.35571033971542,
        38.33665537236114,
        38.31734099796632,
        38.29776789807913,
        38.27793679252649,
        38.257848429153555,
        38.23750357081999,
        38.21690299426848,
        38.19604748567438,
        38.17493783604267,
        38.153574834155904,
        38.131959257406756,
        38.11009186336484,
        38.08797338158863,
        38.06560451007483,
        38.04298591370527,
        38.020118224973395,
        37.99700204596481,
        37.973637949520615,
        37.9500264875369,
        37.926168185126464,
        37.90206354858203,
        37.877713066039085,
        37.85311720927522,
        37.82827643526241,
        37.80319117184307,
        37.77786188158987,
        37.75228896861277,
        37.72647284227757,
        37.7004139022135,
        37.67411253896346,
        37.64756913455395,
        37.620790521249916,
        37.593783799923706,
        37.56654634142195,
        37.539075327860964,
        37.51136806941237,
        37.48342225783752,
        37.45523611222047,
        37.42680839619526,
        37.39813835208149,
        37.36922560545768,
        37.34007006786878,
        37.310671859485076,
        37.28103124713192,
        37.25114859889755,
        37.22102435159368,
        37.19065898912596,
        37.16005302709817,
        37.12920700451772,
        37.098121478415294,
        37.066797020000344,
        37.03523420988933,
        37.00343363073676,
        36.97139585833665,
        36.93912145102258,
        36.906610942350014,
        36.87386483618971,
        36.840883605060796,
        36.80766769077175,
        36.77421708376839,
        36.74053160551082,
        36.706611414973416,
        36.67245665611633,
        36.638067459658544,
        36.60344394460539,
        36.568586219522345,
        36.53349436698185,
        36.498168510906964,
        36.4626087173478,
        36.426815061708524,
        36.39078761248295,
        36.354526431574065,
        36.31803157693026,
        36.28130306299689,
        36.244340994607235,
        36.207145382014616,
        36.1697162550644,
        36.132053639651595,
        36.094157555843765,
        36.05602801771094,
        36.017665005254685,
        35.97906857595842,
        35.94023870116541,
        35.90117536952327,
        35.86187856557499,
        35.822348267753554,
        35.78258444813777,
        35.74258704464298,
        35.702356071562846,
        35.66189145678173,
        35.62119314546947,
        35.58026107778751,
        35.539095187269766,
        35.49769540070263,
        35.45606160147498,
        35.41419365612643,
        35.37209144991626,
        35.329754862774266,
        35.287183773037974,
        35.24437804858657,
        35.20133755091817,
        35.15806211394027,
        35.114551625583175,
        35.07080590521921,
        35.02682478472332,
        34.98260808865074,
        34.93815563368095,
        34.89346722849496,
        34.848542662705015,
        34.80338174964806,
        34.75798426503963,
        34.71234998313577,
        34.66647867112254,
        34.62037008750866,
        34.574023981913015,
        34.5274452448922,
        34.480639161736896,
        34.43360218883414,
        34.386330768722075,
        34.338821713296575,
        34.291072384835196,
        34.24308073321664,
        34.19484523283611,
        34.146364780903184,
        34.09763859030666,
        34.04866610359561,
        33.999446921297206,
        33.94998075149401,
        33.90026737378108,
        33.85030661209204,
        33.80009831907238,
        33.7496423654694,
        33.69893863394715,
        33.647987014714715,
        33.596787400367305,
        33.54533967811448,
        33.493643719259445,
        33.44169936898438,
        33.38950643611455,
        33.33706468805978,
        33.28437384821562,
        33.23143359615179,
        33.17824356948591,
        33.12480336649994,
        33.0711125489768,
        33.017170645011326,
        32.96297715149739,
        32.908531536256696,
        32.85383324003593,
        32.798881678301306,
        32.74367622730011,
        32.688216283529734,
        32.632501178188534,
        32.57653023529126,
        32.520302757957715,
        32.46381802887791,
        32.40707531068669,
        32.35008114585947,
        32.292842351388494,
        32.23535476524206,
        32.177614001489204,
        32.119615815489674,
        32.06135638912305,
        32.002832488404756,
        31.94404147634882,
        31.884981235332305,
        31.82565005692348,
        31.766046536164254,
        31.706169483276753,
        31.646017855532797,
        31.58559070703085,
        31.524887152666548,
        31.46390634404145,
        31.402647452402096,
        31.34110965919762,
        31.279292149757968,
        31.217194108385574,
        31.154814712113104,
        31.092153121464055
    ]
}