{
    "ate_drug": [
        4.108,
        23.4816,
        23.4816,
        23.4816,
        23.4816,
        23.4816,
        23.4816,
        23.4816,
        23.4816,
        23.4816,
        23.4816,
        23.4816,
        23.4816,
        23.4816,
        23.4816,
        23.4816
    ],
    "cibi_drug": [
        3.608,
        156.544,
        156.544,
        156.544,
        156.544,
        156.544,
        156.544,
        156.544,
        55.04,
        156.544,
        156.544,
        156.544,
        156.544,
        156.544,
        156.544,
        156.544
    ],
    "inefficacy": 183.6209473060699,
    "total_drugs": 84.02400000000002,
    "objective_value": 173.6612525754629,
    "tumour_diameter": [
        16.975853634868614,
        17.059060789796177,
        17.142538753047177,
        17.22628667864698,
        17.31030370105536,
        17.394588961798494,
        17.479141559286493,
        17.56396018568478,
        17.649041565789563,
        17.73437523126973,
        17.819930712708782,
        17.90563662696045,
        17.99136317864191,
        18.076926983397254,
        18.16212300332709,
        18.246765470270233,
        18.33071585140564,
        18.413891132884405,
        18.496258702305333,
        18.57782595927273,
        18.65862937524042,
        18.738724801045507,
        18.818179500764575,
        18.897065969593804,
        18.97545745594425,
        19.053424963845373,
        19.131035444259457,
        19.208350858395434,
        19.28542782781127,
        19.362579178420688,
        19.44073561086103,
        19.52020852572283,
        19.600963907067694,
        19.68291169367659,
        19.765961410823678,
        19.850029535070938,
        19.935037750153384,
        20.020904940192622,
        20.10752830173573,
        20.194753094980072,
        20.282347605517643,
        20.370010153907362,
        20.45741448770927,
        20.54426736893844,
        20.630347265498816,
        20.71551497140419,
        20.799705379214764,
        20.88291203104975,
        20.965171121688037,
        21.046547462495006,
        21.12712301921039,
        21.20698807044779,
        21.286234812589854,
        21.364953089024777,
        21.44322779947872,
        21.521137535800513,
        21.598754045453468,
        21.67649339757669,
        21.7556005229841,
        21.836487123470068,
        21.919101443582377,
        22.003317004684522,
        22.089007141450075,
        22.176054850912834,
        22.26435050220689,
        22.353781318381962,
        22.444206671206942,
        22.53541870585595,
        22.627110029201862,
        22.718883343739698,
        22.810310907299858,
        22.901009491291248,
        22.990690335665967,
        23.079172451473923,
        23.16637146976304,
        23.252279228275338,
        23.336942791719917,
        23.420446130842627,
        23.502895228563965,
        23.58440663445495,
        23.66509921024855,
        23.745088643703347,
        23.824484132109525,
        23.903386648367256,
        23.98188827153594,
        24.06051607353011,
        24.140844513089082,
        24.223393615683527,
        24.30809734666202,
        24.39479514909706,
        24.48332611275123,
        24.57354145125168,
        24.665301677674908,
        24.758463548858387,
        24.852849359470543,
        24.948198178288205,
        25.044125946985634,
        25.140137727948478,
        25.23570162833336,
        25.330341738345368,
        25.42369990957393,
        25.515551973952956,
        25.605793667955773,
        25.694415133592905,
        25.781474807237448,
        25.86707667595044,
        25.9513518239687,
        26.03444429117385,
        26.11650088038799,
        26.197664402008332,
        26.278069594862167,
        26.35784100012283,
        26.437092146653267,
        26.516465911907822,
        26.597880655917127,
        26.681970320706668,
        26.768654943214663,
        26.857739265432745,
        26.94902739227715,
        27.04233801638523,
        27.137501069173826,
        27.234342022811855,
        27.332645055683603,
        27.432094528357872,
        27.53222720311987,
        27.632447021418997,
        27.732113922419064,
        27.830655413799523,
        27.927640751202066,
        28.022800321227642,
        28.116008623845538,
        28.20725354109783,
        28.296604918554387,
        28.384187221092954,
        28.470157398597493,
        28.554687911188335,
        28.637954534555547,
        28.72012825519209,
        28.80137038962978,
        28.881830039926108,
        28.96164311793477,
        29.041572881695213,
        29.12389560180358,
        29.209364408787454,
        29.297885457966512,
        29.389227911594126,
        29.48315991339781,
        29.57946668655812,
        29.677946658550496,
        29.77839307624433,
        29.880550862084277,
        29.98404808343615,
        30.088339970598195,
        30.19272613090647,
        30.296454556555215,
        30.3988524415626,
        30.499413280145376,
        30.597819719124573,
        30.693923605992385,
        30.787709894545817,
        30.879259750431046,
        30.968718468682376,
        31.0562694939016,
        31.142114546411243,
        31.226459289506735,
        31.30950384275007,
        31.391437046347964,
        31.472433470112083,
        31.55265226156555,
        31.632981120196163,
        31.716066751459184,
        31.802786177086475,
        31.893031676500964,
        31.98653599522631,
        32.08303039468771,
        32.18226574218915,
        32.284008114037896,
        32.388017664022335,
        32.49399910469431,
        32.601522954613436,
        32.709961089697885,
        32.81850624248976,
        32.9262913204648,
        33.03253992794856,
        33.13666692471269,
        33.2383050299718,
        33.337281992505055,
        33.433579078061435,
        33.527288548028295,
        33.61857670287604,
        33.70765395840558,
        33.79475194790333,
        33.88010699933976,
        33.96394918528227,
        34.046495693391954,
        34.12794735710361,
        34.208487312033455,
        34.28913106627387,
        34.3729062326887,
        34.460817690507305,
        34.55274386417646,
        34.64838039303472,
        34.74742088448116,
        34.849581104979215,
        34.95459405607889,
        35.06218614823148,
        35.17202117154202,
        35.283611294905995,
        35.39624392027333,
        35.50900319589646,
        35.62090460601743,
        35.73106551023994,
        35.838819609248546,
        35.94374764351819,
        36.04565183347917,
        36.14450887907667,
        36.24042174938374,
        36.33357773776618,
        36.42421451796913,
        36.512594099964545,
        36.59898408283889,
        36.68364515813581,
        36.766823545317294,
        36.848747015708724,
        36.92962333565416,
        37.01058677509842,
        37.09504494050182,
        37.18413911968231,
        37.2777395229767,
        37.375505668448056,
        37.47708525083218,
        37.58212594024987,
        37.690229243469396,
        37.800859396971866,
        37.91324878359918,
        38.02638798956237,
        38.139147609207875,
        38.25046868903338,
        38.35951226818538,
        38.46571591888674,
        38.56877719404735,
        38.668604401547235,
        38.76526195079491,
        38.85892137203536,
        38.949821033702605,
        39.03823476432526,
        39.12444881016706,
        39.208746085433155,
        39.29139632049723,
        39.37265059110743,
        39.45273886739657,
        39.53186949933149,
        39.61022985947111,
        39.68903885117357,
        39.77197692287619,
        39.86022566102744,
        39.95360875511567,
        40.051734104661215,
        40.15420941256175,
        40.260670782231536,
        40.370776423864676,
        40.48417722295661,
        40.60044767039382,
        40.71897596773097,
        40.838872731430946,
        40.95899557084231,
        41.07811387092095,
        41.195120307703036,
        41.30917470850329,
        41.41974420043802,
        41.52657260593061,
        41.62962238186599,
        41.72901471402092,
        41.82497721820649,
        41.91780157588593,
        42.00781093530803,
        42.095336383362955,
        42.180701156951976,
        42.26421102677393,
        42.346149183300476,
        42.42677417151771,
        42.50750020110405,
        42.59254637845978,
        42.68332007009719,
        42.77965787503742,
        42.88114042676581,
        42.98734436212868,
        43.097876290935936,
        43.21236642941403,
        43.3304366621737,
        43.45162564056028,
        43.57526909869407,
        43.7003997963486,
        43.82577276624812,
        43.950043726629836,
        44.07200005299679,
        44.19071933287333,
        44.30561483449945,
        44.41640300879072,
        44.52304038779776,
        44.62565807829459,
        44.72450453285209,
        44.81989906911746,
        44.91219607959198,
        45.001759115426395,
        45.088943451342686,
        45.17408541929359,
        45.25749669853614,
        45.33946197942127,
        45.421526986310695,
        45.50830284510825,
        45.60133047909663,
        45.70043368586379,
        45.80515599090789,
        45.91503624140203,
        46.029645769254216,
        46.14858162178552,
        46.271432211967024,
        46.39769666227237,
        46.52665578497175,
        46.65726323268889,
        46.788170693641014,
        46.917918968097865,
        47.045187773779226,
        47.16896925437962,
        47.28861924695553,
        47.403823340100715,
        47.51452895240916,
        47.620874367016675,
        47.72312655231545,
        47.82163057975559,
        47.916770601943874,
        48.00894148740221,
        48.09852967198698,
        48.185901377523614,
        48.27139625518509,
        48.355324731200504,
        48.439362669777424,
        48.52851046360406,
        48.62444178343913,
        48.72696730910522,
        48.83559331551176,
        48.949820714768144,
        49.06918546138015,
        49.19325139538073,
        49.321573643322346,
        49.45361257629132,
        49.588595947945386,
        49.725401337092315,
        49.86258065411492,
        49.998562430003105,
        50.13191984342531,
        50.26155916524934,
        50.386777484438895,
        50.50722786397005,
        50.62284693516134,
        50.73377863165614,
        50.84030718594117,
        50.94280247036375,
        51.04167772328274,
        51.137358717390555,
        51.230262836589716,
        51.3207861275013,
        51.40929623848264,
        51.496129424263785,
        51.5830898234079,
        51.67556161180929,
        51.77534968060167,
        51.88225171186107,
        51.995737105650264,
        52.11526924287093,
        52.24034910894903,
        52.370507800503276,
        52.505267824058,
        52.644052196282594,
        52.78603838257506,
        52.930032319728646,
        53.074491220247815,
        53.21773565165983,
        53.35823451976639,
        53.49480854223986,
        53.626695080566115,
        53.75351303808212,
        53.875186434832365,
        53.991863126083445,
        54.103843075969955,
        54.21151972665059,
        54.31533448958138,
        54.41574340843532,
        54.51319442402804,
        54.60811319446165,
        54.70089529009623,
        54.79190278599507,
        54.88306511950211,
        54.98014129147094,
        55.085064648492285,
        55.197620069592915,
        55.317240711180936,
        55.443353104972175,
        55.575423941001155,
        55.712952293192686
    ]
}