{
    "ate_drug": [
        1.0,
        1.27633,
        0.0,
        0.0,
        0.0,
        1.73311,
        4.77139e-68,
        1.13148e-07,
        0.0,
        1.28833e-269,
        9.20998e-106,
        2.81824,
        7.04436e-39,
        8.69787e-19,
        2.85138e-19,
        8.39458e-44
    ],
    "cibi_drug": [
        5.2099,
        1.90007e-18,
        4.82093e-74,
        1.14793e-206,
        6.91045e-25,
        1.15474e-272,
        1.09421,
        2.74348e-33,
        3.34174e-12,
        0.0,
        2.92849e-304,
        0.0,
        2.77888e-20,
        1.09206e-11,
        8.91675e-08,
        0.0
    ],
    "inefficacy": 25.0863288454043,
    "total_drugs": 3.4148680555555555,
    "objective_value": 22.919182766419425,
    "tumour_diameter": [
        32.13738578111074,
        32.21538639359681,
        32.29091712724366,
        32.36399196398857,
        32.434630461884915,
        32.50285705665488,
        32.56870042641391,
        32.63219291002849,
        32.693369889051525,
        32.752269380316726,
        32.80893170466254,
        32.863399016742385,
        32.91571490001485,
        32.96592413747007,
        33.01407237461773,
        33.06020580567437,
        33.1043710181462,
        33.14661488005672,
        33.18698427746804,
        33.22552598464981,
        33.262286544483636,
        33.297312115713254,
        33.33064834249999,
        33.36234030783196,
        33.392432541991276,
        33.420968894672775,
        33.447992485475176,
        33.473545665091464,
        33.49766997504422,
        33.52040606676488,
        33.541793728676254,
        33.561871944539966,
        33.58067882029719,
        33.59825157810462,
        33.61462655445013,
        33.62983920067424,
        33.643923856813274,
        33.656914682467765,
        33.66884427829741,
        33.67974461706347,
        33.689646824419455,
        33.69858119906737,
        33.70657722194165,
        33.71366332060692,
        33.71986786144738,
        33.72521776379092,
        33.729739368309964,
        33.73345830446431,
        33.73639947047794,
        33.73858706966169,
        33.74004441948618,
        33.74079474029335,
        33.74086006810645,
        33.74026192996474,
        33.73902128803895,
        33.73715847318462,
        33.734693217524004,
        33.731644519745245,
        33.72803134245546,
        33.723871623431,
        33.71918289795933,
        33.71398223929119,
        33.70828619873216,
        33.70211083109553,
        33.69547169632754,
        33.6883840032519,
        33.680862464907975,
        33.67292134575019,
        33.664574500111314,
        33.65583539163909,
        33.64671710771708,
        33.63723229627802,
        33.62739331782461,
        33.61721211012471,
        33.606700274684535,
        33.59586910341741,
        33.58472952928344,
        33.57329216338704,
        33.56156728533297,
        33.549564967615744,
        33.53729491618407,
        33.52476656004809,
        33.51198905589838,
        33.49897130502402,
        33.48572195011501,
        33.47224932606205,
        33.45856165680641,
        33.44466681237421,
        33.430572456337956,
        33.416286044476635,
        33.401814810446176,
        33.387165768993036,
        33.37234567669956,
        33.35736127336476,
        33.34221892801215,
        33.326924877333056,
        33.31148519293288,
        33.29590575269098,
        33.280192261350095,
        33.264350263065175,
        33.2483851373502,
        33.232302131462895,
        33.21610631414035,
        33.19980261390369,
        33.18339582284065,
        33.166890596121156,
        33.150291424095506,
        33.13360273279357,
        33.116828762714796,
        33.09997364882354,
        33.083041417481176,
        33.06603597008171,
        33.048961095096665,
        33.03182049734874,
        33.01461770984454,
        32.99735624593859,
        32.980039480214415,
        32.96267069705057,
        32.94525309293264,
        32.927789776288805,
        32.910279047116596,
        32.89271885052212,
        32.87511170403738,
        32.857460088859014,
        32.83976641215637,
        32.822033021604135,
        32.80426220544894,
        32.78645602449224,
        32.76861645511909,
        32.75074559083734,
        32.73284546650223,
        32.714918058432744,
        32.69696528834569,
        32.67898902196604,
        32.66099097219743,
        32.64297278193717,
        32.624936146779014,
        32.606882710655626,
        32.588814066784785,
        32.570731758695814,
        32.55263728124801,
        32.534532004900775,
        32.51641724471839,
        32.49829435058909,
        32.48016462789831,
        32.4620293383456,
        32.44388970309003,
        32.42574690392667,
        32.40760208516498,
        32.389456331628125,
        32.37131071386001,
        32.35316625553515,
        32.335023948495525,
        32.31688474544412,
        32.298749564694845,
        32.28061930077989,
        32.26249479126544,
        32.24437686745373,
        32.226266320919784,
        32.2081639158943,
        32.190070385345805,
        32.171986433873,
        32.15391275261977,
        32.1358499679308,
        32.11779872113859,
        32.09975961350379,
        32.081733222796764,
        32.06372010434019,
        32.04572079152,
        32.02773580689446,
        32.00976561414806,
        31.991810695455865,
        31.97387149972032,
        31.955948458840375,
        31.938041984090816,
        31.92015246892986,
        31.90228030334775,
        31.884425821193517,
        31.866589380574474,
        31.84877130979902,
        31.830971923283407,
        31.81319152029765,
        31.795430385983284,
        31.77768880620028,
        31.759967013053917,
        31.74226526780523,
        31.724583805352474,
        31.7069228493908,
        31.689282613141135,
        31.67166329944529,
        31.654065113716833,
        31.636488211663103,
        31.61893278062162,
        31.60139898525361,
        31.583886981928785,
        31.56639691935455,
        31.54892893872758,
        31.531483187805158,
        31.5140597645912,
        31.496658803892135,
        31.4792804199116,
        31.461924721526298,
        31.44459181170197,
        31.4272817882355,
        31.40999476181117,
        31.392730786402307,
        31.375489964287755,
        31.358272376446482,
        31.34107810048333,
        31.323907210741762,
        31.306759778631722,
        31.289635890707626,
        31.272535578517825,
        31.255458924344396,
        31.23840599128305,
        31.221376841067002,
        31.20437153424774,
        31.1873901305365,
        31.17043270684873,
        31.15349928677007,
        31.13658994692462,
        31.11970474661099,
        31.102843745645817,
        31.08600700466553,
        31.069194585438847,
        31.052406568891758,
        31.03564298426554,
        31.01890391603579,
        31.0021894330886,
        30.98549960686692,
        30.96883451142226,
        30.952194223774086,
        30.93557883819903,
        30.918988410925056,
        30.902423043633306,
        30.885882828266052,
        30.869367860940894,
        30.852878242685307,
        30.83641407956208,
        30.81997550135587,
        30.80356258772706,
        30.78717547979757,
        30.770814306362926,
        30.754479202726014,
        30.738170310783406,
        30.721887779436333,
        30.70563176985666,
        30.68940243665253,
        30.67319995696456,
        30.657024511372143,
        30.640876288670135,
        30.624755487322,
        30.60866231526737,
        30.592597009729516,
        30.576559758622373,
        30.560550819897703,
        30.544570442515102,
        30.528618886454545,
        30.51269642327695,
        30.496803336159566,
        30.48093993738209,
        30.465106505341467,
        30.44930337763837,
        30.433530890072742,
        30.417789392104904,
        30.402079248662947,
        30.386400839623835,
        30.37075457579556,
        30.355140836238753,
        30.339560064441297,
        30.324012704313052,
        30.308499216787467,
        30.2930200816982,
        30.277575797012325,
        30.262166896313577,
        30.246793880933165,
        30.23145732447674,
        30.216157802681032,
        30.200895911983938,
        30.18567227147157,
        30.170487522005608,
        30.155342333186592,
        30.14023737806317,
        30.12517337303121,
        30.11015105134647,
        30.095171171216297,
        30.080234517332364,
        30.065341899407233,
        30.050469965360538,
        30.03559420925836,
        30.020713956841853,
        30.00582865072053,
        29.99093783777199,
        29.976041157188092,
        29.961138329450144,
        29.946229030874647,
        29.931312992546246,
        29.91639012477074,
        29.90146038955385,
        29.8865237943205,
        29.871580385313223,
        29.85663024386139,
        29.841673412231177,
        29.82670995249221,
        29.81174002148256,
        29.796763796052517,
        29.781781470087246,
        29.766793251726224,
        29.751799360931468,
        29.736799973367827,
        29.721795267472515,
        29.70678548421475,
        29.69177086980441,
        29.676751674279533,
        29.661728150307294,
        29.646700552332327,
        29.631669140113093,
        29.61663415930603,
        29.6015958693062,
        29.58655452265705,
        29.571510370458995,
        29.556463661383372,
        29.541414641249922,
        29.526363557834742,
        29.51131064025826,
        29.496256129737912,
        29.481200257911894,
        29.466143252985002,
        29.4510853388286,
        29.43602673503741,
        29.420967662642102,
        29.405908321416355,
        29.39084892424293,
        29.37578967336847,
        29.360730767226627,
        29.34567239971457,
        29.330614760395424,
        29.315558040798827,
        29.300502410093987,
        29.285448051959705,
        29.270395139510804,
        29.255343842386335,
        29.24029432615729,
        29.225246752600743,
        29.21020128645659,
        29.19515806947772,
        29.18011725968163,
        29.165079004958756,
        29.150043450359405,
        29.1350107375873,
        29.119981005306457,
        29.10495439644421,
        29.08993103008988,
        29.074911043899636,
        29.059894565779178,
        29.044881721561808,
        29.02987263448255,
        29.014867425593312,
        28.999866220535438,
        28.984869123287012,
        28.969876255908893,
        28.954887731887982,
        28.939903663314695,
        28.92492416069037,
        28.909949333108624,
        28.894979295539052,
        28.880014140473598,
        28.865053980976388,
        28.850098921730556,
        28.83514906672574,
        28.820204519314217,
        28.805265382276133,
        28.790331764965494,
        28.775403754994944,
        28.76048146139109,
        28.745564985618902,
        28.730654429253022,
        28.715749893974664,
        28.700851481674974,
        28.685959298070088,
        28.67107343882988,
        28.656194010840576,
        28.641321117972762,
        28.626454864962206,
        28.61159535750162,
        28.596742702322164,
        28.581897012737425,
        28.56705838700121,
        28.552226941298965,
        28.537402787679856,
        28.522586039890335,
        28.50777681355424,
        28.49297522622507,
        28.47818140537766,
        28.46339545686248,
        28.44861751294947,
        28.433847700094642,
        28.419086147504473,
        28.40433298707183,
        28.389588353553304,
        28.374852394499133
    ]
}