{
    "synthesized_therapy": {
        "cibi_m4_in": 2.125042287850881e-50,
        "ate_m11_in": 3.688259226732101e-162,
        "cibi_m13_in": 4.198558958143321e-185,
        "cibi_m3_in": 5.339159373447043e-247,
        "ate_m5_in": 5.818029832510399e-236,
        "ate_m2_in": 1.0482060169641759e-93,
        "ate_m6_in": 1.0953591035170441e-117,
        "cibi_m1_in": 145.31421773493219,
        "ate_m1_in": 8.531861874945088,
        "ate_m14_in": 1.03683953566927e-27,
        "ate_m13_in": 6.136478316018763e-63,
        "ate_m10_in": 6.243387408491042e-122,
        "cibi_m9_in": 5.485604515554353e-234,
        "cibi_m12_in": 2.449141074433928e-166,
        "ate_m8_in": 1.8790665844552261,
        "ate_m12_in": 7.018875337930643e-112,
        "ate_m3_in": 5.545894810306101e-140,
        "cibi_m8_in": 2.0714158558231238e-81,
        "ate_m9_in": 1.2586861742275476e-75,
        "ate_m4_in": 19.375952084465844,
        "cibi_m10_in": 88.6702333562234,
        "cibi_freq_in": 5.913007118563308,
        "cibi_m7_in": 1.4258717545180313e-194,
        "ate_m7_in": 1.9969931008149865e-124,
        "ate_m15_in": 1.4735978085275693e-133,
        "cibi_m5_in": 6.0884236780211e-310,
        "ate_freq_in": 5.116290552465078,
        "cibi_m14_in": 3.735878163483431e-43,
        "cibi_m15_in": 4.297889896481913e-249,
        "cibi_m2_in": 6.658125734750862e-31,
        "cibi_m11_in": 1.5923270890359548e-106,
        "cibi_m6_in": 0.1410542592234506
    },
    "inefficacy": 28.47282331528936,
    "tumour_diameter": 31.175085162317348,
    "total_drugs": 6.407601394311949,
    "objective_value": 26.26630112319162,
    "statistics": {
        "failed_func_evaluations_exception": 92,
        "failed_func_evaluations_nan": 0,
        "execution_time": 4476.348
    },
    "function_evaluations": 1634
}