{
    "ate_drug": [
        6.0,
        24.0,
        4.07576e-300,
        20.7433,
        22.262,
        7.51005e-176,
        5.65353e-306,
        21.4162,
        20.2864,
        24.0,
        23.8738,
        6.87381e-64,
        3.44146e-281,
        19.5324,
        24.0,
        6.67429e-193
    ],
    "cibi_drug": [
        6.0,
        160.0,
        150.521,
        3.34253e-201,
        2.14448e-162,
        153.936,
        3.58581e-202,
        128.533,
        4.63474e-218,
        130.3,
        2.7694e-32,
        130.544,
        158.115,
        6.29591e-41,
        160.0,
        2.17114e-245
    ],
    "inefficacy": 39.11349187619045,
    "total_drugs": 32.00194444444445,
    "objective_value": 38.40233713301585,
    "tumour_diameter": [
        7.040343767728699,
        7.0584740950952565,
        7.076634675087198,
        7.0948257664233605,
        7.113047599132611,
        7.131300384121712,
        7.149584319789241,
        7.1678995964196055,
        7.186246399550242,
        7.204624909811705,
        7.22303530726706,
        7.241477770422952,
        7.259952477639021,
        7.278459608040184,
        7.2969993425340665,
        7.3155718655175015,
        7.334177364311388,
        7.352816033813082,
        7.371488076177033,
        7.390193702655985,
        7.408933134043585,
        7.427706599701265,
        7.446514335561291,
        7.465356578222563,
        7.484233564133883,
        7.503145523767882,
        7.522092679497243,
        7.5410752440267075,
        7.560093419793276,
        7.579147399706818,
        7.598237365092048,
        7.617363490263762,
        7.636525940752565,
        7.655724874711711,
        7.67496044361546,
        7.694232792871287,
        7.71354206511906,
        7.732888389575938,
        7.7522718990410935,
        7.77169271911334,
        7.791150971213292,
        7.810646772790454,
        7.830180237492403,
        7.849750309712966,
        7.8693559335081575,
        7.8889972079224275,
        7.90867423363149,
        7.928387120906579,
        7.9481359923012365,
        7.967920981382933,
        7.987742229999371,
        8.007599884000898,
        8.027494092320774,
        8.047425004203621,
        8.067392768689098,
        8.087397534828348,
        8.107439452700177,
        8.127518675904668,
        8.147635362122505,
        8.167789679582198,
        8.187981808178519,
        8.208211942292222,
        8.228480290884953,
        8.248787074409607,
        8.26913251883134,
        8.289516846547786,
        8.309940269363018,
        8.33040298090303,
        8.350905152543838,
        8.371446931601929,
        8.392028441497047,
        8.41264978354129,
        8.433311037753437,
        8.454012267248533,
        8.474753519257217,
        8.495534827621746,
        8.51635621470298,
        8.53721769301772,
        8.558119270395704,
        8.579060936039479,
        8.600042684118852,
        8.621064499472782,
        8.642126362032018,
        8.663228247353228,
        8.684370127058688,
        8.705551969174898,
        8.726773738426136,
        8.748035396531677,
        8.769336902368075,
        8.790678212128507,
        8.812059279460138,
        8.833480055585751,
        8.854940530483272,
        8.876440568425044,
        8.897980155108366,
        8.919559232553466,
        8.941177740890485,
        8.962835618126107,
        8.984532800118984,
        9.006269223765722,
        9.028044814659903,
        9.049859505762182,
        9.071713224721663,
        9.093605897363307,
        9.115537447474598,
        9.137507796808118,
        9.159516869929815,
        9.181564575088125,
        9.203650833045607,
        9.225775557634766,
        9.247938660911275,
        9.270140052952483,
        9.292379641873843,
        9.31465734150435,
        9.336973040910406,
        9.359326650270315,
        9.381718070064142,
        9.404147199071593,
        9.426613934181903,
        9.449118170420752,
        9.47165981259403,
        9.494238728938138,
        9.51685482081562,
        9.539507976049434,
        9.562198080866063,
        9.584925019721602,
        9.607688675349344,
        9.630483267091881,
        9.653303363231817,
        9.676149308512446,
        9.699021415169767,
        9.721919991069207,
        9.744845351268012,
        9.767797817289003,
        9.790777711524294,
        9.813785347942417,
        9.836821030373683,
        9.859885047326916,
        9.882977672323506,
        9.906099166115565,
        9.92924978130017,
        9.952429769743025,
        9.975639389194537,
        9.998878916835867,
        10.022148657100148,
        10.045448949454148,
        10.068780169478565,
        10.092142721232847,
        10.115537021397541,
        10.138963475111733,
        10.162422457250475,
        10.185914292355633,
        10.209439244211227,
        10.232997511683854,
        10.256589229974814,
        10.28021447603742,
        10.303873272558183,
        10.327565599040158,
        10.351291396180933,
        10.375050572908632,
        10.398843011992923,
        10.422668574856166,
        10.446527107526808,
        10.47041843644702,
        10.49434238265925,
        10.518298756544564,
        10.542287361631521,
        10.566307996170544,
        10.59036045442716,
        10.614444532538041,
        10.638560010167767,
        10.66270668008529,
        10.686884329453912,
        10.711092745136263,
        10.73533171408409,
        10.759601023641599,
        10.783900471013526,
        10.808229826495891,
        10.832588889187642,
        10.856977449943342,
        10.881395300849414,
        10.905842235249231,
        10.930318047776705,
        10.954822539217181,
        10.979355496920444,
        11.003916725102371,
        11.028506023465958,
        11.053123193447288,
        11.07776803783669,
        11.102440360759312,
        11.127140005492919,
        11.15186670289536,
        11.176620299274388,
        11.201400603733479,
        11.22620742685495,
        11.251040580498485,
        11.27589987768966,
        11.300785170230869,
        11.325696198141074,
        11.350632815939214,
        11.375594841186198,
        11.400582092768335,
        11.425594390719676,
        11.450631556153485,
        11.475693448019689,
        11.500779816052836,
        11.525890521587966,
        11.551025390053542,
        11.5761842480547,
        11.601366923268266,
        11.626573244426606,
        11.651803040661083,
        11.677056142007263,
        11.702332380256388,
        11.727631588241216,
        11.752953599845215,
        11.778298250018546,
        11.803665374781303,
        11.829054847870774,
        11.854466433977624,
        11.879900009262963,
        11.9053554139495,
        11.930832489486995,
        11.956331078435314,
        11.981851024435612,
        12.00739220814133,
        12.032954403420032,
        12.058537493553349,
        12.084141326496791,
        12.109765751525313,
        12.13541061911016,
        12.16107578083412,
        12.186761127389516,
        12.212466436555783,
        12.238191601617944,
        12.263936478714474,
        12.289700925277431,
        12.315484799948358,
        12.34128796253642,
        12.367110310549867,
        12.392951632955464,
        12.418811830154029,
        12.444690766583555,
        12.470588308116612,
        12.496504321936843,
        12.522438676422558,
        12.548391251948258,
        12.574361897663545,
        12.600350496728469,
        12.626356922371917,
        12.652381049260491,
        12.67842275336402,
        12.704481911876593,
        12.73053612805885,
        12.756564704730824,
        12.782569866234045,
        12.808553696430327,
        12.834518221369946,
        12.860465438236089,
        12.88639731015959,
        12.91231574866897,
        12.93822259466012,
        12.964119609375345,
        12.990008469507679,
        13.01589077201693,
        13.041768046090397,
        13.067641771906192,
        13.093513406427046,
        13.119384411899484,
        13.145256291908142,
        13.171130619385371,
        13.197009055205154,
        13.222893344500987,
        13.24878528530465,
        13.274686673513173,
        13.30059923368639,
        13.326524559051716,
        13.352464063520268,
        13.378418957607876,
        13.404390243676088,
        13.430378725748644,
        13.456385028721224,
        13.482409618268756,
        13.508452827904886,
        13.534514878239024,
        13.560595897227921,
        13.58669593719379,
        13.612814989309252,
        13.638952997288756,
        13.665109861319879,
        13.691285455714105,
        13.717479629618953,
        13.74369221424533,
        13.769923027530583,
        13.796171877957065,
        13.822422801288484,
        13.848660115999351,
        13.87488398164973,
        13.901094662353723,
        13.927292606614387,
        13.95347845890303,
        13.979653028736616,
        14.005817245661977,
        14.031972115810936,
        14.058118691085932,
        14.084258048145344,
        14.110391280501213,
        14.13651950148902,
        14.162643857485397,
        14.188765550767574,
        14.214885869320094,
        14.241006222253299,
        14.267128170468384,
        14.293253443255596,
        14.319383927155549,
        14.345521619720097,
        14.371668553079228,
        14.397826700906759,
        14.423997896241817,
        14.450183767142773,
        14.476385702903256,
        14.502604845747307,
        14.52884210161507,
        14.555098162780016,
        14.581373533891954,
        14.607668562594133,
        14.633983464947889,
        14.660318349833389,
        14.686673239775471,
        14.713048088564024,
        14.739442797850693,
        14.765857221742047,
        14.792291188142126,
        14.818744499334137,
        14.84521694053541,
        14.87170828529692,
        14.898218299930482,
        14.924727207133657,
        14.951215579049387,
        14.977683578569707,
        15.004131464786797,
        15.030559719015686,
        15.05696908334112,
        15.083360531877195,
        15.109735215293421,
        15.13609440212376,
        15.162439434415651,
        15.188771695322787,
        15.215092593672534,
        15.241403562513874,
        15.267706070949606,
        15.294001648175882,
        15.320291917341324,
        15.346578637732186,
        15.372863744831161,
        15.399149377712197,
        15.42543787684872,
        15.451731740184979,
        15.47803353835981,
        15.504345802358035,
        15.53067091634304,
        15.557011028389546,
        15.583367997817813,
        15.609743376027374,
        15.636138413917246,
        15.662554086467427,
        15.688991125142653,
        15.715450054368404,
        15.741931225223729,
        15.768434846720767,
        15.794961012947564,
        15.82150972619597,
        15.848080916741331,
        15.874674457110112,
        15.901290177914813,
        15.927927876867672,
        15.954587328014576,
        15.98126828887774,
        16.007970506239467,
        16.034670255774664,
        16.061344216760375,
        16.087992590358926,
        16.11461569781059,
        16.14121413424767,
        16.16778881457684,
        16.19434093928538,
        16.22087192631791,
        16.247383339529346,
        16.273876833498242,
        16.300354113835844,
        16.326816917608458,
        16.35326701075123,
        16.379706201388135,
        16.406136368140004,
        16.43255949932708,
        16.45897774362153,
        16.48539345700419,
        16.511809235380536,
        16.538227912345103,
        16.5646525072012,
        16.59108612410472
    ]
}