{
    "ate_drug": [
        4.6,
        23.9999,
        4.0,
        4.0,
        4.0,
        4.0,
        4.0,
        4.0,
        4.0,
        4.0,
        1.5,
        4.05,
        1.5,
        1.5,
        4.0,
        4.0
    ],
    "cibi_drug": [
        3.4,
        160.0,
        160.0,
        159.999,
        146.802,
        150.435,
        149.121,
        156.181,
        140.0,
        140.0,
        141.489,
        140.0,
        140.0,
        140.0,
        140.0,
        140.0
    ],
    "inefficacy": 25.091259307431816,
    "total_drugs": 54.54568576388888,
    "objective_value": 28.036701953077525,
    "tumour_diameter": [
        40.288815100608275,
        40.32912407584756,
        40.36862286695683,
        40.40733542640922,
        40.44528304289262,
        40.48248361480436,
        40.51894987761851,
        40.55468617892995,
        40.58968254291165,
        40.62390405148762,
        40.65727368328498,
        40.68965218957054,
        40.72083513909419,
        40.750596014938786,
        40.77875806259095,
        40.8052307316469,
        40.8299951519276,
        40.85307434329672,
        40.87451139372959,
        40.894357475837516,
        40.912665912008755,
        40.929489330915146,
        40.94583688571752,
        40.962701963053924,
        40.9799896453893,
        40.997613671746144,
        41.01549362580968,
        41.033550643691335,
        41.051700998040424,
        41.069845571806056,
        41.08785226739699,
        41.10552889765571,
        41.12259318515591,
        41.13867236787142,
        41.15337542283675,
        41.16640551632604,
        41.177611135636425,
        41.18695722149274,
        41.19447537180283,
        41.20022832934877,
        41.20429095772785,
        41.20674096192254,
        41.20765451821422,
        41.20844497664009,
        41.21048680826319,
        41.21362462504689,
        41.21771688244024,
        41.22263195899423,
        41.22824233797471,
        41.234416136931415,
        41.24100346970339,
        41.24781396472988,
        41.25458257598636,
        41.260932499934704,
        41.26637671055003,
        41.270411607574715,
        41.27265922431753,
        41.272929436221325,
        41.27118069019037,
        41.26745534571972,
        41.26183453547818,
        41.25441406222485,
        41.24529273056974,
        41.23456690509332,
        41.22394775195189,
        41.2150913205885,
        41.20780159602037,
        41.201899757917275,
        41.19721950370161,
        41.19360017120837,
        41.1908768023977,
        41.18886345977673,
        41.18732791922132,
        41.18595320416867,
        41.184294555702415,
        41.18178241008571,
        41.17783174612316,
        41.17200597459397,
        41.16408717772747,
        41.15402919842236,
        41.14188242356794,
        41.127741498648994,
        41.1117175661779,
        41.09392487239745,
        41.07447455013389,
        41.05529482659395,
        41.03824741460054,
        41.02310751556228,
        41.009669820244284,
        40.99774330063518,
        40.9871435703311,
        40.977681901538624,
        40.969147723870044,
        40.9612799972672,
        40.95372410582842,
        40.94598590617222,
        40.937435861604314,
        40.92742990417171,
        40.915489154982986,
        40.90137579407678,
        40.88504059057718,
        40.86653988858296,
        40.84597825820979,
        40.823478083765956,
        40.79916493421986,
        40.77316079362252,
        40.74754706134472,
        40.724332361666434,
        40.7032718831663,
        40.68414119504339,
        40.66673056711289,
        40.65083641432277,
        40.63624878216502,
        40.622731290036754,
        40.60998849101309,
        40.597618147903525,
        40.58506559411846,
        40.5716436665817,
        40.55667950502364,
        40.5396992853848,
        40.52048441793895,
        40.499003652502914,
        40.475326816556894,
        40.44956862059128,
        40.42185954106549,
        40.392331937840176,
        40.361113664445114,
        40.33039790329198,
        40.30229922393132,
        40.27655645203098,
        40.25293022763414,
        40.231197079277656,
        40.211140583489964,
        40.19253851315689,
        40.17514229893618,
        40.15864362792723,
        40.14262524305626,
        40.12651258853088,
        40.10959056587043,
        40.09115214738564,
        40.07069298614394,
        40.04797465623667,
        40.022957468502355,
        39.99571130304647,
        39.96635433695658,
        39.9350218881556,
        39.90185154546857,
        39.86697632377195,
        39.83266563258162,
        39.80110631362633,
        39.77202765081116,
        39.74518134641434,
        39.720335408164445,
        39.697264999253434,
        39.675739130320444,
        39.655499361964814,
        39.636225202420405,
        39.61748335940852,
        39.5986785829885,
        39.57907307100581,
        39.55794156828914,
        39.534770357026176,
        39.50932032770897,
        39.48155510077589,
        39.45154797094385,
        39.41942096722291,
        39.38531326488879,
        39.349366142857185,
        39.31171606418067,
        39.27468278212608,
        39.240500485922844,
        39.20889187314766,
        39.17960253213393,
        39.152394708514834,
        39.127037989752765,
        39.10329574601406,
        39.08090200582767,
        39.059527557161836,
        39.03872986764509,
        39.017901804367895,
        38.996291816449784,
        38.973162172923,
        38.94799111326088,
        38.92053624285116,
        38.89076099271127,
        38.858739964726055,
        38.8245970874889,
        38.78847359244625,
        38.750512774139544,
        38.71085299096368,
        38.67184511250404,
        38.63575123360806,
        38.60228984312963,
        38.571202985094956,
        38.54225001944166,
        38.51519842551821,
        38.489810568291446,
        38.465822608501455,
        38.44291020297343,
        38.42063747091008,
        38.39840489483419,
        38.37546121506137,
        38.35105345020998,
        38.324634911807884,
        38.29594236448098,
        38.2649278288307,
        38.23166154182898,
        38.196266847804864,
        38.15888614491091,
        38.1196646278715,
        38.07874281233781,
        38.03848235638607,
        38.00115719376002,
        37.966485546852205,
        37.934208205184916,
        37.90408210158201,
        37.87587052509667,
        37.84932869478515,
        37.824180557876105,
        37.80008124562279,
        37.776563377364695,
        37.75299009183249,
        37.72858940320151,
        37.70262851295427,
        37.67461034850001,
        37.644317531598126,
        37.61172961584469,
        37.57692972094693,
        37.54004592913944,
        37.501221422805095,
        37.460600353922246,
        37.41832138506565,
        37.37674887907881,
        37.33815932999426,
        37.30226806514986,
        37.26881317695459,
        37.23754908970325,
        37.20823675459001,
        37.18062920576933,
        37.15444832935191,
        37.129347317038196,
        37.104856941907,
        37.08033870086916,
        37.055019603413854,
        37.02816674783163,
        36.9992835507921,
        36.96815151064579,
        36.93474838728808,
        36.89915661919113,
        36.86150345431271,
        36.82193118868533,
        36.780583094644605,
        36.73759698694501,
        36.69533051098438,
        36.656053056023985,
        36.6194803144047,
        36.58535067489244,
        36.553418802132,
        36.523445867037786,
        36.495185135923776,
        36.46835881681034,
        36.44262057371695,
        36.41750201610929,
        36.392366051838316,
        36.366441925268916,
        36.33899955282095,
        36.30954479982475,
        36.27786197805996,
        36.243930831249436,
        36.207833677929955,
        36.169697307017714,
        36.12966341977937,
        36.087874657323006,
        36.044468215516815,
        36.001789234917844,
        35.96209408369636,
        35.92509999272077,
        35.890546843684184,
        35.85819079989168,
        35.82779465804458,
        35.799113632903314,
        35.7718713053384,
        35.745723775215325,
        35.72020798734428,
        35.694693654545574,
        35.6684161410422,
        35.6406479810602,
        35.610894205086204,
        35.57893705873284,
        35.544754383965646,
        35.50842695459795,
        35.47008027376987,
        35.42985491890156,
        35.387892513703285,
        35.344329326982596,
        35.301491728248635,
        35.261617627119485,
        35.22442680172478,
        35.189661361570636,
        35.15707940729278,
        35.12644540366205,
        35.09751597250476,
        35.070017044832916,
        35.04360688623744,
        35.01782331643853,
        34.99203797087208,
        34.96549148238581,
        34.93746591366736,
        34.90747669947611,
        34.87531331420596,
        34.84095699864436,
        34.80448942832212,
        34.766035748567774,
        34.7257356332994,
        34.68372961725685,
        34.64015286575127,
        34.59730477351104,
        34.5573961685144,
        34.52014947838181,
        34.485309226015154,
        34.45263574933388,
        34.421895673308235,
        34.39284784127587,
        34.365220688388796,
        34.33867562914729,
        34.31275478522626,
        34.286835778995666,
        34.26016682740863,
        34.23203769827509,
        34.201969445257255,
        34.1697541422631,
        34.13537327819284,
        34.098907431564854,
        34.06048003302993,
        34.02022880828849,
        33.97829229832963,
        33.93480370798721,
        33.89203935084952,
        33.85218785239251,
        33.81497492363491,
        33.78014811308881,
        33.74747059374913,
        33.71671174472753,
        33.687633242201244,
        33.65996668618767,
        33.63337739355662,
        33.607412734054094,
        33.5814575400835,
        33.55476912879719,
        33.52664657553509,
        33.496617925236116,
        33.464475650865495,
        33.43019847374797,
        33.393865918316926,
        33.35559968860671,
        33.315535531136284,
        33.27380996793956,
        33.23055423526181,
        33.18801507055636,
        33.14835222253488,
        33.11129492211613,
        33.07659393326793,
        33.04401540752648,
        33.01333158603299,
        32.98430706341492,
        32.956676676575135,
        32.93010972072489,
        32.90415889233099,
        32.878216305741795,
        32.85154826822617,
        32.82346272031948,
        32.793493983629745,
        32.761440582031554,
        32.727285248895754,
        32.6911069027741,
        32.65302599183533,
        32.61317678056977,
        32.57169427884748,
        32.528708279661885,
        32.48643556527727,
        32.44700646106133,
        32.41015409262734,
        32.37563282412391,
        32.34321220047082,
        32.3126677745507,
        32.28376756093056,
        32.25624673881712,
        32.22977554373542,
        32.203912537906895,
        32.17805784959427,
        32.15148771899357,
        32.12351986560976,
        32.09369548927109,
        32.0618162247693,
        32.02786505031326,
        31.991919549267156,
        31.95409813674814,
        31.914532782353305,
        31.873356154134644,
        31.830695756394825,
        31.788736725974076
    ]
}