{
    "synthesized_therapy": {
        "ate_freq_in": 5.81673,
        "ate_m10_in": 3.4448,
        "ate_m11_in": 22.9136,
        "ate_m12_in": 20.3042,
        "ate_m13_in": 7.02034,
        "ate_m14_in": 1.61003,
        "ate_m15_in": 11.0266,
        "ate_m1_in": 0.891394,
        "ate_m2_in": 18.8402,
        "ate_m3_in": 1.77812,
        "ate_m4_in": 20.0138,
        "ate_m5_in": 5.44796,
        "ate_m6_in": 16.788,
        "ate_m7_in": 8.56845,
        "ate_m8_in": 10.9197,
        "ate_m9_in": 8.94653,
        "cibi_freq_in": 5.64653,
        "cibi_m10_in": 124.998,
        "cibi_m11_in": 97.9414,
        "cibi_m12_in": 60.4577,
        "cibi_m13_in": 151.63,
        "cibi_m14_in": 81.3588,
        "cibi_m15_in": 1.94642,
        "cibi_m1_in": 154.991,
        "cibi_m2_in": 8.59767,
        "cibi_m3_in": 46.6349,
        "cibi_m4_in": 14.2874,
        "cibi_m5_in": 91.4743,
        "cibi_m6_in": 12.7148,
        "cibi_m7_in": 44.3689,
        "cibi_m8_in": 134.019,
        "cibi_m9_in": 39.0569
    },
    "tumour_diameter": 0.485250060397439,
    "total_drugs": 26.424300260416665,
    "objective": 2.6478038852668346,
    "inefficacy": 0.005970954694630844
}
