{
    "ate_drug": [
        5.62394,
        24.0,
        1.74989e-26,
        22.0411,
        7.20248e-101,
        4.4958e-64,
        0.0,
        22.9703,
        24.0,
        5.46872e-81,
        21.3227,
        0.0,
        0.0,
        0.0,
        2.72161e-27,
        1.23289e-43
    ],
    "cibi_drug": [
        4.05905,
        41.4146,
        1.73712,
        1.26719,
        1.31157e-16,
        18.0604,
        1.10475e-06,
        1.19028e-213,
        0.0,
        2.04801e-72,
        1.61306e-108,
        1.03793e-48,
        0.0,
        160.0,
        0.0,
        0.000102391
    ],
    "inefficacy": 19.404505317677906,
    "total_drugs": 13.851272899305556,
    "objective_value": 18.84918207584067,
    "tumour_diameter": [
        30.79963627529906,
        30.861716269637466,
        30.922993419534354,
        30.983467325916273,
        31.04313535298465,
        31.101992415900856,
        31.160030859353355,
        31.217241206033357,
        31.273613641885547,
        31.329139636031137,
        31.38381307523383,
        31.4376307471236,
        31.490592287770713,
        31.542699839680207,
        31.593957604067217,
        31.644371414508523,
        31.693948338815478,
        31.742696383165036,
        31.79062425578854,
        31.83774119891407,
        31.884056873973993,
        31.929581282024454,
        31.974324692971848,
        32.018297571308906,
        32.061510451241276,
        32.10397381662712,
        32.14569797767035,
        32.186692980939064,
        32.226968558131105,
        32.26664009218298,
        32.305833824165965,
        32.34453186228151,
        32.38271267206021,
        32.42035097068818,
        32.457417773253525,
        32.49388227913561,
        32.52971504858956,
        32.56489108030395,
        32.599391632976314,
        32.633204627872495,
        32.666324040005435,
        32.69874883866135,
        32.7304818537455,
        32.76152875825315,
        32.79189725351119,
        32.82159641977358,
        32.85063626837592,
        32.879027422307175,
        32.9067809091238,
        32.93390802581887,
        32.96042023049755,
        32.98632901924833,
        33.01164576720338,
        33.03638154967085,
        33.06054698276941,
        33.084152115889935,
        33.10720638465229,
        33.12980846926152,
        33.1520679175463,
        33.17393375652837,
        33.195358892911166,
        33.21630605301406,
        33.236747954079334,
        33.256666235305836,
        33.27604987134427,
        33.294893559253445,
        33.31319628427312,
        33.33096017672435,
        33.34818962977641,
        33.36489065394769,
        33.38107042368544,
        33.39673696925991,
        33.41189896703942,
        33.42656556179755,
        33.440746181776255,
        33.454450313222246,
        33.4676872593735,
        33.48046593130624,
        33.492794704999454,
        33.50468136281104,
        33.51613307964159,
        33.52715646438509,
        33.53775761261724,
        33.54794216709343,
        33.55771537677609,
        33.56717352614241,
        33.57642690552115,
        33.58541314926795,
        33.594076354041,
        33.60237331837056,
        33.61027277102333,
        33.617753579383226,
        33.62480269079268,
        33.63141322611973,
        33.63758288529065,
        33.64331270349826,
        33.64860611910954,
        33.65346830418204,
        33.6579057016239,
        33.661925709028694,
        33.66553644814199,
        33.66874654453815,
        33.67156487923501,
        33.67400030385331,
        33.676061367161445,
        33.677756105668855,
        33.67909192269947,
        33.68007555596178,
        33.68071309105578,
        33.681010020276574,
        33.68097130892134,
        33.68060146466684,
        33.679904602436665,
        33.67888449883933,
        33.677544654963135,
        33.67588831918367,
        33.67391853581938,
        33.67163817207396,
        33.66904994259222,
        33.666156430910526,
        33.662960010383294,
        33.65946324560795,
        33.65566832468153,
        33.65157745652713,
        33.647192783193745,
        33.64251638784558,
        33.63755030062099,
        33.6322964288934,
        33.62675686088417,
        33.620933428029815,
        33.61482799410445,
        33.60844239173155,
        33.601778424658015,
        33.59483786829462,
        33.58762244557341,
        33.580133934026044,
        33.572374008477865,
        33.56434434749187,
        33.556046609519775,
        33.54748243161577,
        33.5386534311483,
        33.529753816692164,
        33.52100371929581,
        33.512336986029226,
        33.50367818708128,
        33.494947080712095,
        33.48606374905027,
        33.47695523702182,
        33.46756078583942,
        33.457834092755455,
        33.44774288232188,
        33.437266939928726,
        33.426395636104075,
        33.415125558018154,
        33.40345850953662,
        33.391399951342805,
        33.378957823450506,
        33.36614172290104,
        33.3529623389903,
        33.33943108427618,
        33.32555984231069,
        33.31136074903954,
        33.29684594021585,
        33.28202725554766,
        33.26691592883916,
        33.25152235159942,
        33.23585593377045,
        33.21992506693211,
        33.20373716215297,
        33.1872987306133,
        33.170615483700296,
        33.15369243350752,
        33.13653398915795,
        33.11914404215053,
        33.10152604094764,
        33.08368305507136,
        33.06561781045942,
        33.047332813157055,
        33.028830272518356,
        33.010112212354606,
        32.991180480036846,
        32.97203677092954,
        32.95268264840056,
        32.93311954802129,
        32.91334885356107,
        32.89337181799141,
        32.87318963612345,
        32.85280343914036,
        32.83221430128999,
        32.81142325157787,
        32.79043123535244,
        32.76923928679299,
        32.74784829046031,
        32.72625913933706,
        32.70447270645091,
        32.68248984659202,
        32.660311398711514,
        32.63793814017878,
        32.61537097750441,
        32.59261067197492,
        32.56965802066578,
        32.546513817275674,
        32.523178852093736,
        32.49965391345997,
        32.4759397384653,
        32.452037217766545,
        32.42794709296739,
        32.40367016036539,
        32.37920721970903,
        32.35455907811128,
        32.32972655029952,
        32.30470833239415,
        32.27950286168308,
        32.25411058527044,
        32.228531942775845,
        32.20276736777299,
        32.17681728889378,
        32.15068213061722,
        32.12436227970343,
        32.097858220104634,
        32.07117033595659,
        32.04429903677941,
        32.01724473071581,
        31.990007823094885,
        31.962588715688742,
        31.934987755839803,
        31.90720543976787,
        31.879242107302407,
        31.851098144207803,
        31.822773932243894,
        31.794269848310797,
        31.765586264207872,
        31.736723517990864,
        31.707682026090485,
        31.678462118758215,
        31.649064143969,
        31.61948844470713,
        31.589735358157434,
        31.559805215116725,
        31.529698329334916,
        31.499415037365694,
        31.468955641113098,
        31.438320442879885,
        31.40750973902402,
        31.376523818463895,
        31.34536296268644,
        31.31402741276291,
        31.282517500296088,
        31.250833453859034,
        31.218975523321568,
        31.18694395249391,
        31.154738977338727,
        31.12236082585446,
        31.089809696597385,
        31.05708584362008,
        31.024189452758623,
        30.991120719103872,
        30.95787983062501,
        30.924466967790774,
        30.89088230309077,
        30.85712597979474,
        30.82319819359094,
        30.789099075196997,
        30.7548287626143,
        30.72038738719161,
        30.685775072484084,
        30.650991933863562,
        30.616038072371293,
        30.58091359648088,
        30.545618594044505,
        30.510153145601365,
        30.474517325114043,
        30.438711198346112,
        30.40273482288016,
        30.36658822672452,
        30.330271490585798,
        30.293784629338692,
        30.25712766538068,
        30.22030061441918,
        30.18330348402953,
        30.146136273547587,
        30.108798952988867,
        30.07129154567472,
        30.033614005450872,
        29.99576629778756,
        29.957748380236005,
        29.91956020176418,
        29.881201703002233,
        29.842672797200542,
        29.80397344572364,
        29.76510354718144,
        29.726063007752902,
        29.686851726666152,
        29.64746959478783,
        29.607916494596804,
        29.5681922799221,
        29.528296857679337,
        29.488230065889248,
        29.447991753773717,
        29.40758176323201,
        29.366999927875703,
        29.32624607316938,
        29.28532000606959,
        29.24422155617464,
        29.202950517749844,
        29.16150668325105,
        29.119889839081125,
        29.07809976416527,
        29.03613622999156,
        28.99399899137106,
        28.951687821700695,
        28.909202464561066,
        28.866542661035997,
        28.823708146918413,
        28.78069865149103,
        28.737513897596408,
        28.694153593576896,
        28.65061746504333,
        28.606905211375167,
        28.563016530415258,
        28.518951116299284,
        28.47470865832053,
        28.430288841199413,
        28.38569133724866,
        28.34091583928774,
        28.29596201418568,
        28.250829531620465,
        28.205518059858974,
        28.160027265762785,
        28.114356814775586,
        28.068506364305545,
        28.022475593990766,
        27.976264163144773,
        27.929871738901227,
        27.88329799103496,
        27.836542593552753,
        27.789605224784058,
        27.74248556308781,
        27.695183309302166,
        27.64769815693539,
        27.600029813208106,
        27.552177996279674,
        27.50414243607862,
        27.455922877434542,
        27.40751907893757,
        27.35893082053644,
        27.310157897854815,
        27.26120012903362,
        27.212057355616174,
        27.162729445978286,
        27.113216298225673,
        27.06351784148764,
        27.01363403967967,
        26.963564895009515,
        26.913310449974222,
        26.862870790993878,
        26.812246056253525,
        26.761436435692126,
        26.710442182696525,
        26.659263591665038,
        26.607901046663454,
        26.556354993289094,
        26.504625956356005,
        26.452714546140793,
        26.400621461244125,
        26.348568076199644,
        26.29681802493889,
        26.24532479285436,
        26.19403906320909,
        26.142908137904605,
        26.091871962640052,
        26.040860121079582,
        25.98979205013921,
        25.938581978772632,
        25.887147317701352,
        25.83541686315271,
        25.78333573537441,
        25.730866427035,
        25.67798714789557,
        25.624688965496404,
        25.570972789951828,
        25.516846710137685,
        25.462323864469518,
        25.407420836486335,
        25.352156510775934,
        25.296551298680974,
        25.240626645474503,
        25.184404721992287,
        25.127908197350028,
        25.071159997979937,
        25.01418300126257,
        24.956999694046534,
        24.89963187674707,
        24.8421004808644,
        24.784425516257983,
        24.726626125088334,
        24.668720700905922,
        24.610727039701825,
        24.55266249839919,
        24.494544147632325,
        24.43638891938473
    ]
}