======= APRICOPT =========

=== Optimization through COPASI solver ===


Solver settings: 

Method: Nelder - Mead
    Log Verbosity: 0
    Iteration Limit: 1200
    Tolerance: 0.1
    Scale: 10



Optimization Log:

Function Evaluation	Objective Value		Optimization Parameters
1			15.3234			(	4	24	24	24	24	24	24	24	24	24	24	24	24	24	24	24	3	160	160	160	160	160	160	160	160	160	160	160	160	160	160	160	)
2			14.3236			(	4.5	24	24	24	24	24	24	24	24	24	24	24	24	24	24	24	3	160	160	160	160	160	160	160	160	160	160	160	160	160	160	160	)
18			13.3059			(	4	24	24	24	24	24	24	24	24	24	24	24	24	24	24	24	3.5	160	160	160	160	160	160	160	160	160	160	160	160	160	160	160	)
402			13.3059			(	4.4	24	24	24	24	24	24	24	24	24	24	24	24	24	24	24	3.5	160	160	160	160	160	160	160	160	160	160	160	160	160	160	160	)
403			13.2792			(	4	22.08	24	24	24	24	24	24	24	24	24	24	24	24	24	24	3.5	160	160	160	160	160	160	160	160	160	160	160	160	160	160	160	)
404			13.2792			(	4	24	22.08	24	24	24	24	24	24	24	24	24	24	24	24	24	3.5	160	160	160	160	160	160	160	160	160	160	160	160	160	160	160	)
405			13.2792			(	4	24	24	22.08	24	24	24	24	24	24	24	24	24	24	24	24	3.5	160	160	160	160	160	160	160	160	160	160	160	160	160	160	160	)
406			13.2792			(	4	24	24	24	22.08	24	24	24	24	24	24	24	24	24	24	24	3.5	160	160	160	160	160	160	160	160	160	160	160	160	160	160	160	)
407			13.2792			(	4	24	24	24	24	22.08	24	24	24	24	24	24	24	24	24	24	3.5	160	160	160	160	160	160	160	160	160	160	160	160	160	160	160	)
409			13.2525			(	4	24	24	24	24	24	24	22.08	24	24	24	24	24	24	24	24	3.5	160	160	160	160	160	160	160	160	160	160	160	160	160	160	160	)
439			13.2525			(	4.32	24	24	24	24	24	24	22.08	24	24	24	24	24	24	24	24	3.5	160	160	160	160	160	160	160	160	160	160	160	160	160	160	160	)
440			13.2312			(	4	22.464	24	24	24	24	24	22.08	24	24	24	24	24	24	24	24	3.5	160	160	160	160	160	160	160	160	160	160	160	160	160	160	160	)
441			13.2312			(	4	24	22.464	24	24	24	24	22.08	24	24	24	24	24	24	24	24	3.5	160	160	160	160	160	160	160	160	160	160	160	160	160	160	160	)
442			13.2312			(	4	24	24	22.464	24	24	24	22.08	24	24	24	24	24	24	24	24	3.5	160	160	160	160	160	160	160	160	160	160	160	160	160	160	160	)
443			13.2312			(	4	24	24	24	22.464	24	24	22.08	24	24	24	24	24	24	24	24	3.5	160	160	160	160	160	160	160	160	160	160	160	160	160	160	160	)
444			13.2312			(	4	24	24	24	24	22.464	24	22.08	24	24	24	24	24	24	24	24	3.5	160	160	160	160	160	160	160	160	160	160	160	160	160	160	160	)
462			13.2202			(	4	24	24	24	24	24	24	22.08	24	24	24	24	24	24	24	24	3.5	160	160	160	160	160	160	149.76	160	160	160	160	160	160	160	160	)
471			13.1167			(	4.03	23.856	23.856	23.856	23.856	23.856	23.856	19.008	23.856	23.856	23.856	23.856	23.856	23.856	23.856	23.856	3.53	159.04	159.04	159.04	159.04	159.04	159.04	159.04	159.04	159.04	159.04	159.04	159.04	159.04	159.04	159.04	)
472			12.9382			(	4.06	23.712	23.712	23.712	23.712	23.712	23.712	14.4	23.712	23.712	23.712	23.712	23.712	23.712	23.712	23.712	3.56	158.08	158.08	158.08	158.08	158.08	158.08	158.08	158.08	158.08	158.08	158.08	158.08	158.08	158.08	158.08	)
477			12.9382			(	4.316	23.712	23.712	23.712	23.712	23.712	23.712	14.4	23.712	23.712	23.712	23.712	23.712	23.712	23.712	23.712	3.56	158.08	158.08	158.08	158.08	158.08	158.08	158.08	158.08	158.08	158.08	158.08	158.08	158.08	158.08	158.08	)
478			12.9211			(	4.06	22.4832	23.712	23.712	23.712	23.712	23.712	14.4	23.712	23.712	23.712	23.712	23.712	23.712	23.712	23.712	3.56	158.08	158.08	158.08	158.08	158.08	158.08	158.08	158.08	158.08	158.08	158.08	158.08	158.08	158.08	158.08	)
479			12.9211			(	4.06	23.712	22.4832	23.712	23.712	23.712	23.712	14.4	23.712	23.712	23.712	23.712	23.712	23.712	23.712	23.712	3.56	158.08	158.08	158.08	158.08	158.08	158.08	158.08	158.08	158.08	158.08	158.08	158.08	158.08	158.08	158.08	)
480			12.9211			(	4.06	23.712	23.712	22.4832	23.712	23.712	23.712	14.4	23.712	23.712	23.712	23.712	23.712	23.712	23.712	23.712	3.56	158.08	158.08	158.08	158.08	158.08	158.08	158.08	158.08	158.08	158.08	158.08	158.08	158.08	158.08	158.08	)
481			12.9211			(	4.06	23.712	23.712	23.712	22.4832	23.712	23.712	14.4	23.712	23.712	23.712	23.712	23.712	23.712	23.712	23.712	3.56	158.08	158.08	158.08	158.08	158.08	158.08	158.08	158.08	158.08	158.08	158.08	158.08	158.08	158.08	158.08	)
482			12.9211			(	4.06	23.712	23.712	23.712	23.712	22.4832	23.712	14.4	23.712	23.712	23.712	23.712	23.712	23.712	23.712	23.712	3.56	158.08	158.08	158.08	158.08	158.08	158.08	158.08	158.08	158.08	158.08	158.08	158.08	158.08	158.08	158.08	)
485			12.9211			(	4.06	23.712	23.712	23.712	23.712	23.712	23.712	14.4	22.4832	23.712	23.712	23.712	23.712	23.712	23.712	23.712	3.56	158.08	158.08	158.08	158.08	158.08	158.08	158.08	158.08	158.08	158.08	158.08	158.08	158.08	158.08	158.08	)
500			12.9123			(	4.06	23.712	23.712	23.712	23.712	23.712	23.712	14.4	23.712	23.712	23.712	23.712	23.712	23.712	23.712	23.712	3.56	158.08	158.08	158.08	158.08	158.08	158.08	149.888	158.08	158.08	158.08	158.08	158.08	158.08	158.08	158.08	)
509			12.8295			(	4.084	23.5968	23.5968	23.5968	23.5968	23.5968	23.5968	11.9424	23.5968	23.5968	23.5968	23.5968	23.5968	23.5968	23.5968	23.5968	3.584	157.312	157.312	157.312	157.312	157.312	157.312	157.312	157.312	157.312	157.312	157.312	157.312	157.312	157.312	157.312	)
510			12.6866			(	4.108	23.4816	23.4816	23.4816	23.4816	23.4816	23.4816	8.256	23.4816	23.4816	23.4816	23.4816	23.4816	23.4816	23.4816	23.4816	3.608	156.544	156.544	156.544	156.544	156.544	156.544	156.544	156.544	156.544	156.544	156.544	156.544	156.544	156.544	156.544	)
515			12.6865			(	4.3128	23.4816	23.4816	23.4816	23.4816	23.4816	23.4816	8.256	23.4816	23.4816	23.4816	23.4816	23.4816	23.4816	23.4816	23.4816	3.608	156.544	156.544	156.544	156.544	156.544	156.544	156.544	156.544	156.544	156.544	156.544	156.544	156.544	156.544	156.544	)
516			12.6729			(	4.108	22.4986	23.4816	23.4816	23.4816	23.4816	23.4816	8.256	23.4816	23.4816	23.4816	23.4816	23.4816	23.4816	23.4816	23.4816	3.608	156.544	156.544	156.544	156.544	156.544	156.544	156.544	156.544	156.544	156.544	156.544	156.544	156.544	156.544	156.544	)
517			12.6729			(	4.108	23.4816	22.4986	23.4816	23.4816	23.4816	23.4816	8.256	23.4816	23.4816	23.4816	23.4816	23.4816	23.4816	23.4816	23.4816	3.608	156.544	156.544	156.544	156.544	156.544	156.544	156.544	156.544	156.544	156.544	156.544	156.544	156.544	156.544	156.544	)
518			12.6729			(	4.108	23.4816	23.4816	22.4986	23.4816	23.4816	23.4816	8.256	23.4816	23.4816	23.4816	23.4816	23.4816	23.4816	23.4816	23.4816	3.608	156.544	156.544	156.544	156.544	156.544	156.544	156.544	156.544	156.544	156.544	156.544	156.544	156.544	156.544	156.544	)
519			12.6729			(	4.108	23.4816	23.4816	23.4816	22.4986	23.4816	23.4816	8.256	23.4816	23.4816	23.4816	23.4816	23.4816	23.4816	23.4816	23.4816	3.608	156.544	156.544	156.544	156.544	156.544	156.544	156.544	156.544	156.544	156.544	156.544	156.544	156.544	156.544	156.544	)
520			12.6729			(	4.108	23.4816	23.4816	23.4816	23.4816	22.4986	23.4816	8.256	23.4816	23.4816	23.4816	23.4816	23.4816	23.4816	23.4816	23.4816	3.608	156.544	156.544	156.544	156.544	156.544	156.544	156.544	156.544	156.544	156.544	156.544	156.544	156.544	156.544	156.544	)
523			12.6729			(	4.108	23.4816	23.4816	23.4816	23.4816	23.4816	23.4816	8.256	22.4986	23.4816	23.4816	23.4816	23.4816	23.4816	23.4816	23.4816	3.608	156.544	156.544	156.544	156.544	156.544	156.544	156.544	156.544	156.544	156.544	156.544	156.544	156.544	156.544	156.544	)
538			12.6659			(	4.108	23.4816	23.4816	23.4816	23.4816	23.4816	23.4816	8.256	23.4816	23.4816	23.4816	23.4816	23.4816	23.4816	23.4816	23.4816	3.608	156.544	156.544	156.544	156.544	156.544	156.544	149.99	156.544	156.544	156.544	156.544	156.544	156.544	156.544	156.544	)
547			12.5995			(	4.1272	23.3894	23.3894	23.3894	23.3894	23.3894	23.3894	6.28992	23.3894	23.3894	23.3894	23.3894	23.3894	23.3894	23.3894	23.3894	3.6272	155.93	155.93	155.93	155.93	155.93	155.93	155.93	155.93	155.93	155.93	155.93	155.93	155.93	155.93	155.93	)
548			12.4849			(	4.1464	23.2973	23.2973	23.2973	23.2973	23.2973	23.2973	3.3408	23.2973	23.2973	23.2973	23.2973	23.2973	23.2973	23.2973	23.2973	3.6464	155.315	155.315	155.315	155.315	155.315	155.315	155.315	155.315	155.315	155.315	155.315	155.315	155.315	155.315	155.315	)
553			12.4849			(	4.31024	23.2973	23.2973	23.2973	23.2973	23.2973	23.2973	3.3408	23.2973	23.2973	23.2973	23.2973	23.2973	23.2973	23.2973	23.2973	3.6464	155.315	155.315	155.315	155.315	155.315	155.315	155.315	155.315	155.315	155.315	155.315	155.315	155.315	155.315	155.315	)
554			12.474			(	4.1464	22.5108	23.2973	23.2973	23.2973	23.2973	23.2973	3.3408	23.2973	23.2973	23.2973	23.2973	23.2973	23.2973	23.2973	23.2973	3.6464	155.315	155.315	155.315	155.315	155.315	155.315	155.315	155.315	155.315	155.315	155.315	155.315	155.315	155.315	155.315	)
555			12.474			(	4.1464	23.2973	22.5108	23.2973	23.2973	23.2973	23.2973	3.3408	23.2973	23.2973	23.2973	23.2973	23.2973	23.2973	23.2973	23.2973	3.6464	155.315	155.315	155.315	155.315	155.315	155.315	155.315	155.315	155.315	155.315	155.315	155.315	155.315	155.315	155.315	)
556			12.474			(	4.1464	23.2973	23.2973	22.5108	23.2973	23.2973	23.2973	3.3408	23.2973	23.2973	23.2973	23.2973	23.2973	23.2973	23.2973	23.2973	3.6464	155.315	155.315	155.315	155.315	155.315	155.315	155.315	155.315	155.315	155.315	155.315	155.315	155.315	155.315	155.315	)
557			12.474			(	4.1464	23.2973	23.2973	23.2973	22.5108	23.2973	23.2973	3.3408	23.2973	23.2973	23.2973	23.2973	23.2973	23.2973	23.2973	23.2973	3.6464	155.315	155.315	155.315	155.315	155.315	155.315	155.315	155.315	155.315	155.315	155.315	155.315	155.315	155.315	155.315	)
558			12.474			(	4.1464	23.2973	23.2973	23.2973	23.2973	22.5108	23.2973	3.3408	23.2973	23.2973	23.2973	23.2973	23.2973	23.2973	23.2973	23.2973	3.6464	155.315	155.315	155.315	155.315	155.315	155.315	155.315	155.315	155.315	155.315	155.315	155.315	155.315	155.315	155.315	)
561			12.474			(	4.1464	23.2973	23.2973	23.2973	23.2973	23.2973	23.2973	3.3408	22.5108	23.2973	23.2973	23.2973	23.2973	23.2973	23.2973	23.2973	3.6464	155.315	155.315	155.315	155.315	155.315	155.315	155.315	155.315	155.315	155.315	155.315	155.315	155.315	155.315	155.315	)
576			12.4684			(	4.1464	23.2973	23.2973	23.2973	23.2973	23.2973	23.2973	3.3408	23.2973	23.2973	23.2973	23.2973	23.2973	23.2973	23.2973	23.2973	3.6464	155.315	155.315	155.315	155.315	155.315	155.315	150.072	155.315	155.315	155.315	155.315	155.315	155.315	155.315	155.315	)
585			12.4149			(	4.16176	23.2236	23.2236	23.2236	23.2236	23.2236	23.2236	1.76794	23.2236	23.2236	23.2236	23.2236	23.2236	23.2236	23.2236	23.2236	3.66176	154.824	154.824	154.824	154.824	154.824	154.824	154.824	154.824	154.824	154.824	154.824	154.824	154.824	154.824	154.824	)
591			12.4149			(	4.29283	23.2236	23.2236	23.2236	23.2236	23.2236	23.2236	1.76794	23.2236	23.2236	23.2236	23.2236	23.2236	23.2236	23.2236	23.2236	3.66176	154.824	154.824	154.824	154.824	154.824	154.824	154.824	154.824	154.824	154.824	154.824	154.824	154.824	154.824	154.824	)
