======= APRICOPT =========

=== Optimization through COPASI solver ===


Solver settings: 

Method: Differential Evolution
    Log Verbosity: 0
    Number of Generations: 25
    Population Size: 64
    Random Number Generator: 1
    Seed: 104
    Mutation Variance: 0.1
    Stop after # Stalled Generations: 0

Population Information: 
Population Size: 0
# Generations / Iterations: 0
Current Generation / Iteration: 0
Population Values: 
   (		)

Population:



Optimization Log:

Function Evaluation	Objective Value		Optimization Parameters
1			27.9418			(	4	24	24	24	24	24	24	24	24	24	24	24	24	24	24	24	3	160	160	160	160	160	160	160	160	160	160	160	160	160	160	160	)
199			4.59684			(	3.65518	0	0	24	1.33561e-167	24	0	24	24	0	24	2.88709e-156	24	0	3.92868e-149	1.46607e-19	3	160	3.59669e-78	7.16341e-75	160	160	0	160	160	160	3.67325e-65	160	0.00162741	0	4.64187e-186	0	)
604			3.62176			(	6	3.80369e-123	3.45032e-80	3.08429e-42	24	24	8.71168e-45	1.25895e-149	8.81734e-113	24	2.02451e-221	2.60819e-129	9.65789e-26	24	23.9848	1.20424e-268	4.37653	6.91284e-273	1.70368e-179	2.50188e-156	1.71728e-163	2.29323e-11	1.79897e-156	160	134.549	0.329186	2.20915e-50	4.1506e-134	2.99523e-90	146.884	1.79766e-50	132.09	)
1009			2.79524			(	6	5.01685e-67	0	3.81097e-167	2.24822e-66	24	1.48185e-108	24	2.41759e-78	4.44471e-123	24	0	1.40492e-20	5.12097e-224	24	0	2.95915	0.0371355	0	5.15362e-212	160	160	0	160	2.17294e-30	0.316772	2.36764e-43	0	0	160	2.35142e-50	160	)
1144			2.76745			(	5.02689	17.8403	5.97733e-277	22.0216	24	1.95543e-114	1.88099e-175	24	4.4175e-241	2.03471e-304	21.8058	0	23.6509	4.55982e-44	24	3.69332e-75	3.84449	131.53	5.50783e-305	7.33477e-102	1.6785e-223	3.20023e-216	1.35194e-05	7.00606e-20	152.257	1.1929	4.58018e-50	2.64952e-51	2.40204e-258	160	2.32216e-07	131.351	)
1279			1.35905			(	6	24	1.95043e-189	5.97775e-227	6.37066e-123	1.36081e-27	0	22.3237	7.30801e-41	3.2885e-235	23.9814	4.73176e-64	1.10891e-106	20.6061	22.0585	7.94639e-14	5.14571	6.81188e-50	156.395	4.62173e-144	5.52376e-148	160	1.39695e-05	2.22413e-162	2.13224e-283	1.0934	6.71913e-78	4.13191e-82	0	160	0	148.439	)
1684			1.011			(	6	3.62646e-146	7.68179e-93	0	24	0	5.327e-32	24	2.04794e-186	3.62057e-123	0	0	1.56048e-20	0	0	0	6	3.54902e-93	0	0	0	0	1.00823e-175	0	1.10137e-223	146.915	0	160	1.01915	156.891	0	119.972	)
