{
    "ate_drug": [
        5.00186,
        0.00635562,
        1.18403,
        1.22357,
        2.07881,
        0.378879,
        1.21511,
        0.0282408,
        3.5379,
        0.781733,
        0.693973,
        0.816355,
        1.41226,
        0.735637,
        0.597366,
        1.79308
    ],
    "cibi_drug": [
        5.30534,
        4.03915,
        7.41186,
        8.55665,
        8.92125,
        8.96528,
        5.30805,
        14.6007,
        7.84109,
        5.13848,
        3.27676,
        0.91094,
        2.12436,
        8.80327,
        1.47157,
        8.87756
    ],
    "inefficacy": 1.6206253045490893,
    "total_drugs": 3.0252529236111103,
    "objective_value": 1.7610880664552915,
    "tumour_diameter": [
        13.709787259250787,
        13.723197052756616,
        13.734885609875402,
        13.745011546150671,
        13.753717142348615,
        13.76113011799053,
        13.767365209169183,
        13.772525562129317,
        13.776703958050316,
        13.77998391587572,
        13.782440639027644,
        13.784141888013645,
        13.785148741694655,
        13.785516279095317,
        13.785294188050269,
        13.784527308007686,
        13.78325612133862,
        13.781517182082103,
        13.779343511492007,
        13.776764947215518,
        13.773808457936786,
        13.770498426089684,
        13.76685690101934,
        13.762903830629854,
        13.758657262368947,
        13.75413353141243,
        13.74934742658035,
        13.744312340520988,
        13.739040405075336,
        13.73354261297087,
        13.727828929230592,
        13.721908388254723,
        13.715789185765718,
        13.709478755622554,
        13.702983849600537,
        13.696310596191584,
        13.689464536590895,
        13.6824506284282,
        13.675273381915106,
        13.667936903819468,
        13.660444943798536,
        13.652800934680066,
        13.645008027557674,
        13.637069122772926,
        13.628986897624134,
        13.620763829599207,
        13.612402218081897,
        13.6039042028876,
        13.595271780775935,
        13.586506820056341,
        13.577611073377462,
        13.56858618983109,
        13.55943372375528,
        13.55015514627132,
        13.540751850432073,
        13.531225160232575,
        13.521576336584909,
        13.511806582878576,
        13.501917050724119,
        13.491908843526819,
        13.48178302126457,
        13.471540603952873,
        13.461182574933062,
        13.450709883812772,
        13.440123447770786,
        13.429424159302108,
        13.418612880263593,
        13.407690449237183,
        13.396657681785667,
        13.385515372212478,
        13.37426429480847,
        13.362905208015647,
        13.351438855788262,
        13.339865960123587,
        13.328187225714466,
        13.316403341940456,
        13.304514984082765,
        13.292522814244958,
        13.280427482027292,
        13.26822962581841,
        13.255929872513006,
        13.24352883863578,
        13.231027130620229,
        13.21842534517001,
        13.205724069629,
        13.192923882168861,
        13.180025352456557,
        13.167029041318914,
        13.153935501407142,
        13.14074527729437,
        13.127458905697468,
        13.11407691567727,
        13.10059982853245,
        13.087028159107668,
        13.073362414265318,
        13.059603094162982,
        13.045750692114062,
        13.031805694722571,
        13.017768582007267,
        13.003639826751535,
        12.989419897703936,
        12.97510925503162,
        12.960708353532421,
        12.946217641951169,
        12.931637563062685,
        12.916968553837126,
        12.902211048283728,
        12.88736547821658,
        12.872432263835417,
        12.857411817865435,
        12.842304546847178,
        12.827110851649586,
        12.81183112775837,
        12.796465765322157,
        12.781015150122304,
        12.765479662527477,
        12.74985967835066,
        12.734155568712323,
        12.718367700042963,
        12.702496434091127,
        12.686542127754079,
        12.67050513376493,
        12.654385799667407,
        12.638184468517588,
        12.621901478724228,
        12.60553716407315,
        12.589091853726217,
        12.572565872221144,
        12.555959539695754,
        12.539273171569844,
        12.52250707882174,
        12.505661567944601,
        12.488736940935548,
        12.471733495386887,
        12.454651524298168,
        12.437491316759688,
        12.420253157003549,
        12.402937325079415,
        12.385544096822187,
        12.368073743372932,
        12.350526532061627,
        12.3329027289579,
        12.315202599665843,
        12.297426399420777,
        12.279574377259149,
        12.26164677734168,
        12.243643839354789,
        12.225565798793717,
        12.207412887084704,
        12.189185331924765,
        12.170883357075196,
        12.152507182597693,
        12.134057024760235,
        12.115533096192163,
        12.09693560558012,
        12.078264757756624,
        12.059520753860399,
        12.040703790946944,
        12.021814062212375,
        12.002851756914371,
        11.983817060366167,
        11.96471015390921,
        11.94553121491785,
        11.926280416841344,
        11.906957929107445,
        11.887563917185094,
        11.868098542565429,
        11.848561962758653,
        11.828954331291014,
        11.809275797689377,
        11.789526507528905,
        11.769706602373173,
        11.749816219727657,
        11.729855493167795,
        11.709824552232762,
        11.689723522457564,
        11.669552529029339,
        11.64931169690342,
        11.629001140300243,
        11.608620967478524,
        11.58817128194752,
        11.567652182845553,
        11.5470637651006,
        11.526406119586696,
        11.505679333213507,
        11.48488348906614,
        11.464018666427934,
        11.443084940776698,
        11.422082383749903,
        11.401011063086445,
        11.379871042577491,
        11.358662381932675,
        11.33738513684932,
        11.316039358755447,
        11.294625094973043,
        11.273142388539616,
        11.251591278200678,
        11.229971798387306,
        11.208283979071284,
        11.186527845907932,
        11.164703420063097,
        11.142810718229967,
        11.120849752578138,
        11.098820530720337,
        11.07672305573897,
        11.054557325894347,
        11.03232333496336,
        11.0100210719502,
        10.987650521107506,
        10.96521166189452,
        10.942704468934124,
        10.920128914502282,
        10.897484967169905,
        10.874772584051717,
        10.851991714997176,
        10.829142304116784,
        10.806224290319449,
        10.78323760763215,
        10.760182185524991,
        10.737057948588504,
        10.713864817244092,
        10.690602707288392,
        10.667271529933146,
        10.643871191705147,
        10.62040159444387,
        10.596862634787646,
        10.5732542044714,
        10.549576190136285,
        10.525828473067778,
        10.502010929144172,
        10.478123428708557,
        10.454165836474397,
        10.430138011488935,
        10.406039806672169,
        10.381871069230206,
        10.357631640194418,
        10.333321354394936,
        10.308940040346759,
        10.284487520134265,
        10.259963610008983,
        10.235368117428438,
        10.210700845184055,
        10.185961588460595,
        10.161150135414442,
        10.13626626705308,
        10.111309757157834,
        10.086280375045822,
        10.06117788686957,
        10.036002044744931,
        10.010752590700513,
        9.985429258044114,
        9.960031771732144,
        9.934559848509926,
        9.90901319720473,
        9.88339151761784,
        9.857694501979925,
        9.831921833734638,
        9.806073187598024,
        9.780148229340794,
        9.754146615563858,
        9.728067993689372,
        9.701912000875907,
        9.675678265081833,
        9.64936640398969,
        9.622976024997111,
        9.596506724994294,
        9.569958090137737,
        9.543329695890684,
        9.51662110571797,
        9.489831872448809,
        9.462961536967939,
        9.436009628229629,
        9.408975662999676,
        9.381859145590143,
        9.354659568106939,
        9.327376408096,
        9.30000913137715,
        9.272557189592115,
        9.245020020556641,
        9.217397047843567,
        9.189687680599492,
        9.161891315551005,
        9.134007338584402,
        9.106035113818027,
        9.077973987032045,
        9.04982328692051,
        9.021582325284411,
        8.993250396936698,
        8.964826779731055,
        8.936310733052464,
        8.90770149911018,
        8.878998301299333,
        8.850200343964852,
        8.82130681186605,
        8.792316869606355,
        8.763229661439446,
        8.734044309187134,
        8.704759913879359,
        8.67537555365503,
        8.645890283495325,
        8.616303134590622,
        8.586613113654323,
        8.556819202335102,
        8.526920356157829,
        8.496915504288046,
        8.466803548438827,
        8.436583362158023,
        8.406253790014164,
        8.37581364672117,
        8.345261718763785,
        8.314596753591736,
        8.283817473428986,
        8.252922564472378,
        8.221910678310193,
        8.190780430851957,
        8.159530401215495,
        8.128159133097675,
        8.09666513495089,
        8.06504686906441,
        8.033302753542301,
        8.001431162694614,
        7.96943042625144,
        7.937298828184016,
        7.905034605650036,
        7.872635946083182,
        7.840100987531078,
        7.807427815532449,
        7.774614461562349,
        7.741658901083713,
        7.7085590514947295,
        7.67531277062196,
        7.641917852014981,
        7.608372026341288,
        7.574672956493876,
        7.540818235674183,
        7.506805384739264,
        7.472631849423952,
        7.438294998112945,
        7.403792116057644,
        7.369120406246679,
        7.334276983326019,
        7.299258870733311,
        7.2640629969738,
        7.228686191701618,
        7.193125183272159,
        7.15737658770626,
        7.121436914113069,
        7.085302553324815,
        7.04896977396461,
        7.012434717835671,
        6.975693393668522,
        6.938741675320965,
        6.901575296227612,
        6.864189830147944,
        6.826580689154163,
        6.78874311762633,
        6.750672184739662,
        6.712362776211181,
        6.673809585741795,
        6.635007104347428,
        6.595949611947332,
        6.55663116528805,
        6.517045586558348,
        6.477186450900926,
        6.437047073063477,
        6.3966204940150515,
        6.355899462157935,
        6.314876422260442,
        6.273543494454625,
        6.231892456318436,
        6.1899147227226115,
        6.147601324133427,
        6.104942884381994,
        6.0619295910675515,
        6.01855117501772,
        5.974796876555579,
        5.930655414817894,
        5.88611495339297,
        5.841163062979675,
        5.795786681699983,
        5.749972067627637,
        5.703704755796085,
        5.656969502290266,
        5.609750227938523,
        5.562029955497457,
        5.513790740907314,
        5.465013600226281,
        5.415678429142499,
        5.365763899413235,
        5.315247361065373,
        5.264104732348149,
        5.212310376063722,
        5.159836961599924,
        5.106655312358773,
        5.0527342280111505,
        4.998040300331587,
        4.942537691313756,
        4.8861878913151635,
        4.828949444706702,
        4.770777639637067,
        4.711624157999792
    ]
}