======= APRICOPT =========

=== Optimization through COPASI solver ===


Solver settings: 

Method: Steepest Descent
    Log Verbosity: 0
    Iteration Limit: 300
    Tolerance: 1e-05



Optimization Log:

Function Evaluation	Objective Value		Optimization Parameters
1			32.7192			(	4	24	24	24	24	24	24	24	24	24	24	24	24	24	24	24	3	160	160	160	160	160	160	160	160	160	160	160	160	160	160	160	)
43			30.0601			(	4	13.23	13.1632	13.1728	13.2125	13.1714	24	2.4	13.278	13.111	13.3143	13.26	13.283	13.4085	13.3081	13.3183	3	158.016	158.058	156.254	158.219	158.43	158.782	157.05	158.3	156.304	158.035	157.987	155.897	157.959	157.938	155.973	)
92			29.8279			(	4	12.0999	12.023	12.0324	12.0612	12.0202	24	0.353313	12.179	11.9929	12.1798	12.1538	12.1697	12.3036	12.1661	12.1659	3	157.805	157.851	155.852	158.029	158.262	158.652	156.738	158.121	155.912	157.827	157.773	155.457	157.741	157.721	155.54	)
134			29.7972			(	4	11.7959	11.7207	11.7297	11.758	11.7167	24	2.84976	11.8811	11.6901	11.8774	11.8439	11.8778	12.0098	11.8628	11.8674	3	157.749	157.796	155.746	157.979	158.218	158.618	156.654	158.074	155.808	157.772	157.717	155.341	157.683	157.664	155.425	)
176			29.5092			(	4	10.3823	10.3045	10.3047	10.3146	10.2781	24	0.284976	10.4586	10.3166	10.4277	10.4549	10.4963	10.6065	10.4555	10.4575	3	157.486	157.537	155.243	157.741	158.009	158.456	156.262	157.852	155.314	157.513	157.451	154.791	157.408	157.391	154.883	)
218			29.4868			(	4	10.1798	10.1065	10.102	10.112	10.0771	24	2.78864	10.2541	10.1149	10.2224	10.2602	10.2913	10.4111	10.2609	10.2577	3	157.449	157.501	155.172	157.708	157.98	158.433	156.207	157.82	155.245	157.476	157.413	154.714	157.37	157.352	154.807	)
260			29.2197			(	4	8.87105	8.78009	8.76776	8.77742	8.7385	24	0.278864	8.93798	8.76388	8.93098	8.92676	8.97224	9.10503	8.93864	8.94673	3	157.206	157.26	154.704	157.487	157.785	158.283	155.842	157.614	154.785	157.229	157.165	154.202	157.113	157.098	154.301	)
302			29.1945			(	4	8.66208	8.57178	8.55791	8.57019	8.53103	24	2.78317	8.72491	8.54877	8.72208	8.71908	8.76199	8.90311	8.72634	8.73817	3	157.167	157.222	154.631	157.452	157.755	158.259	155.785	157.581	154.713	157.191	157.125	154.123	157.073	157.058	154.222	)
344			28.9038			(	4	7.17878	7.07817	7.06406	7.09281	7.0454	24	0.278317	7.34745	7.12149	7.28412	7.28429	7.32868	7.47528	7.24675	7.29098	3	156.893	156.954	154.109	157.207	157.539	158.092	155.381	157.352	154.203	156.922	156.848	153.554	156.789	156.774	153.659	)
386			28.8829			(	4	6.99317	6.89091	6.87759	6.90381	6.8546	24	2.78268	7.1696	6.93323	7.10004	7.10008	7.14912	7.28449	7.05449	7.10075	3	156.858	156.919	154.042	157.175	157.511	158.071	155.328	157.322	154.137	156.887	156.812	153.481	156.752	156.737	153.586	)
428			28.5866			(	4	5.45105	5.35021	5.3215	5.34829	5.29483	24	0.278268	5.73191	5.56961	5.6662	5.65212	5.67529	5.79043	5.54287	5.58501	3	156.572	156.638	153.494	156.917	157.284	157.895	154.903	157.082	153.601	156.602	156.526	152.886	156.458	156.441	152.996	)
470			28.5632			(	4	5.24772	5.14989	5.12115	5.14362	5.08732	24	2.78264	5.52402	5.3619	5.46259	5.45147	5.47504	5.59541	5.34265	5.39256	3	156.533	156.6	153.421	156.883	157.254	157.872	154.846	157.049	153.529	156.564	156.486	152.806	156.418	156.401	152.917	)
512			28.3032			(	4	3.92823	3.83112	3.77263	3.80066	3.7381	24	0.278264	4.18603	4.02772	4.1028	4.13584	4.16969	4.27297	4.01555	4.07381	3	156.284	156.356	152.946	156.659	157.057	157.72	154.475	156.836	153.056	156.316	156.234	152.286	156.158	156.143	152.405	)
554			28.2875			(	4	3.75905	3.65756	3.60106	3.62409	3.56116	24	2.78263	4.02243	3.87739	3.95844	3.99065	4.0138	4.10524	3.85571	3.91022	3	156.251	156.324	152.884	156.63	157.032	157.7	154.427	156.809	152.996	156.284	156.201	152.218	156.125	156.109	152.337	)
596			28.0617			(	4	2.61316	2.46505	2.36994	2.35882	2.28804	24	0.278263	2.80303	2.71545	2.75921	2.78294	2.85497	2.95816	2.7264	2.70919	3	156.018	156.095	152.436	156.419	156.846	157.557	154.075	156.607	152.555	156.051	155.964	151.726	155.881	155.867	151.854	)
