======= APRICOPT =========

=== Optimization through COPASI solver ===


Solver settings: 

Method: Hooke & Jeeves
    Log Verbosity: 0
    Iteration Limit: 300
    Tolerance: 0.001
    Rho: 0.5



Optimization Log:

Function Evaluation	Objective Value		Optimization Parameters
1			15.8181			(	4	24	24	24	24	24	24	24	24	24	24	24	24	24	24	24	3	160	160	160	160	160	160	160	160	160	160	160	160	160	160	160	)
63			9.38629			(	6	24	12	12	24	12	24	12	12	12	24	12	12	24	12	12	4.5	80	160	80	80	80	160	80	80	80	80	80	160	80	80	80	)
191			8.40609			(	6	24	12	6	24	6	24	6	6	12	24	12	12	24	12	12	4.5	40	160	40	40	40	160	40	40	40	40	40	160	40	40	40	)
318			7.9486			(	6	24	9	6	24	3	24	6	9	9	24	12	12	24	12	12	4.5	20	160	20	20	20	160	20	20	20	20	20	160	20	20	20	)
382			7.77297			(	6	24	6	6	24	0	24	6	12	6	24	12	12	24	12	12	4.5	0	160	0	0	0	160	20	0	20	0	20	160	0	20	0	)
504			7.60632			(	6	24	7.5	7.5	24	1.5	24	6	10.5	7.5	24	10.5	12	24	12	12	4.5	10	160	0	0	0	160	10	0	10	0	10	160	0	10	0	)
628			7.53664			(	6	24	8.25	6.75	24	0.75	24	5.25	9.75	8.25	24	11.25	12	24	12	11.25	4.5	5	160	0	0	0	160	5	0	5	0	5	160	0	5	0	)
754			7.50008			(	6	24	8.625	6.375	24	0.75	24	5.25	9.375	8.625	24	10.875	12	24	12	11.25	4.5	2.5	160	2.5	0	0	160	2.5	0	2.5	0	2.5	160	0	2.5	0	)
876			7.46819			(	6	24	8.8125	6.1875	24	0.75	24	5.25	9.1875	8.8125	24	11.0625	12	24	12	11.25	4.5	1.25	160	1.25	1.25	0	160	1.25	0	1.25	1.25	1.25	160	1.25	1.25	1.25	)
995			7.4371			(	6	24	8.90625	6.09375	24	0.84375	24	5.25	9.09375	8.90625	24	10.9688	11.9062	24	12.0938	11.3438	4.5	0.625	160	0.625	0.625	0	160	0.625	0.625	0.625	0.625	0.625	160	0.625	0.625	0.625	)
