{
    "ate_drug": [
        6.0,
        5.25,
        9.09375,
        8.90625,
        24.0,
        10.9688,
        11.9062,
        24.0,
        12.0938,
        11.3438,
        24.0,
        8.90625,
        6.09375,
        24.0,
        0.84375,
        24.0
    ],
    "cibi_drug": [
        4.5,
        0.625,
        0.625,
        0.625,
        0.625,
        0.625,
        160.0,
        0.625,
        0.625,
        0.625,
        0.625,
        160.0,
        0.625,
        0.625,
        0.0,
        160.0
    ],
    "inefficacy": 6.933521384051496,
    "total_drugs": 11.969414930555557,
    "objective_value": 7.437110738701902,
    "tumour_diameter": [
        10.355960395360558,
        10.374665345865903,
        10.393347806508146,
        10.411995993702055,
        10.430599104231309,
        10.44914731346866,
        10.467631732239814,
        10.486044364066881,
        10.504378058590667,
        10.522626459593978,
        10.540783947841172,
        10.558845582321261,
        10.576807042583916,
        10.594664573775692,
        10.612414935623104,
        10.630055356288173,
        10.647583491568229,
        10.66499738496427,
        10.682295431154133,
        10.69947633769977,
        10.716539087367687,
        10.733482903196064,
        10.75030721821896,
        10.767011652798084,
        10.783595993095846,
        10.800060177433714,
        10.816404283728147,
        10.83262851993744,
        10.848733216425908,
        10.86471881911976,
        10.880585889202463,
        10.896335094380252,
        10.91196721137847,
        10.927483125151209,
        10.94288382971097,
        10.95817043119177,
        10.97334774944921,
        10.988423069527967,
        11.003396027420509,
        11.018265670655403,
        11.033031313843079,
        11.047692721087385,
        11.062250195902722,
        11.07670037175674,
        11.091038246479602,
        11.10526241184957,
        11.119371810382555,
        11.133365676764132,
        11.147243487684422,
        11.161004921619035,
        11.174649827722462,
        11.188178202856065,
        11.201590169361914,
        11.214885952768535,
        11.228065853241182,
        11.241130214659956,
        11.254079397285635,
        11.26691375839739,
        11.279633642856314,
        11.292239377902645,
        11.304731274706349,
        11.317109630977807,
        11.329374735022503,
        11.341526870127485,
        11.35356631433206,
        11.365493364070257,
        11.377308309860807,
        11.389011459829916,
        11.400603139353032,
        11.412083695643009,
        11.423453502039436,
        11.434719236752548,
        11.44589162310101,
        11.456967862951812,
        11.467944013714453,
        11.478816458987385,
        11.48958219737607,
        11.500238967865501,
        11.510785271374377,
        11.521220325596413,
        11.531543981864411,
        11.541756638715402,
        11.55185916211249,
        11.561852821868026,
        11.571739245953905,
        11.581516628067252,
        11.591181527168779,
        11.600733530225867,
        11.610172393764106,
        11.61949799862738,
        11.628710301593419,
        11.637809293238758,
        11.646794968406398,
        11.65566731125222,
        11.66442628776029,
        11.673071846942717,
        11.681603924055697,
        11.690022445341702,
        11.69832733322721,
        11.706518510379476,
        11.71459590814512,
        11.722559465212855,
        11.730409135377547,
        11.73814488997,
        11.745766723246264,
        11.753274653098341,
        11.760677512829773,
        11.767989755511806,
        11.775206873235318,
        11.782322758687853,
        11.789331755191089,
        11.79622904855729,
        11.803010828986672,
        11.809674308427597,
        11.816217645855575,
        11.82263982159163,
        11.828940507566632,
        11.835119947660008,
        11.841178860883588,
        11.847118369061615,
        11.852939946395898,
        11.858645387977703,
        11.864236780802939,
        11.869716476395789,
        11.8750870521743,
        11.880351270087807,
        11.885512044730861,
        11.890567099002514,
        11.895511566250056,
        11.900344623478855,
        11.90506548392643,
        11.909673395510824,
        11.914167641255894,
        11.918547540559295,
        11.92281244951328,
        11.92696176546208,
        11.930994922274273,
        11.93491139427447,
        11.938710695175635,
        11.94239237949141,
        11.945956040274902,
        11.949412486650287,
        11.952779667308663,
        11.95605141149262,
        11.959219517760452,
        11.962276353023327,
        11.965215341394128,
        11.968031160011652,
        11.97071975188435,
        11.973278221340781,
        11.975704668096059,
        11.97799801423433,
        11.98015784545673,
        11.982184280848688,
        11.984077873580523,
        11.985839538778666,
        11.987470504764511,
        11.988972267506378,
        11.990346546321245,
        11.991595225499482,
        11.992720291933535,
        11.993723784097515,
        11.994607762372212,
        11.995374305001455,
        11.996025514256653,
        11.9965635394749,
        11.99699060241383,
        11.997309025458684,
        11.997521261651714,
        11.997624613427448,
        11.997613841270464,
        11.997487776814825,
        11.99724533513104,
        11.996885510736668,
        11.99640737366019,
        11.995810065591968,
        11.995106282746715,
        11.994317354911866,
        11.99343552973154,
        11.992450622344053,
        11.991353145246055,
        11.990134891510941,
        11.988789164454793,
        11.987310787143773,
        11.985695970960892,
        11.983942111169416,
        11.98204757427676,
        11.980011502919385,
        11.977833655056882,
        11.975514280231659,
        11.973054028549722,
        11.970453886234893,
        11.967715117299154,
        11.964839204270488,
        11.961827773078141,
        11.958682512972258,
        11.955405109572874,
        11.951997202896624,
        11.948460375100987,
        11.944796150384546,
        11.941006013699411,
        11.937091431885086,
        11.933053877970579,
        11.928894856057195,
        11.924615924510498,
        11.92021872585468,
        11.91570500175526,
        11.911076622227808,
        11.90633560768273,
        11.901484152539059,
        11.896524649923789,
        11.891469640953419,
        11.886338925406815,
        11.881122878348004,
        11.875809095968805,
        11.870386025239137,
        11.864843635015966,
        11.859173676471412,
        11.853369688854372,
        11.84742684082494,
        11.84134169038328,
        11.835111932814085,
        11.828736173349661,
        11.822213733386748,
        11.815544505925775,
        11.808728845826927,
        11.80176749100287,
        11.794661491429936,
        11.78741213644141,
        11.780020864188781,
        11.772489165376129,
        11.764818501964124,
        11.757010254527236,
        11.749065703012526,
        11.740986021930029,
        11.732772296132506,
        11.724425539318942,
        11.715946715771384,
        11.707336762374018,
        11.698596604119219,
        11.689727197703142,
        11.680729515782682,
        11.671604588922646,
        11.662353517783279,
        11.652977491088217,
        11.643477802686085,
        11.633873733311022,
        11.624196067617289,
        11.61443718070424,
        11.604586347573884,
        11.594633907090659,
        11.584572054222194,
        11.574395164204974,
        11.564093319146204,
        11.553655296297363,
        11.543076378872904,
        11.53235318619188,
        11.52148340929326,
        11.510465591444255,
        11.499298957304562,
        11.487983285145523,
        11.47651881255822,
        11.464906153007592,
        11.453146208783163,
        11.441240065266912,
        11.429188878542131,
        11.416993780143997,
        11.404655814201922,
        11.392175909793286,
        11.379554873951717,
        11.366793403040955,
        11.353892099433303,
        11.340851491205655,
        11.327672052017643,
        11.314354214303098,
        11.30089840984719,
        11.287305051494364,
        11.27357457136396,
        11.259707429377986,
        11.24570412688888,
        11.231565220061631,
        11.21731122041489,
        11.20297541907871,
        11.188548296501269,
        11.174016768995187,
        11.159368811579776,
        11.144594331977947,
        11.12968552476486,
        11.114636902895137,
        11.099445123717565,
        11.084108712268927,
        11.068627772240264,
        11.053003725253898,
        11.037239101323756,
        11.021337384623882,
        11.005295001419894,
        10.989105049399686,
        10.972767039745639,
        10.956280876925033,
        10.939646734806708,
        10.922864925980504,
        10.905935789996324,
        10.888859617983158,
        10.871636615327347,
        10.854266889195335,
        10.836750454715036,
        10.819087248121912,
        10.80127714330127,
        10.783319968691705,
        10.765215517902565,
        10.746963586067553,
        10.728563950766853,
        10.710016404964147,
        10.691320764292092,
        10.672476876411187,
        10.653484631420676,
        10.63436577020695,
        10.615156078147473,
        10.59584442964587,
        10.576415729849554,
        10.556855971737567,
        10.537153191138188,
        10.51729785303734,
        10.497282885218587,
        10.477103485459647,
        10.456756816842562,
        10.436241687312396,
        10.415558260003214,
        10.394707818505223,
        10.37369259158483,
        10.352515632831222,
        10.331180737395789,
        10.30969237768284,
        10.288055633506627,
        10.266276101857503,
        10.244359800880178,
        10.222313096362125,
        10.20013100273853,
        10.17780282084948,
        10.15532662346099,
        10.132700509269762,
        10.10992260441259,
        10.086991068381225,
        10.063904101228436,
        10.040659946770747,
        10.017256914401381,
        9.993693361308052,
        9.969967712783358,
        9.94607846264855,
        9.92202417729336,
        9.897803500273007,
        9.873438815668537,
        9.848967868390268,
        9.824377558410172,
        9.799650441438246,
        9.77477020666907,
        9.749722712614329,
        9.724496408173845,
        9.699082371728474,
        9.67347410339235,
        9.647667196656341,
        9.621658990225827,
        9.595448252800722,
        9.569034926591966,
        9.542419934972537,
        9.515605047134988,
        9.48859278661136,
        9.46138635671689,
        9.433989560648103,
        9.406406698841241,
        9.378642459814458,
        9.350701834438947,
        9.322590075814995,
        9.294312704480582,
        9.265875548926537,
        9.237284807235794,
        9.208547121695753,
        9.179669658366917,
        9.150660192920535,
        9.121509738307688,
        9.09220105559697,
        9.062730497191012,
        9.033094832454042,
        9.003291250146505,
        8.973317365022746,
        8.943171227080922,
        8.91285134547999,
        8.882356660473762,
        8.851686627135571,
        8.820841186814091,
        8.789820825916356,
        8.758626591061141,
        8.727260122905006,
        8.695723725848408,
        8.664020314113564,
        8.63215361000997,
        8.60012807889304,
        8.567949047895505,
        8.535622746137047,
        8.503156372085991,
        8.470558224205952
    ]
}