{
    "ate_drug": [
        4.86828,
        0.0,
        0.0,
        0.0,
        4.79812,
        15.1548,
        0.0,
        0.0280264,
        0.0,
        14.5836,
        4.04109,
        16.2713,
        6.2923,
        3.84523,
        0.0,
        24.0
    ],
    "cibi_drug": [
        4.68506,
        44.9218,
        0.0,
        78.5851,
        52.1369,
        3.68925,
        160.0,
        59.8762,
        79.7734,
        24.0838,
        131.76,
        63.3198,
        4.13503,
        46.2835,
        70.087,
        155.581
    ],
    "inefficacy": 29.062321816752792,
    "total_drugs": 16.07194640972222,
    "objective_value": 27.763284276049735,
    "tumour_diameter": [
        21.497147457223107,
        21.510705387997067,
        21.523702080200387,
        21.536342464757382,
        21.548777207863093,
        21.56108372073977,
        21.57328754675836,
        21.585379632033856,
        21.59732471736317,
        21.609068777410336,
        21.620551799673134,
        21.631723673038046,
        21.642554239512535,
        21.65303360419936,
        21.663166844582985,
        21.67296816399825,
        21.682456563935187,
        21.691653097099294,
        21.700579264726887,
        21.709256105482506,
        21.717703702290724,
        21.72594093263312,
        21.733985362366635,
        21.7418532243405,
        21.749559446047698,
        21.75711770615009,
        21.764540506163627,
        21.771839249381213,
        21.779024321990267,
        21.786105173225785,
        21.79309039284262,
        21.79998778398389,
        21.806804432143732,
        21.8135467688851,
        21.820220630881185,
        21.82683131414236,
        21.83338362320249,
        21.8398819188528,
        21.846330156070813,
        21.852731924239794,
        21.859090480877594,
        21.865408782779824,
        21.871689514418033,
        21.877935113628034,
        21.884147794574904,
        21.89032956931566,
        21.896482267479357,
        21.90260755388407,
        21.908706940019346,
        21.91478180405748,
        21.92083340375183,
        21.926862874701936,
        21.932871265159317,
        21.93885952560642,
        21.944828524860785,
        21.950779056095342,
        21.95671184648969,
        21.962627565549322,
        21.96852681316527,
        21.974410155130684,
        21.98027810441277,
        21.986131133141477,
        21.99196967695176,
        21.99779413725739,
        22.003604874857995,
        22.009402252296173,
        22.015186577471397,
        22.02095814488222,
        22.026717228725857,
        22.03246408501137,
        22.038198952341393,
        22.04393567142097,
        22.049770141328263,
        22.055855556396967,
        22.062308932066536,
        22.06917432948136,
        22.076442539548534,
        22.08407217781309,
        22.091999146092537,
        22.10014020622907,
        22.1083985956174,
        22.116676789158653,
        22.1248926282941,
        22.132988867252422,
        22.140932490890798,
        22.148708521418467,
        22.15631354198658,
        22.163750932288075,
        22.171027829057444,
        22.178153285697174,
        22.185137179628054,
        22.19198956760188,
        22.198720308396847,
        22.205338846984546,
        22.211854097436365,
        22.218274387304465,
        22.224607440146823,
        22.230860381740452,
        22.237039760819226,
        22.243151578148478,
        22.249201320173544,
        22.255193994572622,
        22.26113416607254,
        22.26702599153403,
        22.272873253323283,
        22.278679391381885,
        22.28446154881201,
        22.290320713916632,
        22.29641540309764,
        22.30286514317658,
        22.309712865692763,
        22.316944640856757,
        22.324510607032273,
        22.33233506750635,
        22.34032345083633,
        22.348374299102716,
        22.356396440110846,
        22.364322205618784,
        22.37210995131364,
        22.379738841000282,
        22.387201927911715,
        22.394500655847498,
        22.401641222644127,
        22.408632356636897,
        22.41548398742895,
        22.422206457595887,
        22.428810057993825,
        22.435304757278722,
        22.44170004991492,
        22.448004878019713,
        22.454227598735706,
        22.460375980453144,
        22.466457216692696,
        22.47247795061988,
        22.47844430556968,
        22.484361918392874,
        22.49023597403544,
        22.496071239551547,
        22.501872097142506,
        22.507642575576583,
        22.513386379747093,
        22.519120342264696,
        22.524936990518622,
        22.530958339291484,
        22.537240246994912,
        22.54375537419789,
        22.550430503788043,
        22.557185964333996,
        22.56395845981174,
        22.57070633200605,
        22.577405573421128,
        22.58404409653873,
        22.59061722329723,
        22.597124708850117,
        22.603568897509913,
        22.609953595431506,
        22.616283380512865,
        22.622563175685436,
        22.628797985611815,
        22.63499273400474,
        22.641152165838534,
        22.647280791100933,
        22.653382855534115,
        22.659462329398508,
        22.665522906817007,
        22.6715680131811,
        22.67760081654963,
        22.68362424168535,
        22.689640985375608,
        22.69565353219917,
        22.701664170124836,
        22.707675005677753,
        22.713687978417656,
        22.719704874552097,
        22.72572733968272,
        22.731756890634447,
        22.73780864665316,
        22.743980064109497,
        22.750425161826517,
        22.757260088544193,
        22.76452643246609,
        22.77221097285636,
        22.780266548616826,
        22.788621811437984,
        22.797186780329568,
        22.805862429009636,
        22.81455641696119,
        22.82319738751199,
        22.83173962350602,
        22.840159043037605,
        22.848446434002224,
        22.856601699773908,
        22.86462995539986,
        22.872539115358222,
        22.88033845074311,
        22.88803773545371,
        22.895646743492836,
        22.903174956436164,
        22.9106313990212,
        22.91802455322604,
        22.925362321417825,
        22.932652019786048,
        22.939900391245384,
        22.947113628941665,
        22.95429740655752,
        22.96145691199016,
        22.96859688158295,
        22.975721634767677,
        22.982835107320497,
        22.989940883117907,
        22.99704222402426,
        23.0041552486962,
        23.01137475621976,
        23.018849818567734,
        23.026693867433053,
        23.034949880989565,
        23.04360970687087,
        23.052634530450316,
        23.06196410313064,
        23.0715202376549,
        23.081212068002653,
        23.090947984846697,
        23.10065083983052,
        23.110267057757447,
        23.11976605825975,
        23.129134389421708,
        23.138369552018418,
        23.147475454876204,
        23.15645951509895,
        23.16533090722068,
        23.17409952836631,
        23.182775389821952,
        23.191368263774695,
        23.199887483142806,
        23.208341835352275,
        23.21673951362835,
        23.225088104115265,
        23.23339459550809,
        23.241665401428204,
        23.249906391025707,
        23.258122923050603,
        23.266319881898966,
        23.274501713388972,
        23.28267245970582,
        23.290835792762223,
        23.298995045661176,
        23.30716561582691,
        23.315436417575874,
        23.323943796512257,
        23.332785014732433,
        23.34198593999787,
        23.35151832718121,
        23.361318994111173,
        23.37130393987431,
        23.381384211385566,
        23.391482761989106,
        23.40154442591095,
        23.41153598300157,
        23.42144079456208,
        23.431252974523982,
        23.44097305709206,
        23.450605213700175,
        23.460155559246907,
        23.469631142506504,
        23.479039343680995,
        23.48838751671852,
        23.49768277945658,
        23.50693189492897,
        23.516141209711503,
        23.525316626742597,
        23.53446360190514,
        23.54358715387785,
        23.552691882518776,
        23.561781992024024,
        23.570861316541166,
        23.579933346597247,
        23.589001255331915,
        23.59806792403969,
        23.607135966323376,
        23.616207751021108,
        23.625285423509325,
        23.63438281348312,
        23.643584895344098,
        23.653026293296016,
        23.66281052204102,
        23.67297859841101,
        23.683526967435917,
        23.694426825763188,
        23.705633021817555,
        23.717086236337323,
        23.728713575603212,
        23.74043299357068,
        23.75216441166613,
        23.763842792529832,
        23.775424766149104,
        23.786886911152973,
        23.79822017389291,
        23.80942448713412,
        23.82050494540529,
        23.83146939743482,
        23.84232700400463,
        23.853087388784587,
        23.863760142889163,
        23.874354541530487,
        23.884879384541122,
        23.895342917826508,
        23.90575280051516,
        23.916116102145043,
        23.926439317746777,
        23.936728393613112,
        23.94698875879854,
        23.957225359739045,
        23.967442695454746,
        23.977644852402687,
        23.98783553813345,
        23.99801811326118,
        24.008206431510935,
        24.018475530107157,
        24.028925634351957,
        24.039604948333494,
        24.050494114253535,
        24.061534666914927,
        24.07266052054536,
        24.083817683494097,
        24.09496989800632,
        24.106095944292647,
        24.117184929829513,
        24.12823241305799,
        24.13923780919882,
        24.15020277641999,
        24.16113023196962,
        24.172023752492027,
        24.182887205285688,
        24.193724522327916,
        24.204539561637336,
        24.215336024557644,
        24.226117408749932,
        24.23688698433519,
        24.247647784958225,
        24.25840260854929,
        24.269154024069618,
        24.27990438205343,
        24.29065582711475,
        24.301410311532685,
        24.312169609328713,
        24.32293532917328,
        24.333708928803706,
        24.344491726866206,
        24.355284914948662,
        24.36608956869416,
        24.376906657956315,
        24.38774790073418,
        24.398690037382522,
        24.409853968221153,
        24.42132975130793,
        24.433147619543906,
        24.445293365146288,
        24.457724590923156,
        24.470378933478607,
        24.483180576891765,
        24.496050874340128,
        24.50892172111378,
        24.521744243649007,
        24.534489153004074,
        24.547142123006328,
        24.559698570524716,
        24.57215971774695,
        24.584530045083028,
        24.59681574542861,
        24.609023802377816,
        24.621161444302082,
        24.633235822452818,
        24.645253824870824,
        24.657221972531755,
        24.669146367403354,
        24.681032672279695,
        24.692886110842558,
        24.704711480029577,
        24.716513169739535,
        24.728295186645237,
        24.740061179791507,
        24.751814466960514,
        24.763558060455914,
        24.7752946920756,
        24.78702683664579,
        24.79875673447782,
        24.810496984255398,
        24.822323501089745,
        24.834355813823308,
        24.84668457061534,
        24.85934340849368,
        24.872324336046383,
        24.885594005036854,
        24.899101107791232,
        24.912779718280312,
        24.926554864059998,
        24.94035341756871,
        24.954116073394204,
        24.96780309569046,
        24.981392574390792,
        24.994875382680338
    ]
}