======= APRICOPT =========

=== Optimization through COPASI solver ===


Solver settings: 

Method: Random Search
    Log Verbosity: 0
    Number of Iterations: 600
    Random Number Generator: 1
    Seed: 104



Optimization Log:

Function Evaluation	Objective Value		Optimization Parameters
1			18.1053			(	4	24	24	24	24	24	24	24	24	24	24	24	24	24	24	24	3	160	160	160	160	160	160	160	160	160	160	160	160	160	160	160	)
9			12.8692			(	4.09239	11.9967	0.258944	5.96904	1.98153	7.82214	15.4952	20.9073	13.5045	1.30212	21.8464	4.39024	23.4437	21.4575	23.1817	3.87043	3.92726	142.604	42.0026	54.8409	58.7166	108.183	78.2998	142.794	115.945	158.449	101.327	102.347	112.479	63.8441	133.08	78.3309	)
10			11.9166			(	5.40709	3.71966	6.94125	13.5574	19.9789	14.3782	13.5692	7.89525	16.6848	13.0956	22.0682	16.8552	5.06109	9.201	20.8213	20.253	3.65102	60.3707	80.008	18.9488	29.3021	107.399	7.93987	12.4604	50.304	68.7927	86.7609	145.249	103.856	58.7331	47.8218	151.088	)
12			10.9256			(	3.75583	9.99436	1.14936	2.12227	14.8532	0.011524	16.8474	0.619448	21.3459	11.136	15.3489	6.42315	7.52655	1.872	18.6304	0.852142	4.16772	1.34603	11.4624	22.3685	8.84126	30.588	141.645	69.8693	45.6714	131.437	37.0316	93.1814	132.466	138.501	97.6665	94.6562	)
18			10.6177			(	4.65297	18.0879	1.53942	14.9822	18.2728	7.126	17.6478	9.23296	2.25	2.23498	18.9518	12.5628	8.78745	9.13054	9.96132	14.3692	5.80167	35.0134	21.1735	22.3924	54.1718	5.79287	0.498024	48.2121	108.966	2.63332	4.78962	75.4107	130.633	105.416	119.986	88.2872	)
84			10.5702			(	5.881	13.26	6.98992	0.74298	14.2117	22.6689	7.56309	17.5007	14.7316	20.079	7.34666	14.6926	7.90518	17.4045	12.4443	11.8258	5.21433	26.7314	118.448	144.674	39.9637	0.393679	17.2822	37.5189	27.0532	38.1447	35.3498	106.035	46.7132	123.076	14.479	58.4971	)
141			10.3882			(	5.81673	3.4448	22.9136	20.3042	7.02034	1.61003	11.0266	0.891394	18.8402	1.77812	20.0138	5.44796	16.788	8.56845	10.9197	8.94653	5.64653	124.998	97.9414	60.4577	151.63	81.3588	1.94642	154.991	8.59767	46.6349	14.2874	91.4743	12.7148	44.3689	134.019	39.0569	)
