{
    "ate_drug": [
        4.35261,
        2.5828,
        9.32343e-07,
        0.0,
        1.49259e-18,
        2.0676,
        0.0,
        0.0,
        2.62436e-21,
        0.0,
        3.76332e-06,
        0.0,
        0.0,
        0.0,
        1.60238e-26,
        4.00719e-62
    ],
    "cibi_drug": [
        5.64787,
        13.1068,
        0.0,
        0.0,
        3.77438e-16,
        0.0,
        1.4893e-09,
        0.0,
        3.85289e-06,
        0.0,
        2.38103e-13,
        77.473,
        0.0,
        0.0,
        0.0,
        0.0
    ],
    "inefficacy": 23.811666399749967,
    "total_drugs": 2.4199204861111117,
    "objective_value": 21.67249180838608,
    "tumour_diameter": [
        16.156061981765298,
        16.167790569767313,
        16.179476276443587,
        16.191172585014815,
        16.20288228468797,
        16.21460378296613,
        16.22633394925372,
        16.238067192804657,
        16.2497930196868,
        16.26149261795345,
        16.27313729207665,
        16.2846926127699,
        16.29612747747159,
        16.307421575635104,
        16.31856643718274,
        16.32956216548593,
        16.34041384127872,
        16.351129059212404,
        16.361716496274706,
        16.372185115800104,
        16.382543735081963,
        16.392800795447464,
        16.402964246295742,
        16.413041496372998,
        16.423039399670824,
        16.432964266762585,
        16.442821886764417,
        16.45261755647377,
        16.462356112674257,
        16.472041965376086,
        16.481679130540027,
        16.491271262048755,
        16.500821681892056,
        16.510333408554864,
        16.519809183453674,
        16.529251495433716,
        16.538662601913522,
        16.548044555410403,
        16.557399214131934,
        16.5667282643777,
        16.576033235957485,
        16.585315515391667,
        16.594576361908807,
        16.60381691644201,
        16.613038213779994,
        16.622241192501495,
        16.631426703404422,
        16.64059551926832,
        16.64974834025237,
        16.658885802245056,
        16.66800848298238,
        16.677116904438716,
        16.686211544383326,
        16.695292834989466,
        16.704361169982544,
        16.71341690598022,
        16.722460368242057,
        16.731491853277042,
        16.740511630504507,
        16.749519946709015,
        16.758517026277204,
        16.767503074367866,
        16.776478278775055,
        16.785442811790766,
        16.79439683174656,
        16.803340482005467,
        16.812273896579974,
        16.82119719813886,
        16.830110500186098,
        16.839013907374124,
        16.84790751694328,
        16.856791419478597,
        16.865665698714714,
        16.874530433675705,
        16.883385697919596,
        16.89223156071836,
        16.901068087372273,
        16.909895339660803,
        16.91871337596527,
        16.92752225163653,
        16.93632202001453,
        16.945112731875717,
        16.95389443608274,
        16.96266717973742,
        16.971431008400444,
        16.98018596625345,
        16.988932095946385,
        16.997669439574402,
        17.00639803808067,
        17.0151179316666,
        17.023829159863887,
        17.032531761639493,
        17.041225775591542,
        17.04991123947638,
        17.058588191264004,
        17.067256668446312,
        17.075916708353017,
        17.084568348181154,
        17.093211625043576,
        17.10184657612046,
        17.110473238301385,
        17.119091648819637,
        17.12770184487752,
        17.136303863796392,
        17.144897743039834,
        17.153483520230523,
        17.16206123333265,
        17.170630920033894,
        17.179192618797103,
        17.18774636809898,
        17.1962922067087,
        17.204830173668906,
        17.213360308318368,
        17.22188265058146,
        17.230397239958613,
        17.238904117044505,
        17.24740332250703,
        17.25589489737527,
        17.264378883094103,
        17.27285532148822,
        17.281324255046226,
        17.28978572584493,
        17.298239777241772,
        17.306686452721866,
        17.315125796204168,
        17.323557852121276,
        17.331982665375563,
        17.340400281659893,
        17.34881074621129,
        17.357214105780656,
        17.365610407289537,
        17.373999698196908,
        17.382382026584413,
        17.390757441105006,
        17.39912599137258,
        17.407487726507,
        17.415842697390385,
        17.424190955175003,
        17.432532551737715,
        17.440867539649464,
        17.449195972206535,
        17.457517904425575,
        17.4658333835274,
        17.47414245668408,
        17.482445169090088,
        17.490741564104937,
        17.499031683498274,
        17.507315567595732,
        17.515593255574302,
        17.523864784763294,
        17.532130192329486,
        17.540389514184728,
        17.548642785491726,
        17.556890040735357,
        17.565131313784814,
        17.573366638556802,
        17.581596046678033,
        17.589819571279037,
        17.598037244448598,
        17.6062490980086,
        17.61445516352784,
        17.6226554723576,
        17.630850056260876,
        17.63903894503518,
        17.647222170227987,
        17.655399762619417,
        17.663571752939855,
        17.671738171869386,
        17.679899050050555,
        17.688054418752714,
        17.696204307288276,
        17.704348746959507,
        17.712487768392865,
        17.720621402261255,
        17.728749679273992,
        17.736872630180432,
        17.744990286499306,
        17.75310267766448,
        17.761209835353416,
        17.769311790540577,
        17.777408574294164,
        17.785500217757555,
        17.793586752151636,
        17.801668209530987,
        17.809744619807287,
        17.81781601523067,
        17.82588242735719,
        17.833943887857235,
        17.84200042849354,
        17.85005208112216,
        17.85809887849988,
        17.86614085105433,
        17.874178031809333,
        17.8822104529937,
        17.89023814696919,
        17.89826114621853,
        17.90627948332397,
        17.91429319182242,
        17.92230230279783,
        17.930306850079777,
        17.938306866670352,
        17.946302385721218,
        17.95429344050104,
        17.962280064402073,
        17.970262291864838,
        17.978240154696,
        17.98621368764938,
        17.99418292461003,
        18.002147899632106,
        18.0101086469101,
        18.01806520077829,
        18.026017596517796,
        18.03396586719809,
        18.041910048471482,
        18.04985017527524,
        18.05778628274984,
        18.065718406209378,
        18.0736465811422,
        18.081570844085,
        18.089491229218915,
        18.097407773535046,
        18.105320513290362,
        18.113229484993475,
        18.121134725376464,
        18.12903627139784,
        18.136934161261657,
        18.14482843046355,
        18.152719117784834,
        18.160606261197522,
        18.168489898996246,
        18.176370069772066,
        18.18424681241766,
        18.19212016714817,
        18.19999017161215,
        18.207856866726942,
        18.215720292772843,
        18.223580490414605,
        18.231437500763263,
        18.239291365342023,
        18.247142127371443,
        18.25498982668967,
        18.26283450755087,
        18.270676213326652,
        18.27851498794697,
        18.286350875888857,
        18.29418392219162,
        18.302014173594365,
        18.309841674255797,
        18.31766647230162,
        18.32548861533025,
        18.33330815172583,
        18.34112513061161,
        18.348939601888166,
        18.35675161764297,
        18.364561226925606,
        18.372368483627366,
        18.380173441193058,
        18.38797615410099,
        18.395776677921162,
        18.403575069287513,
        18.411371387337965,
        18.4191656882874,
        18.426958033774746,
        18.43474848528836,
        18.442537105699813,
        18.45032395938054,
        18.45810911216023,
        18.46589263303732,
        18.47367458774052,
        18.481455048760733,
        18.489234088521307,
        18.497011781364414,
        18.504788203667655,
        18.51256343378657,
        18.520337553911315,
        18.52811064320167,
        18.535882788486145,
        18.543654077050743,
        18.551424598691614,
        18.559194445951814,
        18.56696371399878,
        18.57473250271446,
        18.582500909048324,
        18.59026903897364,
        18.598036999456333,
        18.60580490062721,
        18.613572856241323,
        18.621340983479254,
        18.629109405185893,
        18.636878241420607,
        18.6446476227175,
        18.65241768124718,
        18.660188552970762,
        18.66796037839751,
        18.675733302341733,
        18.683549377871184,
        18.69164555006069,
        18.700108842330355,
        18.708914426738648,
        18.718031302820236,
        18.727430338532603,
        18.737084548017126,
        18.746968491034707,
        18.757057026278005,
        18.76732287494313,
        18.777732186482925,
        18.788238722822154,
        18.798781451569923,
        18.809291788504897,
        18.819708651091382,
        18.82999034506798,
        18.840115706456647,
        18.850078401327888,
        18.85988088925834,
        18.86953033072171,
        18.879036189420095,
        18.88840888458055,
        18.897659040119375,
        18.906797065195477,
        18.915832928133554,
        18.92477603926432,
        18.93363519937937,
        18.942418586877704,
        18.95113376825598,
        18.95978772271997,
        18.96838687213343,
        18.97693711703626,
        18.98544387271558,
        18.99391210536514,
        19.00234636714723,
        19.010750829499845,
        19.019129315204896,
        19.027485326894894,
        19.035822075073778,
        19.044142503145878,
        19.052449310764615,
        19.06074497510367,
        19.069031770994417,
        19.07731178645492,
        19.085586943582253,
        19.093859009052508,
        19.102129609033405,
        19.110400242918416,
        19.118672292709636,
        19.126947040273816,
        19.13522565557133,
        19.143509233975383,
        19.1517987868251,
        19.160095249696756,
        19.168399490778437,
        19.176712317753523,
        19.185034488001342,
        19.193366686714256,
        19.201709572911874,
        19.21006375440915,
        19.21842980080735,
        19.226808242047078,
        19.235199576020868,
        19.243604277936964,
        19.252022768553186,
        19.260455468875215,
        19.268902765223174,
        19.277365022915816,
        19.28584258509273,
        19.29433577503008,
        19.302844906624674,
        19.311370252738243,
        19.319912094979884,
        19.3284706917251,
        19.337046288450356,
        19.345639116649853,
        19.354249395938407,
        19.362877344237102,
        19.371523140751172,
        19.380186982947254,
        19.388869048727926,
        19.397569508009806,
        19.40628852129823,
        19.41502624106441,
        19.423782823711463,
        19.432558383788322,
        19.441353064108682,
        19.450166988359104,
        19.45900027419943,
        19.46785303320406,
        19.476725371048268,
        19.485617401073128,
        19.49452919140828,
        19.503460845337052,
        19.512412447145064,
        19.52138407657949,
        19.5303758087837,
        19.53938771439845,
        19.548419874469268,
        19.557472321554375,
        19.56654512891912,
        19.575638350547212,
        19.584752036806655,
        19.593886234438042,
        19.603040986589367,
        19.61221634807492
    ]
}