{
    "synthesized_therapy": {
        "ate_m8_in": 0.0,
        "cibi_m4_in": 0.0,
        "cibi_m10_in": 0.0,
        "ate_m3_in": 0.0,
        "ate_m7_in": 24.0,
        "ate_freq_in": 6.0,
        "ate_m9_in": 0.0,
        "cibi_m14_in": 0.0,
        "ate_m1_in": 0.0,
        "cibi_freq_in": 6.0,
        "cibi_m1_in": 0.625,
        "ate_m6_in": 0.0,
        "ate_m13_in": 24.0,
        "ate_m4_in": 24.0,
        "ate_m5_in": 0.0,
        "cibi_m6_in": 0.0,
        "cibi_m9_in": 0.0,
        "cibi_m8_in": 0.0,
        "ate_m10_in": 24.0,
        "ate_m14_in": 0.0,
        "cibi_m5_in": 0.0,
        "ate_m15_in": 24.0,
        "cibi_m3_in": 0.0,
        "ate_m11_in": 0.046875,
        "ate_m2_in": 0.0,
        "cibi_m7_in": 0.0,
        "cibi_m11_in": 0.0,
        "ate_m12_in": 0.0,
        "cibi_m12_in": 0.0,
        "cibi_m13_in": 0.0,
        "cibi_m15_in": 160.0,
        "cibi_m2_in": 0.0
    },
    "inefficacy": 26.05222901055046,
    "statistics": {
        "failed_func_evaluations_exception": 56,
        "failed_func_evaluations_nan": 0,
        "execution_time": 1941.908
    },
    "total_drugs": 0.016276041666666668,
    "tumour_diameter": 23.6650957308006,
    "objective_value": 23.44863371366208,
    "function_evaluations": 1375
}