{
    "synthesized_therapy": {
        "ate_freq_in": 5.85736,
        "ate_m10_in": 22.3779,
        "ate_m11_in": 2.48806,
        "ate_m12_in": 19.3213,
        "ate_m13_in": 0.0,
        "ate_m14_in": 7.25502,
        "ate_m15_in": 24.0,
        "ate_m1_in": 0.0,
        "ate_m2_in": 0.0,
        "ate_m3_in": 7.48351,
        "ate_m4_in": 24.0,
        "ate_m5_in": 0.0,
        "ate_m6_in": 2.76077,
        "ate_m7_in": 19.2963,
        "ate_m8_in": 12.3284,
        "ate_m9_in": 10.4929,
        "cibi_freq_in": 6.0,
        "cibi_m10_in": 58.8332,
        "cibi_m11_in": 21.4327,
        "cibi_m12_in": 3.92193,
        "cibi_m13_in": 59.6009,
        "cibi_m14_in": 0.0,
        "cibi_m15_in": 0.261338,
        "cibi_m1_in": 61.3973,
        "cibi_m2_in": 94.7504,
        "cibi_m3_in": 1.89465,
        "cibi_m4_in": 3.36519,
        "cibi_m5_in": 104.035,
        "cibi_m6_in": 35.5667,
        "cibi_m7_in": 117.068,
        "cibi_m8_in": 3.95452,
        "cibi_m9_in": 31.1428
    },
    "tumour_diameter": 10.853098937802203,
    "total_drugs": 14.224411111111111,
    "objective": 7.3253995916152705,
    "inefficacy": 6.558842756115732
}