{
    "inefficacy": 9.299059929825479,
    "tumour_diameter": 12.688396950639065,
    "function_evaluations": 1175,
    "total_drugs": 1.0367838541666665,
    "objective_value": 8.472832322259597,
    "statistics": {
        "execution_time": 3419.62,
        "failed_func_evaluations_nan": 0,
        "failed_func_evaluations_exception": 3
    },
    "synthesized_therapy": {
        "ate_m4_in": 24.0,
        "ate_freq_in": 6.0,
        "ate_m3_in": 0.75,
        "cibi_m3_in": 0.9375,
        "cibi_m13_in": 0.625,
        "cibi_m11_in": 160.0,
        "ate_m9_in": 0.84375,
        "cibi_m5_in": 0.9375,
        "cibi_m8_in": 0.9375,
        "cibi_m14_in": 0.625,
        "ate_m8_in": 0.890625,
        "cibi_m2_in": 0.9375,
        "ate_m1_in": 0.421875,
        "cibi_freq_in": 4.5,
        "ate_m14_in": 0.046875,
        "ate_m11_in": 0.65625,
        "ate_m13_in": 24.0,
        "cibi_m1_in": 0.625,
        "cibi_m9_in": 0.9375,
        "cibi_m10_in": 0.625,
        "cibi_m4_in": 0.9375,
        "ate_m10_in": 24.0,
        "ate_m5_in": 0.84375,
        "cibi_m7_in": 0.9375,
        "ate_m7_in": 24.0,
        "ate_m2_in": 0.5625,
        "ate_m15_in": 24.0,
        "ate_m6_in": 0.9375,
        "cibi_m15_in": 160.0,
        "cibi_m6_in": 160.0,
        "ate_m12_in": 0.421875,
        "cibi_m12_in": 0.625
    }
}