{
    "ate_drug": [
        4.6756,
        14.703,
        1.6498,
        1.52635,
        18.9371,
        12.4264,
        7.10429,
        10.8174,
        11.5534,
        13.3342,
        18.0205,
        1.38991,
        13.3574,
        17.2178,
        7.82741,
        18.9134
    ],
    "cibi_drug": [
        5.72295,
        54.7299,
        113.409,
        1.92782,
        5.53316,
        67.9228,
        125.601,
        103.024,
        122.403,
        82.2599,
        29.5473,
        12.6497,
        16.0341,
        63.8498,
        9.52982,
        0.059032
    ],
    "inefficacy": 138.42429796765026,
    "total_drugs": 29.11087527777778,
    "objective_value": 127.49295569866302,
    "tumour_diameter": [
        16.975856751852458,
        17.05906388361026,
        17.14254179571653,
        17.22628963435385,
        17.310306452743973,
        17.394591000646724,
        17.47914065473693,
        17.563947565202703,
        17.648988327229365,
        17.734205044234976,
        17.81948571540362,
        17.904662159132958,
        17.989535512283783,
        18.073916259041887,
        18.157655958665025,
        18.240659841887034,
        18.32288427761824,
        18.40432736924614,
        18.485018189915486,
        18.56500696543089,
        18.644356873647304,
        18.723137584418602,
        18.801420488314008,
        18.87927542867644,
        18.956768680368224,
        19.033961841839826,
        19.110911370868635,
        19.18766852918549,
        19.26427957088664,
        19.34078606553259,
        19.41722526635388,
        19.49363052432343,
        19.570031664374916,
        19.646455353919556,
        19.722925440506575,
        19.79946325816367,
        19.876087904871817,
        19.952816490117446,
        20.02966435689926,
        20.10664527910051,
        20.183771637177067,
        20.26105457411095,
        20.33850413406226,
        20.416385630979402,
        20.495518931911263,
        20.576122674482484,
        20.65813334115536,
        20.74144801925926,
        20.825966497660204,
        20.911595598697104,
        20.99824424361581,
        21.085808355534972,
        21.174141285139388,
        21.26301869926561,
        21.35212669392943,
        21.441095579939663,
        21.529564685177608,
        21.61723972536172,
        21.703919079793504,
        21.78949222490224,
        21.873924302134785,
        21.957237386903945,
        22.039493140557926,
        22.120778294806417,
        22.201193172526057,
        22.2808431513873,
        22.35983274932433,
        22.43826187550319,
        22.51622371458949,
        22.593803749955228,
        22.671079525358866,
        22.74812085162549,
        22.8249902592823,
        22.90174356879737,
        22.978430500233184,
        23.055095276864897,
        23.131777198222956,
        23.208511170453722,
        23.285328205867312,
        23.362255795882255,
        23.439318396490588,
        23.51653771865198,
        23.593933040594433,
        23.671521509333733,
        23.74931836827243,
        23.82760220448306,
        23.907408407906143,
        23.989015140227846,
        24.072212661806514,
        24.156588600810156,
        24.241615544309386,
        24.326744680235596,
        24.41149671912095,
        24.495513008690466,
        24.578563343739432,
        24.660528982784125,
        24.74137779875949,
        24.821140045792458,
        24.899887599038948,
        24.977717287809046,
        25.054738267071187,
        25.13106306465465,
        25.20680170285361,
        25.282058188646207,
        25.356928682370366,
        25.431500777806484,
        25.50585346954241,
        25.58005751572445,
        25.654176006338815,
        25.728265019012287,
        25.802374292610757,
        25.876547879571635,
        25.95082475680266,
        26.025239387875605,
        26.09982222465584,
        26.1746001729389,
        26.249596993937338,
        26.324833671987747,
        26.400328732805963,
        26.476098534393646,
        26.552157825469788,
        26.628518737131095,
        26.705192866384284,
        26.78219014028537,
        26.85951936316652,
        26.937188306827206,
        27.015203851817006,
        27.09403242468889,
        27.17513210455028,
        27.258872823302582,
        27.345129548538296,
        27.433709132590614,
        27.52442138171044,
        27.617081263429053,
        27.711486123865075,
        27.807365610825105,
        27.9043166575844,
        28.001772742368903,
        28.099054467446788,
        28.195484470753232,
        28.29049785292835,
        28.383698106439322,
        28.474859014636213,
        28.563897742822295,
        28.650840131565804,
        28.735788110600282,
        28.818892329438857,
        28.90033048529235,
        28.980291135187112,
        29.058962403544474,
        29.13652475970015,
        29.213146874742694,
        29.288983651475927,
        29.36417566653689,
        29.43884947245689,
        29.51311837888574,
        29.587083462488543,
        29.660834667693372,
        29.734451896167176,
        29.808006047651073,
        29.881559983740424,
        29.955169408323798,
        30.02888367350709,
        30.102746450306924,
        30.17679642869281,
        30.25106784784042,
        30.325590997654764,
        30.40039269462762,
        30.4754966560213,
        30.551547398327337,
        30.630545788759296,
        30.713023072296675,
        30.798818610361597,
        30.887674752904072,
        30.9793401594222,
        31.073581347714384,
        31.170173635991535,
        31.268871353805803,
        31.36934608199348,
        31.47110588927748,
        31.573455272264617,
        31.675555032883725,
        31.776563724019706,
        31.87577614203467,
        31.972695137106776,
        32.06703556800218,
        32.15869148728779,
        32.24769303246951,
        32.33416578955629,
        32.41829660144017,
        32.500306484227075,
        32.58043037733599,
        32.658902959921186,
        32.735949568235036,
        32.811780957377955,
        32.886590793160885,
        32.960554916928416,
        33.03383169653696,
        33.1065629821795,
        33.17887535927401,
        33.25088150905392,
        33.32268156540578,
        33.39436440898241,
        33.46600886806575,
        33.53768481552303,
        33.60945415600876,
        33.68137172046766,
        33.75348605936835,
        33.82584014942237,
        33.898472026336606,
        33.971415345798995,
        34.04546107325337,
        34.123068809935525,
        34.20490095189664,
        34.2907652151462,
        34.38034817160105,
        34.47334323569183,
        34.56946502368656,
        34.668438083873866,
        34.769960009630005,
        34.87362625071261,
        34.97883400451367,
        35.08473808887595,
        35.19032716392132,
        35.29459430624945,
        35.39670036032409,
        35.49605641336338,
        35.592326346895334,
        35.68538675363728,
        35.77527533979527,
        35.86214261075038,
        35.94621130617064,
        36.02774435343871,
        36.10702091874237,
        36.18431969194319,
        36.259908171909906,
        36.33403651006478,
        36.406934563925134,
        36.47881104616865,
        36.54985394993215,
        36.620231686383356,
        36.69009456980987,
        36.75957642964242,
        36.828796217094286,
        36.89785953689929,
        36.966860067795366,
        37.03588086111388,
        37.10499551258973,
        37.17426921552048,
        37.24375970172001,
        37.31351808145288,
        37.38358959030456,
        37.45401425402801,
        37.52571491841758,
        37.60158361540397,
        37.68240625210642,
        37.767960732499645,
        37.85788022355526,
        37.951802674380936,
        38.04938283322067,
        38.150264198970774,
        38.25400789399351,
        38.35998289085608,
        38.46728231992325,
        38.57476078758686,
        38.68120587788084,
        38.78554424076875,
        38.88697362475433,
        38.984993726043264,
        39.079371638886755,
        39.17008368384657,
        39.25725686549063,
        39.34111834473538,
        39.421954740748475,
        39.500081039329075,
        39.57581832191038,
        39.64947897509122,
        39.72135779042146,
        39.79172731534211,
        39.86083607603448,
        39.92890857483794,
        39.99614633098428,
        40.06272945936156,
        40.128818477392116,
        40.194556155542784,
        40.26006930928188,
        40.32547047327786,
        40.39085944305033,
        40.45632467220231,
        40.52194452300928,
        40.587788400383786,
        40.653917751190576,
        40.720386960575794,
        40.78724414585815,
        40.854531876992525,
        40.923235846929934,
        40.99659348590194,
        41.07552289945518,
        41.15977762827013,
        41.24887958571579,
        41.34221325407279,
        41.438931903134794,
        41.53787885331948,
        41.63765004411245,
        41.73680086092879,
        41.834074847759176,
        41.92853878214063,
        42.019605485756486,
        42.106989022182354,
        42.19063749905663,
        42.270667253711395,
        42.347306561828624,
        42.42085048697595,
        42.491626548539784,
        42.559970203992656,
        42.62620863121474,
        42.6906509719071,
        42.75358321965876,
        42.815266214505904,
        42.87593557430546,
        42.93580274860918,
        42.99505666046833,
        43.053865598070736,
        43.11237915930694,
        43.17073013461351,
        43.22903627544121,
        43.28740191728531,
        43.34591945085229,
        43.40467064886638,
        43.463727853370635,
        43.52315506027443,
        43.583008767349575,
        43.64333895643555,
        43.704189749357404,
        43.76560009184583,
        43.8276043515035,
        43.89023284302081,
        43.9545542544343,
        44.02409814851715,
        44.09984142951011,
        44.18150955992582,
        44.26860122516694,
        44.36050596034368,
        44.456407560874716,
        44.55516137818841,
        44.65529116221945,
        44.75516856473374,
        44.85328056896797,
        44.948432718319786,
        45.039821761716325,
        45.127008733355126,
        45.20984892649467,
        45.288415348171846,
        45.36293061211325,
        45.43371106477239,
        45.50112333720339,
        45.565552453973616,
        45.62738001645122,
        45.68697050978051,
        45.74466365054567,
        45.80077089371605,
        45.85557461826394,
        45.90932891549331,
        45.96226125277436,
        46.014574557063916,
        46.066449433696114,
        46.11804635452045,
        46.16950774182131,
        46.2209598881043,
        46.272514710248885,
        46.32427133259301,
        46.37631750760367,
        46.42873090198027,
        46.48158016804898,
        46.53492604264128,
        46.58882219056394,
        46.64331601459964,
        46.69844934305849,
        46.754259121371085,
        46.811893649380764,
        46.875261318320575,
        46.94547637524612,
        47.02222201852606,
        47.104853304808,
        47.19248073443696,
        47.283860471160764,
        47.37737061433015,
        47.47118541543276,
        47.563568091934265,
        47.653112579538565,
        47.738843361574844,
        47.82019733367968,
        47.896950183988224,
        47.9691316169539,
        48.036948483441925,
        48.10072106868233,
        48.160833161205474,
        48.21769497542649,
        48.27171743558451,
        48.32329573827451,
        48.37279990256124
    ]
}