{
    "ate_drug": [
        4.6,
        24.0,
        4.0,
        4.0,
        4.0,
        4.0,
        4.0,
        4.0,
        4.0,
        4.0,
        1.5,
        4.0,
        4.0,
        4.0,
        4.0,
        4.0
    ],
    "cibi_drug": [
        3.4,
        160.0,
        160.0,
        160.0,
        160.0,
        140.0,
        140.0,
        140.0,
        140.0,
        140.0,
        140.0,
        140.0,
        140.0,
        140.0,
        140.0,
        140.0
    ],
    "inefficacy": 13.47120101767348,
    "total_drugs": 54.72222222222222,
    "objective_value": 17.596303138128356,
    "tumour_diameter": [
        11.863655213179799,
        11.87653189885153,
        11.889409741321865,
        11.902286578908614,
        11.915160470525658,
        11.928029667102571,
        11.940892577477756,
        11.953747726492221,
        11.966593705269624,
        11.979429118517118,
        11.99225254223103,
        12.005062506572273,
        12.017857515806506,
        12.030636101415466,
        12.04339689059753,
        12.056138668287776,
        12.068860417529615,
        12.081561335576387,
        12.0942408303311,
        12.106898505847077,
        12.119534144097427,
        12.132147688054857,
        12.144745954129233,
        12.157335418176142,
        12.16991542454267,
        12.18248537103352,
        12.195044673775435,
        12.207592720341074,
        12.22012880822613,
        12.232652071892888,
        12.245161413471234,
        12.257655465121626,
        12.270132611851517,
        12.282591086162038,
        12.29502911449923,
        12.307445071667821,
        12.319837600301833,
        12.332205674379631,
        12.344548609950088,
        12.356866039727402,
        12.369157871401708,
        12.381424244136785,
        12.393665491828655,
        12.405893684933806,
        12.418119979371514,
        12.43034309542405,
        12.442561818699787,
        12.45477494720481,
        12.466981221071286,
        12.479179231069242,
        12.491367311776443,
        12.503543443350214,
        12.515705204657403,
        12.527849819438963,
        12.539974309369871,
        12.552075720180678,
        12.564151353161316,
        12.576198938555367,
        12.58821672156642,
        12.60020346848579,
        12.61215842101085,
        12.624081228048114,
        12.63597187672582,
        12.647830635025674,
        12.659674755924865,
        12.671520090487233,
        12.683364458305826,
        12.695205785481292,
        12.70704202926553,
        12.718871078477669,
        12.730690624530236,
        12.742498010304354,
        12.754290094255596,
        12.766063188598956,
        12.777813126546862,
        12.789535480031061,
        12.801225878693918,
        12.812880333924884,
        12.82449547978262,
        12.836068690496058,
        12.847598085236326,
        12.859082461388534,
        12.870521196679638,
        12.881914150937412,
        12.893261584507968,
        12.904587368963604,
        12.915913411495882,
        12.927236560246728,
        12.938553823575687,
        12.949862265652339,
        12.961158868888635,
        12.972440356148399,
        12.98370298465503,
        12.994942359292171,
        13.006153346341634,
        13.017330169721461,
        13.028466712422334,
        13.039556955671028,
        13.0505954245484,
        13.061577517010463,
        13.072499663564217,
        13.083359330957547,
        13.09415492866872,
        13.104885672427958,
        13.115551447942149,
        13.126152697504416,
        13.136722055947905,
        13.147289459294125,
        13.157850678864163,
        13.168401713580991,
        13.178938648116254,
        13.189457466613575,
        13.199953812510842,
        13.210422710698863,
        13.220858317668895,
        13.231253807632347,
        13.241601506278743,
        13.251893300342566,
        13.262121231555877,
        13.272278096393444,
        13.282357886768075,
        13.292356001261933,
        13.30226924582909,
        13.312095704048836,
        13.3218345504629,
        13.331485864419955,
        13.34105047541942,
        13.350572052054554,
        13.36009067139109,
        13.369600865100121,
        13.379097444247797,
        13.388575300904268,
        13.398029146248803,
        13.407453179574972,
        13.416840722848425,
        13.426183922238515,
        13.435473667655641,
        13.444699857691885,
        13.453852012789008,
        13.462920077602684,
        13.471895171869592,
        13.480770091892126,
        13.489539511570992,
        13.498199935272137,
        13.506749492500262,
        13.515187684221962,
        13.523515142608161,
        13.531733437852292,
        13.539899530093761,
        13.548065496274226,
        13.556224386751795,
        13.56436962690061,
        13.572494761147583,
        13.580593116536834,
        13.58865737927141,
        13.596679129308903,
        13.604648463789678,
        13.61255389975219,
        13.62038272095185,
        13.628121764930798,
        13.635758448242138,
        13.643281721818553,
        13.650682704888926,
        13.657954933588757,
        13.66509428062419,
        13.67209869287923,
        13.678967861526571,
        13.685702911835628,
        13.69230615314388,
        13.6988495124057,
        13.705398690843552,
        13.711945157123866,
        13.718480855800129,
        13.724997887600644,
        13.73148809122245,
        13.737942518354942,
        13.74435085243668,
        13.75070094964813,
        13.75697873653263,
        13.763168642703556,
        13.769254582669387,
        13.77522122777826,
        13.781055182290073,
        13.786745762481223,
        13.792285291655293,
        13.797668990655177,
        13.80289464521862,
        13.807962191749027,
        13.812873328541443,
        13.817631203103126,
        13.822323973373704,
        13.827032102468456,
        13.831745357235318,
        13.836454087640337,
        13.841148839298054,
        13.845819847734951,
        13.850456405181736,
        13.855046169726082,
        13.859574614301266,
        13.864024901806895,
        13.868378422327744,
        13.872615984375388,
        13.876719348372596,
        13.880672638305445,
        13.884463270647975,
        13.888082295692945,
        13.891524258905337,
        13.894786789195063,
        13.897870094514134,
        13.900776489432333,
        13.90351001489966,
        13.906175819777555,
        13.908869809241594,
        13.911579966519705,
        13.914294968413298,
        13.917003728262328,
        13.919694798966999,
        13.922355628311758,
        13.924971749086698,
        13.927526137916724,
        13.92999907565528,
        13.932368790395467,
        13.934612864716593,
        13.936710039361156,
        13.938641866939287,
        13.940393793491005,
        13.941955549343557,
        13.943320972828014,
        13.94448752011175,
        13.945455666284914,
        13.94622834590971,
        13.946810503082203,
        13.947324613015066,
        13.947882339295845,
        13.94846985331776,
        13.949074130355486,
        13.949682421365765,
        13.95028156523714,
        13.950857131528497,
        13.951392491161887,
        13.951868083688657,
        13.952261266715242,
        13.952547064734258,
        13.952699795868325,
        13.952695147603055,
        13.952512073951938,
        13.952134018884541,
        13.951549356625565,
        13.950751198785024,
        13.949736810487355,
        13.94850691714146,
        13.947065057150766,
        13.94541706191067,
        13.94370265578121,
        13.942049193740068,
        13.940441035626444,
        13.938863452587004,
        13.937302029299117,
        13.935741885357992,
        13.934166707923165,
        13.932557703912215,
        13.930892777561915,
        13.929146369315047,
        13.92729031114718,
        13.925295669448063,
        13.923135090714657,
        13.920784937925667,
        13.918226675055315,
        13.915447348870412,
        13.912439343639749,
        13.909199725915148,
        13.905729456935466,
        13.902032658681188,
        13.898116024151646,
        13.894136168014038,
        13.890235822694041,
        13.886397585026751,
        13.882605065049255,
        13.8788422203223,
        13.875092490434914,
        13.871337721492567,
        13.867556993027831,
        13.86372571424494,
        13.859815468557722,
        13.855794962261545,
        13.851632080435076,
        13.847296492932774,
        13.84276202447993,
        13.838008183473901,
        13.83302069057909,
        13.827791193674296,
        13.822316536680459,
        13.816597879487265,
        13.810639880335183,
        13.804450038441557,
        13.79820124918237,
        13.792051085755011,
        13.785980448095067,
        13.779971344405322,
        13.774006160904085,
        13.768066712207313,
        13.76213306237554,
        13.756182252964367,
        13.750187312042703,
        13.744117073590097,
        13.737937236556242,
        13.731612623281356,
        13.725110037399588,
        13.718400857384875,
        13.711462703780454,
        13.704280010264462,
        13.696843704526323,
        13.68915040162835,
        13.681201435846344,
        13.67300196324057,
        13.66456023928533,
        13.656064640983667,
        13.647686858978613,
        13.639406177939055,
        13.631203078911954,
        13.623058446643949,
        13.61495254117677,
        13.606863720936047,
        13.59876706662178,
        13.590633311141119,
        13.582428651308778,
        13.574115901279134,
        13.565656944703036,
        13.557015831010236,
        13.548161580259348,
        13.539069984643474,
        13.52972421564515,
        13.520114477381252,
        13.510237125828374,
        13.500093619029888,
        13.489689542921283,
        13.479033828507651,
        13.468329522268778,
        13.457761748713477,
        13.44730830614474,
        13.436948265667644,
        13.42666112274103,
        13.416425693296622,
        13.406218744750246,
        13.3960135227962,
        13.385778606348113,
        13.37547771291115,
        13.365070941502974,
        13.354517406255235,
        13.343778558677627,
        13.332821191747001,
        13.321619348081203,
        13.310154972854166,
        13.298417563005277,
        13.286403203906495,
        13.274113442892359,
        13.261554243897985,
        13.24873514738228,
        13.235872901764168,
        13.223165194443768,
        13.210588436884757,
        13.198120382409916,
        13.185739223874615,
        13.173422420168848,
        13.161145242185166,
        13.14887920658464,
        13.136590862843468,
        13.12424159010211,
        13.111788924034023,
        13.099189361543841,
        13.086401892433798,
        13.073391191131863,
        13.060129659029423,
        13.046598109290931,
        13.032785358245187,
        13.018687218871529,
        13.004305302133165,
        12.989645904921115,
        12.974719118050494,
        12.959754456804335,
        12.944961348457445,
        12.930314945215617,
        12.915791800153615,
        12.901368915258802,
        12.887022503961022,
        12.872726456974679,
        12.858450671970653,
        12.844159786011609,
        12.829812989500914,
        12.815365416688056,
        12.800771105919658,
        12.78598673203028,
        12.770974967444609,
        12.755706636969474,
        12.740161436261195,
        12.724327499261081,
        12.708200335221377,
        12.691781563236347,
        12.675077740547229,
        12.65809942140447,
        12.641087954640366
    ]
}