{
    "ate_drug": [
        5.9892,
        0.359037,
        0.494581,
        0.308292,
        0.321406,
        0.550137,
        0.750155,
        0.495718,
        0.0,
        0.0,
        0.0,
        0.17518,
        0.0210615,
        19.52,
        0.22441,
        0.0
    ],
    "cibi_drug": [
        6.0,
        0.627358,
        0.0285331,
        0.334498,
        103.846,
        0.210594,
        0.0,
        0.0254214,
        0.0,
        0.0,
        145.22,
        0.0245284,
        0.0,
        0.03159,
        0.0242853,
        159.532
    ],
    "inefficacy": 23.482492499478287,
    "total_drugs": 0.41019878819444455,
    "objective_value": 21.175263128349904,
    "tumour_diameter": [
        16.15603190874364,
        16.16774249536517,
        16.179355930278692,
        16.190951367200057,
        16.202525275195757,
        16.214051531395818,
        16.225496325683967,
        16.236829089619203,
        16.248030003845454,
        16.259090767976154,
        16.27001130215127,
        16.28079627212309,
        16.291452746053572,
        16.30198883293405,
        16.312412927137924,
        16.322733296483886,
        16.332957863624735,
        16.343094092985726,
        16.353148943282182,
        16.36312885472429,
        16.373039757531327,
        16.382887092479496,
        16.39267583766312,
        16.402410539617584,
        16.412095342912444,
        16.421734022090472,
        16.431330011245283,
        16.440886432404298,
        16.45040612219307,
        16.45989165504471,
        16.469345372961165,
        16.47876939644855,
        16.48816565100701,
        16.497535884412343,
        16.506881678301273,
        16.51620447117858,
        16.525505564334818,
        16.534786141605498,
        16.544047273339537,
        16.553289931385333,
        16.562514996031375,
        16.571723266695056,
        16.580915468241773,
        16.590092258669063,
        16.59925423375889,
        16.60840193378355,
        16.617535848807616,
        16.62665642440724,
        16.63576406476896,
        16.64485913495815,
        16.6539419683507,
        16.663012866654867,
        16.67207210552055,
        16.681119934554864,
        16.69015658174545,
        16.699182255076707,
        16.708197143772615,
        16.717201420014916,
        16.72619524073846,
        16.735178751385384,
        16.744152084077776,
        16.753115360308993,
        16.762068691986293,
        16.771012182114898,
        16.779945925432664,
        16.788870009340584,
        16.797784515740698,
        16.806689520214167,
        16.815585093402127,
        16.824471301381298,
        16.83334820619145,
        16.842215865963514,
        16.851074335330942,
        16.859923666636117,
        16.868763909294984,
        16.877595110529374,
        16.886417315553327,
        16.89523056782782,
        16.90403490923402,
        16.912830379948876,
        16.92161701948355,
        16.93039486607886,
        16.93916395713867,
        16.947924329321392,
        16.95667601866193,
        16.9654190608123,
        16.97415348999724,
        16.982879339903473,
        16.991596643613182,
        17.00030543368704,
        17.009005742251187,
        17.01769760107582,
        17.026381041820496,
        17.035056095386775,
        17.043722793065587,
        17.052381165823945,
        17.061031244568685,
        17.069673060172992,
        17.07830664351237,
        17.08693202565994,
        17.09554923727903,
        17.10415830962165,
        17.112759273862604,
        17.1213521613189,
        17.129937003455854,
        17.13851383190081,
        17.147082678699647,
        17.155643575426513,
        17.16419655452809,
        17.172741648424307,
        17.18127888977076,
        17.189808311443212,
        17.198329946541623,
        17.206843828720288,
        17.21534999101161,
        17.223848467590383,
        17.232339292546616,
        17.240822500243596,
        17.24929812532783,
        17.257766202700225,
        17.2662267678425,
        17.274679855540917,
        17.283125501869065,
        17.29156374278524,
        17.29999461454082,
        17.308418153689793,
        17.31683439705572,
        17.325243382019643,
        17.333645144704402,
        17.342039721260033,
        17.3504271476211,
        17.3588074595291,
        17.36718069256453,
        17.375546882176113,
        17.383906064082296,
        17.39225827281276,
        17.400603543987817,
        17.408941912779976,
        17.417273414363677,
        17.42559808391191,
        17.433915956606214,
        17.442227068111126,
        17.450531452756795,
        17.458829146330366,
        17.467120184152765,
        17.47540460162864,
        17.483682434227916,
        17.491953717489977,
        17.50021848755175,
        17.508476779090017,
        17.516728628450007,
        17.524974071485897,
        17.533213144168897,
        17.541445882563504,
        17.54967232282676,
        17.55789250180484,
        17.566106454697792,
        17.574314218602122,
        17.58251583005677,
        17.590711325735064,
        17.598900742432935,
        17.607084117045947,
        17.615261487155752,
        17.623432888697927,
        17.63159835954522,
        17.639757937006838,
        17.647911658537847,
        17.65605956172772,
        17.664201684275415,
        17.672338064218117,
        17.680468738660547,
        17.688593744282734,
        17.696713117859506,
        17.704826895805265,
        17.712935114322704,
        17.72103780942744,
        17.72913501764604,
        17.737226773311143,
        17.74531311272127,
        17.753394071317054,
        17.761469684461662,
        17.769539987434353,
        17.777605015438507,
        17.785664804298385,
        17.793719387718482,
        17.801768801455967,
        17.809813080485032,
        17.817852259769342,
        17.825886374243666,
        17.833915458816964,
        17.841939549130288,
        17.84995867855742,
        17.857972882760876,
        17.86598219657853,
        17.87398665487111,
        17.88198629249856,
        17.889981144322586,
        17.897971245757592,
        17.90595663057557,
        17.91393733427013,
        17.92191339170868,
        17.92988483780709,
        17.937851707497636,
        17.945814035728965,
        17.953771858426695,
        17.961725208669655,
        17.969674122495967,
        17.97761863492073,
        17.985558781024523,
        17.9934945959188,
        18.00142611474914,
        18.009353373359335,
        18.017276405654595,
        18.025195247602102,
        18.03310993448676,
        18.04102050166903,
        18.048926984572198,
        18.05682941866599,
        18.06472784045102,
        18.0726222835351,
        18.08051278462758,
        18.088399379416405,
        18.096282103702126,
        18.104160993361425,
        18.11203608435334,
        18.119907413775028,
        18.127775015671673,
        18.135638927398187,
        18.143499185268553,
        18.151355825745146,
        18.159208885407015,
        18.167058400952193,
        18.174904410214864,
        18.182746948170028,
        18.19058605301073,
        18.198421761975965,
        18.206254112510752,
        18.21408314222938,
        18.22190888892908,
        18.229731391747148,
        18.237550686634094,
        18.24536681313568,
        18.253179809887403,
        18.26098971575312,
        18.26879656988239,
        18.276600411677205,
        18.28440128197014,
        18.29219921841865,
        18.299994262467287,
        18.307786454707852,
        18.315575836082235,
        18.323362447914473,
        18.331146331893734,
        18.338927531159595,
        18.346706086054056,
        18.35448204068403,
        18.36225543841292,
        18.370026323133633,
        18.37779473924294,
        18.3855607316601,
        18.3933243469024,
        18.401085629105328,
        18.4088446259782,
        18.41660138487329,
        18.42435595382929,
        18.432108381651645,
        18.439858717875737,
        18.44760701414562,
        18.455353318938005,
        18.46309768565706,
        18.470840167198148,
        18.478580817437273,
        18.486319691304285,
        18.494056844752983,
        18.501792336618003,
        18.509526221478122,
        18.517258560673483,
        18.524989414822304,
        18.532718845900586,
        18.54044691735801,
        18.548173694066964,
        18.555899244023024,
        18.563623631938647,
        18.571346929160928,
        18.579069207011596,
        18.586790538666374,
        18.594510999288087,
        18.602230665977448,
        18.609949619705286,
        18.617667938129667,
        18.625385706774946,
        18.633103011496267,
        18.640819940620982,
        18.648536585172337,
        18.656253038755438,
        18.66396939889928,
        18.671685731252374,
        18.67940210354521,
        18.68711857527494,
        18.694835198191512,
        18.702552017179833,
        18.710269071169147,
        18.71798639544018,
        18.72570401429219,
        18.733421954012893,
        18.74114023485501,
        18.748858873732434,
        18.756577884620594,
        18.764297278812226,
        18.772017067041432,
        18.779737252231932,
        18.78745784145955,
        18.795178838200894,
        18.802900244579938,
        18.810622061585253,
        18.81834428919268,
        18.826066928369972,
        18.833789973650447,
        18.84151342476898,
        18.84923727903585,
        18.85696153338823,
        18.864686184450267,
        18.872411228650513,
        18.880136664170855,
        18.88786248345696,
        18.89558868461494,
        18.90331526390587,
        18.91104221768348,
        18.918769542442604,
        18.9264972348608,
        18.93422529372148,
        18.941953712389026,
        18.949682490185747,
        18.957411624854775,
        18.965141114471496,
        18.972870957468515,
        18.98060115265283,
        18.988331699463785,
        18.996062596393376,
        19.003793842183665,
        19.011525435592937,
        19.01925737542379,
        19.026989660567363,
        19.03472229004266,
        19.042455264927654,
        19.050188580810904,
        19.05792223920153,
        19.06565623996016,
        19.07339058322508,
        19.081125269432736,
        19.088860299334456,
        19.09659567538112,
        19.104331396375095,
        19.112067465501486,
        19.119803884997392,
        19.127540657507133,
        19.135277786094615,
        19.143015274253248,
        19.150753127818316,
        19.158491347498657,
        19.166229940069723,
        19.173968910915754,
        19.181708265934105,
        19.189448011525602,
        19.197188154617265,
        19.204928704629516,
        19.21266966577548,
        19.22041104858373,
        19.22815286224534,
        19.23589511651899,
        19.243637821826688,
        19.251380989214336,
        19.259124632279864,
        19.26686875950803,
        19.27461338584956,
        19.282358525016644,
        19.290104191404815,
        19.297850400208436,
        19.30559716736835,
        19.31334451032937,
        19.32109244029369,
        19.328840968586732,
        19.336590105071377,
        19.34433985824992,
        19.35209023543867,
        19.359841242915437,
        19.367592888012588,
        19.37534517136048,
        19.383098098893704,
        19.390851673951737,
        19.398605899415454,
        19.406360777765702,
        19.41411631115717,
        19.42187250363061,
        19.429629352481886,
        19.43738686143736,
        19.44514503190178,
        19.452903865223824,
        19.46066336272348,
        19.468423525732252,
        19.476184357569124
    ]
}