{
    "synthesized_therapy": {
        "ate_freq_in": 3.56494,
        "ate_m10_in": 0.904896,
        "ate_m11_in": 2.3427e-27,
        "ate_m12_in": 0.503318,
        "ate_m13_in": 0.321947,
        "ate_m14_in": 1.56801e-47,
        "ate_m15_in": 1.23543e-140,
        "ate_m1_in": 24.0,
        "ate_m2_in": 0.0,
        "ate_m3_in": 3.24935e-305,
        "ate_m4_in": 0.0,
        "ate_m5_in": 2.92916,
        "ate_m6_in": 1.36014e-21,
        "ate_m7_in": 0.0,
        "ate_m8_in": 3.89905,
        "ate_m9_in": 9.25004e-47,
        "cibi_freq_in": 5.82032,
        "cibi_m10_in": 157.5,
        "cibi_m11_in": 8.33814e-58,
        "cibi_m12_in": 8.9344e-160,
        "cibi_m13_in": 16.9732,
        "cibi_m14_in": 9.64337e-25,
        "cibi_m15_in": 0.0,
        "cibi_m1_in": 15.5586,
        "cibi_m2_in": 0.0,
        "cibi_m3_in": 2.01541,
        "cibi_m4_in": 0.0,
        "cibi_m5_in": 0.0,
        "cibi_m6_in": 0.0,
        "cibi_m7_in": 5.41137e-161,
        "cibi_m8_in": 1.31856e-53,
        "cibi_m9_in": 7.09364e-09
    },
    "tumour_diameter": 22.167517277884958,
    "total_drugs": 8.129923211805556,
    "objective": 16.11666757008445,
    "inefficacy": 17.004083609893215
}