{
    "synthesized_therapy": {
        "ate_freq_in": 4.25025,
        "ate_m10_in": 10.6039,
        "ate_m11_in": 0.602852,
        "ate_m12_in": 2.27741,
        "ate_m13_in": 15.2634,
        "ate_m14_in": 0.485107,
        "ate_m15_in": 15.4625,
        "ate_m1_in": 0.421727,
        "ate_m2_in": 21.8258,
        "ate_m3_in": 10.5769,
        "ate_m4_in": 15.4239,
        "ate_m5_in": 5.99785,
        "ate_m6_in": 6.33292,
        "ate_m7_in": 1.60757,
        "ate_m8_in": 18.3273,
        "ate_m9_in": 1.40918,
        "cibi_freq_in": 4.94724,
        "cibi_m10_in": 0.669406,
        "cibi_m11_in": 15.3751,
        "cibi_m12_in": 24.8813,
        "cibi_m13_in": 9.16225,
        "cibi_m14_in": 28.7996,
        "cibi_m15_in": 144.484,
        "cibi_m1_in": 53.5674,
        "cibi_m2_in": 46.7457,
        "cibi_m3_in": 131.509,
        "cibi_m4_in": 31.3711,
        "cibi_m5_in": 89.099,
        "cibi_m6_in": 133.958,
        "cibi_m7_in": 132.558,
        "cibi_m8_in": 88.6468,
        "cibi_m9_in": 85.3812
    },
    "tumour_diameter": 9.823614104306946,
    "total_drugs": 26.784236534722226,
    "objective": 6.651186801905232,
    "inefficacy": 4.414181276036677
}