{
    "ate_drug": [
        6.0,
        8.35938e-32,
        0.0,
        0.0,
        0.0,
        4.86246e-37,
        1.89302e-14,
        2.15332e-27,
        8.51751e-22,
        0.0,
        0.0,
        0.0,
        0.0,
        6.56466e-20,
        4.94748e-204,
        0.0
    ],
    "cibi_drug": [
        6.0,
        160.0,
        0.0,
        1.30203,
        7.39167e-155,
        5.42881e-106,
        9.16985e-10,
        160.0,
        4.26761e-07,
        1.82784e-15,
        0.0,
        8.63878e-47,
        1.18709e-68,
        160.0,
        4.82746e-27,
        2.53959e-114
    ],
    "inefficacy": 26.075868374681313,
    "total_drugs": 2.52034421875,
    "objective_value": 23.720315959088182,
    "tumour_diameter": [
        21.497148111122122,
        21.51071312823311,
        21.52373758518295,
        21.536427678343426,
        21.54893113932294,
        21.56132771865818,
        21.573653541821994,
        21.585919104712296,
        21.598116804870784,
        21.610222246637974,
        21.622193551358876,
        21.63397372714964,
        21.6455004239623,
        21.65672067552406,
        21.667601384932578,
        21.6781303426858,
        21.688311154146742,
        21.698157225076674,
        21.70768720135972,
        21.71692204966234,
        21.725883333549607,
        21.734592235128726,
        21.743069021541523,
        21.751332772104647,
        21.759401258160892,
        21.767290913738538,
        21.775016858978574,
        21.782592953994676,
        21.790031869542197,
        21.79734516563521,
        21.80454337270192,
        21.811636072390844,
        21.81863197534331,
        21.825538995183685,
        21.83236431796613,
        21.83911446675308,
        21.84579536111263,
        21.852412372656055,
        21.858970374815062,
        21.865473789210174,
        21.87192662766739,
        21.878332530472775,
        21.88469480121077,
        21.891016437605362,
        21.897300163421455,
        21.903548449687634,
        21.90976354269099,
        21.915947481765624,
        21.922102121860107,
        21.9282291491098,
        21.9343301012987,
        21.94040636541539,
        21.946459219465652,
        21.95248982224134,
        21.958499229786117,
        21.964488405159358,
        21.970458228976348,
        21.976409499163186,
        21.982342963049224,
        21.98825928915042,
        21.99415909422437,
        22.00004294598435,
        22.0059113628542,
        22.011764822353022,
        22.0176037686453,
        22.023428599335986,
        22.02923969505464,
        22.03503740174288,
        22.04082204069951,
        22.046593909943155,
        22.052353285462466,
        22.058100411112868,
        22.06383555485368,
        22.069558927829096,
        22.075270740567454,
        22.080971190383618,
        22.086660463094262,
        22.092338734812007,
        22.098006148126032,
        22.103662906955538,
        22.109309128128167,
        22.114944956697,
        22.12057052848056,
        22.12618597109754,
        22.13179140715966,
        22.137398844593942,
        22.143082459342484,
        22.14892201221998,
        22.15492959129569,
        22.16106172379262,
        22.167261277824284,
        22.173481471390655,
        22.179690818822785,
        22.185870195971997,
        22.192008833933922,
        22.19810125839658,
        22.20414527713986,
        22.210140712068608,
        22.216088605211453,
        22.22199071726915,
        22.227849207613033,
        22.233666428445133,
        22.2394447923155,
        22.24518668754265,
        22.25089442527359,
        22.256570207736008,
        22.262216110590984,
        22.267834074911416,
        22.273425905280266,
        22.278993272103186,
        22.284537716494295,
        22.29006065674347,
        22.295563395651786,
        22.301047128259306,
        22.306512949636367,
        22.31196186249207,
        22.317394784561575,
        22.322812555552787,
        22.328215943705768,
        22.333605651907675,
        22.338982323654943,
        22.344346547033403,
        22.349698861549754,
        22.35503976154225,
        22.36036969950532,
        22.365689091019675,
        22.370998317542025,
        22.376297729988814,
        22.381587649760625,
        22.386868374464996,
        22.392140177881544,
        22.39740331238199,
        22.402658011533426,
        22.40790449143898,
        22.41314294954455,
        22.418373576888957,
        22.423596544206706,
        22.428812012302615,
        22.434020131674952,
        22.439221042704002,
        22.444414876623544,
        22.44960175710673,
        22.454781799585792,
        22.45995511398378,
        22.46512180350994,
        22.47028196599845,
        22.47543569412224,
        22.480583075589795,
        22.485724187665685,
        22.490859123287684,
        22.495987952427825,
        22.50111074835051,
        22.5062275812617,
        22.51133851875242,
        22.516443626161042,
        22.52154296255217,
        22.52663659581395,
        22.531724580872968,
        22.536806975272505,
        22.54188383435843,
        22.546955212105818,
        22.552021161106488,
        22.557081723249066,
        22.562136968528257,
        22.567186934353348,
        22.572231669975977,
        22.57727122258115,
        22.58230563818272,
        22.58733496208149,
        22.592359226623916,
        22.59737850127973,
        22.602392814344036,
        22.607402209573404,
        22.61240672919721,
        22.617406414273578,
        22.62240130557377,
        22.627391431791892,
        22.632376857281557,
        22.637357606671532,
        22.64233371962255,
        22.647305235290776,
        22.65227219161888,
        22.657234625982955,
        22.662192565319657,
        22.667146068672903,
        22.672095159130727,
        22.67703987287941,
        22.68198024679992,
        22.686916316600744,
        22.69184811708749,
        22.69677568151826,
        22.70169904885165,
        22.706618248731854,
        22.711533315937835,
        22.716444284770663,
        22.721351188568583,
        22.726254060100143,
        22.731152931079425,
        22.73604783802926,
        22.740938808904367,
        22.745825876292503,
        22.750709072777767,
        22.755588430018534,
        22.76046397897202,
        22.76533572337857,
        22.770203750323684,
        22.775068062833906,
        22.779928690318815,
        22.784785660179516,
        22.78963900198431,
        22.794488747082053,
        22.799334921407485,
        22.804177566234898,
        22.809016702875173,
        22.81385235721369,
        22.818684558525607,
        22.823513337072114,
        22.828338721124126,
        22.83316073865239,
        22.837979420820876,
        22.842794791190613,
        22.8476068755725,
        22.852415699455573,
        22.857221292027177,
        22.86202368084906,
        22.866822862972164,
        22.871618926888722,
        22.87641186889611,
        22.881201714180353,
        22.8859884867019,
        22.890772211242595,
        22.895552909983536,
        22.90033060974778,
        22.905105341229262,
        22.909877125995234,
        22.9146459868744,
        22.919411947021977,
        22.924175031687817,
        22.928935267565,
        22.933692648581907,
        22.93844726087349,
        22.943199095950558,
        22.94794818330351,
        22.952694540389075,
        22.95743818706862,
        22.962179151402463,
        22.966917410753922,
        22.971653064747002,
        22.976386102199506,
        22.981116550212175,
        22.9858444266776,
        22.990569749966706,
        22.995292549332696,
        23.000012802237723,
        23.00473060016828,
        23.009445934559132,
        23.014158830930004,
        23.0188693065311,
        23.023577382141106,
        23.02828308083047,
        23.03298636923557,
        23.037687360155804,
        23.042386039050783,
        23.047082420774828,
        23.051776521631563,
        23.056468368364026,
        23.061157969811642,
        23.065845318218027,
        23.07053050078981,
        23.07521350516687,
        23.07989435022688,
        23.084573056998316,
        23.089249646144786,
        23.093924133304007,
        23.09859650134059,
        23.10326682596162,
        23.10793510455095,
        23.112601354148296,
        23.11726559430464,
        23.121927850537126,
        23.126588128394907,
        23.131246429632164,
        23.135902801324054,
        23.140557252476537,
        23.145209799556387,
        23.149860459233587,
        23.154509261158363,
        23.159156204408177,
        23.16380130532305,
        23.16844458521842,
        23.17308606428294,
        23.17772575822478,
        23.182363688981173,
        23.18699986872526,
        23.191634316076147,
        23.196267043085236,
        23.200898052593825,
        23.205527375774246,
        23.2101550271494,
        23.21478102679185,
        23.219405390957846,
        23.224028128905776,
        23.228649268510274,
        23.23326879025807,
        23.237886735248797,
        23.24250311671681,
        23.247117949002178,
        23.25173125724135,
        23.256343043651807,
        23.26095334609364,
        23.265562125785927,
        23.270169434361666,
        23.274775282121166,
        23.279379680076413,
        23.283982650354663,
        23.288584198429888,
        23.29318438286001,
        23.297783131678234,
        23.302380505239693,
        23.306976516242912,
        23.31157117777403,
        23.316164512833538,
        23.320756525808427,
        23.325347266437173,
        23.32993666188145,
        23.33452477937452,
        23.33911162743282,
        23.34369721372149,
        23.348281568930666,
        23.352864684724693,
        23.35744665186444,
        23.36202734088745,
        23.366606838895535,
        23.371185157461788,
        23.375762307364663,
        23.380338303316968,
        23.384913153641172,
        23.389486872868765,
        23.3940594793011,
        23.398630980500553,
        23.403201387857084,
        23.40777071629957,
        23.412338957101426,
        23.416906166744084,
        23.42147237002108,
        23.426037465912888,
        23.43060153794673,
        23.435164596533543,
        23.439726652589872,
        23.444287730725836,
        23.44884782519296,
        23.45340701580033,
        23.457965171423147,
        23.462522380681783,
        23.46707865386363,
        23.471634003907194,
        23.476188447084652,
        23.480741981127082,
        23.4852947572606,
        23.489846509320493,
        23.494397389597104,
        23.498947410280145,
        23.50349658018864,
        23.508044906619048,
        23.51259240318291,
        23.51713923388576,
        23.521685093937847,
        23.526230153051312,
        23.530774423941434,
        23.535317913669402,
        23.539860629136353,
        23.54440258552991,
        23.548943964267572,
        23.55348442088241,
        23.558024144211444,
        23.562563147595466,
        23.56710143623706,
        23.57163901612678,
        23.576175907132953,
        23.580712308348815,
        23.585247828169347,
        23.58978267958885,
        23.59431687631951,
        23.598850421557,
        23.60338332614122,
        23.607915598682506,
        23.612447344105778,
        23.6169783718661,
        23.621508799442246,
        23.626038634705193,
        23.630567874450428,
        23.6350965463573,
        23.639624638874015,
        23.644152262570437,
        23.64867922414755,
        23.653205644863792,
        23.657731532596532,
        23.662256882681742,
        23.666781723424737,
        23.671306044261186,
        23.675829955664593
    ]
}