======= APRICOPT =========

=== Optimization through COPASI solver ===


Solver settings: 

Method: Nelder - Mead
    Log Verbosity: 0
    Iteration Limit: 1200
    Tolerance: 0.1
    Scale: 10



Optimization Log:

Function Evaluation	Objective Value		Optimization Parameters
1			18.2943			(	4	24	24	24	24	24	24	24	24	24	24	24	24	24	24	24	3	160	160	160	160	160	160	160	160	160	160	160	160	160	160	160	)
2			17.2964			(	4.5	24	24	24	24	24	24	24	24	24	24	24	24	24	24	24	3	160	160	160	160	160	160	160	160	160	160	160	160	160	160	160	)
18			16.9839			(	4	24	24	24	24	24	24	24	24	24	24	24	24	24	24	24	3.5	160	160	160	160	160	160	160	160	160	160	160	160	160	160	160	)
323			16.9839			(	4.4	24	24	24	24	24	24	24	24	24	24	24	24	24	24	24	3.5	160	160	160	160	160	160	160	160	160	160	160	160	160	160	160	)
324			16.9573			(	4	22.08	24	24	24	24	24	24	24	24	24	24	24	24	24	24	3.5	160	160	160	160	160	160	160	160	160	160	160	160	160	160	160	)
325			16.9573			(	4	24	22.08	24	24	24	24	24	24	24	24	24	24	24	24	24	3.5	160	160	160	160	160	160	160	160	160	160	160	160	160	160	160	)
326			16.9572			(	4	24	24	22.08	24	24	24	24	24	24	24	24	24	24	24	24	3.5	160	160	160	160	160	160	160	160	160	160	160	160	160	160	160	)
327			16.9572			(	4	24	24	24	22.08	24	24	24	24	24	24	24	24	24	24	24	3.5	160	160	160	160	160	160	160	160	160	160	160	160	160	160	160	)
328			16.9572			(	4	24	24	24	24	22.08	24	24	24	24	24	24	24	24	24	24	3.5	160	160	160	160	160	160	160	160	160	160	160	160	160	160	160	)
330			16.9306			(	4	24	24	24	24	24	24	22.08	24	24	24	24	24	24	24	24	3.5	160	160	160	160	160	160	160	160	160	160	160	160	160	160	160	)
360			16.9306			(	4.32	24	24	24	24	24	24	22.08	24	24	24	24	24	24	24	24	3.5	160	160	160	160	160	160	160	160	160	160	160	160	160	160	160	)
361			16.9093			(	4	22.464	24	24	24	24	24	22.08	24	24	24	24	24	24	24	24	3.5	160	160	160	160	160	160	160	160	160	160	160	160	160	160	160	)
362			16.9093			(	4	24	22.464	24	24	24	24	22.08	24	24	24	24	24	24	24	24	3.5	160	160	160	160	160	160	160	160	160	160	160	160	160	160	160	)
363			16.9093			(	4	24	24	22.464	24	24	24	22.08	24	24	24	24	24	24	24	24	3.5	160	160	160	160	160	160	160	160	160	160	160	160	160	160	160	)
364			16.9093			(	4	24	24	24	22.464	24	24	22.08	24	24	24	24	24	24	24	24	3.5	160	160	160	160	160	160	160	160	160	160	160	160	160	160	160	)
365			16.9093			(	4	24	24	24	24	22.464	24	22.08	24	24	24	24	24	24	24	24	3.5	160	160	160	160	160	160	160	160	160	160	160	160	160	160	160	)
383			16.8986			(	4	24	24	24	24	24	24	22.08	24	24	24	24	24	24	24	24	3.5	160	160	160	160	160	160	149.76	160	160	160	160	160	160	160	160	)
392			16.7964			(	4.03	23.856	23.856	23.856	23.856	23.856	23.856	19.008	23.856	23.856	23.856	23.856	23.856	23.856	23.856	23.856	3.53	159.04	159.04	159.04	159.04	159.04	159.04	159.04	159.04	159.04	159.04	159.04	159.04	159.04	159.04	159.04	)
393			16.6195			(	4.06	23.712	23.712	23.712	23.712	23.712	23.712	14.4	23.712	23.712	23.712	23.712	23.712	23.712	23.712	23.712	3.56	158.08	158.08	158.08	158.08	158.08	158.08	158.08	158.08	158.08	158.08	158.08	158.08	158.08	158.08	158.08	)
398			16.6195			(	4.316	23.712	23.712	23.712	23.712	23.712	23.712	14.4	23.712	23.712	23.712	23.712	23.712	23.712	23.712	23.712	3.56	158.08	158.08	158.08	158.08	158.08	158.08	158.08	158.08	158.08	158.08	158.08	158.08	158.08	158.08	158.08	)
399			16.6025			(	4.06	22.4832	23.712	23.712	23.712	23.712	23.712	14.4	23.712	23.712	23.712	23.712	23.712	23.712	23.712	23.712	3.56	158.08	158.08	158.08	158.08	158.08	158.08	158.08	158.08	158.08	158.08	158.08	158.08	158.08	158.08	158.08	)
400			16.6025			(	4.06	23.712	22.4832	23.712	23.712	23.712	23.712	14.4	23.712	23.712	23.712	23.712	23.712	23.712	23.712	23.712	3.56	158.08	158.08	158.08	158.08	158.08	158.08	158.08	158.08	158.08	158.08	158.08	158.08	158.08	158.08	158.08	)
401			16.6025			(	4.06	23.712	23.712	22.4832	23.712	23.712	23.712	14.4	23.712	23.712	23.712	23.712	23.712	23.712	23.712	23.712	3.56	158.08	158.08	158.08	158.08	158.08	158.08	158.08	158.08	158.08	158.08	158.08	158.08	158.08	158.08	158.08	)
402			16.6025			(	4.06	23.712	23.712	23.712	22.4832	23.712	23.712	14.4	23.712	23.712	23.712	23.712	23.712	23.712	23.712	23.712	3.56	158.08	158.08	158.08	158.08	158.08	158.08	158.08	158.08	158.08	158.08	158.08	158.08	158.08	158.08	158.08	)
403			16.6025			(	4.06	23.712	23.712	23.712	23.712	22.4832	23.712	14.4	23.712	23.712	23.712	23.712	23.712	23.712	23.712	23.712	3.56	158.08	158.08	158.08	158.08	158.08	158.08	158.08	158.08	158.08	158.08	158.08	158.08	158.08	158.08	158.08	)
421			16.5939			(	4.06	23.712	23.712	23.712	23.712	23.712	23.712	14.4	23.712	23.712	23.712	23.712	23.712	23.712	23.712	23.712	3.56	158.08	158.08	158.08	158.08	158.08	158.08	149.888	158.08	158.08	158.08	158.08	158.08	158.08	158.08	158.08	)
430			16.5122			(	4.084	23.5968	23.5968	23.5968	23.5968	23.5968	23.5968	11.9424	23.5968	23.5968	23.5968	23.5968	23.5968	23.5968	23.5968	23.5968	3.584	157.312	157.312	157.312	157.312	157.312	157.312	157.312	157.312	157.312	157.312	157.312	157.312	157.312	157.312	157.312	)
431			16.3708			(	4.108	23.4816	23.4816	23.4816	23.4816	23.4816	23.4816	8.256	23.4816	23.4816	23.4816	23.4816	23.4816	23.4816	23.4816	23.4816	3.608	156.544	156.544	156.544	156.544	156.544	156.544	156.544	156.544	156.544	156.544	156.544	156.544	156.544	156.544	156.544	)
436			16.3708			(	4.3128	23.4816	23.4816	23.4816	23.4816	23.4816	23.4816	8.256	23.4816	23.4816	23.4816	23.4816	23.4816	23.4816	23.4816	23.4816	3.608	156.544	156.544	156.544	156.544	156.544	156.544	156.544	156.544	156.544	156.544	156.544	156.544	156.544	156.544	156.544	)
437			16.3572			(	4.108	22.4986	23.4816	23.4816	23.4816	23.4816	23.4816	8.256	23.4816	23.4816	23.4816	23.4816	23.4816	23.4816	23.4816	23.4816	3.608	156.544	156.544	156.544	156.544	156.544	156.544	156.544	156.544	156.544	156.544	156.544	156.544	156.544	156.544	156.544	)
438			16.3571			(	4.108	23.4816	22.4986	23.4816	23.4816	23.4816	23.4816	8.256	23.4816	23.4816	23.4816	23.4816	23.4816	23.4816	23.4816	23.4816	3.608	156.544	156.544	156.544	156.544	156.544	156.544	156.544	156.544	156.544	156.544	156.544	156.544	156.544	156.544	156.544	)
439			16.3571			(	4.108	23.4816	23.4816	22.4986	23.4816	23.4816	23.4816	8.256	23.4816	23.4816	23.4816	23.4816	23.4816	23.4816	23.4816	23.4816	3.608	156.544	156.544	156.544	156.544	156.544	156.544	156.544	156.544	156.544	156.544	156.544	156.544	156.544	156.544	156.544	)
440			16.3571			(	4.108	23.4816	23.4816	23.4816	22.4986	23.4816	23.4816	8.256	23.4816	23.4816	23.4816	23.4816	23.4816	23.4816	23.4816	23.4816	3.608	156.544	156.544	156.544	156.544	156.544	156.544	156.544	156.544	156.544	156.544	156.544	156.544	156.544	156.544	156.544	)
441			16.3571			(	4.108	23.4816	23.4816	23.4816	23.4816	22.4986	23.4816	8.256	23.4816	23.4816	23.4816	23.4816	23.4816	23.4816	23.4816	23.4816	3.608	156.544	156.544	156.544	156.544	156.544	156.544	156.544	156.544	156.544	156.544	156.544	156.544	156.544	156.544	156.544	)
459			16.3503			(	4.108	23.4816	23.4816	23.4816	23.4816	23.4816	23.4816	8.256	23.4816	23.4816	23.4816	23.4816	23.4816	23.4816	23.4816	23.4816	3.608	156.544	156.544	156.544	156.544	156.544	156.544	149.99	156.544	156.544	156.544	156.544	156.544	156.544	156.544	156.544	)
468			16.285			(	4.1272	23.3894	23.3894	23.3894	23.3894	23.3894	23.3894	6.28992	23.3894	23.3894	23.3894	23.3894	23.3894	23.3894	23.3894	23.3894	3.6272	155.93	155.93	155.93	155.93	155.93	155.93	155.93	155.93	155.93	155.93	155.93	155.93	155.93	155.93	155.93	)
469			16.1722			(	4.1464	23.2973	23.2973	23.2973	23.2973	23.2973	23.2973	3.3408	23.2973	23.2973	23.2973	23.2973	23.2973	23.2973	23.2973	23.2973	3.6464	155.315	155.315	155.315	155.315	155.315	155.315	155.315	155.315	155.315	155.315	155.315	155.315	155.315	155.315	155.315	)
474			16.1722			(	4.31024	23.2973	23.2973	23.2973	23.2973	23.2973	23.2973	3.3408	23.2973	23.2973	23.2973	23.2973	23.2973	23.2973	23.2973	23.2973	3.6464	155.315	155.315	155.315	155.315	155.315	155.315	155.315	155.315	155.315	155.315	155.315	155.315	155.315	155.315	155.315	)
475			16.1613			(	4.1464	22.5108	23.2973	23.2973	23.2973	23.2973	23.2973	3.3408	23.2973	23.2973	23.2973	23.2973	23.2973	23.2973	23.2973	23.2973	3.6464	155.315	155.315	155.315	155.315	155.315	155.315	155.315	155.315	155.315	155.315	155.315	155.315	155.315	155.315	155.315	)
476			16.1613			(	4.1464	23.2973	22.5108	23.2973	23.2973	23.2973	23.2973	3.3408	23.2973	23.2973	23.2973	23.2973	23.2973	23.2973	23.2973	23.2973	3.6464	155.315	155.315	155.315	155.315	155.315	155.315	155.315	155.315	155.315	155.315	155.315	155.315	155.315	155.315	155.315	)
477			16.1613			(	4.1464	23.2973	23.2973	22.5108	23.2973	23.2973	23.2973	3.3408	23.2973	23.2973	23.2973	23.2973	23.2973	23.2973	23.2973	23.2973	3.6464	155.315	155.315	155.315	155.315	155.315	155.315	155.315	155.315	155.315	155.315	155.315	155.315	155.315	155.315	155.315	)
478			16.1613			(	4.1464	23.2973	23.2973	23.2973	22.5108	23.2973	23.2973	3.3408	23.2973	23.2973	23.2973	23.2973	23.2973	23.2973	23.2973	23.2973	3.6464	155.315	155.315	155.315	155.315	155.315	155.315	155.315	155.315	155.315	155.315	155.315	155.315	155.315	155.315	155.315	)
479			16.1613			(	4.1464	23.2973	23.2973	23.2973	23.2973	22.5108	23.2973	3.3408	23.2973	23.2973	23.2973	23.2973	23.2973	23.2973	23.2973	23.2973	3.6464	155.315	155.315	155.315	155.315	155.315	155.315	155.315	155.315	155.315	155.315	155.315	155.315	155.315	155.315	155.315	)
497			16.1558			(	4.1464	23.2973	23.2973	23.2973	23.2973	23.2973	23.2973	3.3408	23.2973	23.2973	23.2973	23.2973	23.2973	23.2973	23.2973	23.2973	3.6464	155.315	155.315	155.315	155.315	155.315	155.315	150.072	155.315	155.315	155.315	155.315	155.315	155.315	155.315	155.315	)
506			16.1042			(	4.16176	23.2236	23.2236	23.2236	23.2236	23.2236	23.2236	1.76794	23.2236	23.2236	23.2236	23.2236	23.2236	23.2236	23.2236	23.2236	3.66176	154.824	154.824	154.824	154.824	154.824	154.824	154.824	154.824	154.824	154.824	154.824	154.824	154.824	154.824	154.824	)
512			16.1042			(	4.29283	23.2236	23.2236	23.2236	23.2236	23.2236	23.2236	1.76794	23.2236	23.2236	23.2236	23.2236	23.2236	23.2236	23.2236	23.2236	3.66176	154.824	154.824	154.824	154.824	154.824	154.824	154.824	154.824	154.824	154.824	154.824	154.824	154.824	154.824	154.824	)
544			16.0922			(	4.17405	23.2825	23.2825	23.2825	23.2825	23.2825	23.2825	0.509645	23.2825	23.2825	23.2825	23.2825	23.2825	23.2825	23.2825	23.2825	3.67405	155.217	155.217	155.217	155.217	155.217	155.217	155.217	155.217	155.217	155.217	155.217	155.217	155.217	155.217	155.217	)
550			16.0922			(	4.27891	23.2825	23.2825	23.2825	23.2825	23.2825	23.2825	0.509645	23.2825	23.2825	23.2825	23.2825	23.2825	23.2825	23.2825	23.2825	3.67405	155.217	155.217	155.217	155.217	155.217	155.217	155.217	155.217	155.217	155.217	155.217	155.217	155.217	155.217	155.217	)
594			16.0922			(	4.36279	23.2825	23.2825	23.2825	23.2825	23.2825	23.2825	0.509645	23.2825	23.2825	23.2825	23.2825	23.2825	23.2825	23.2825	23.2825	3.67405	155.217	155.217	155.217	155.217	155.217	155.217	155.217	155.217	155.217	155.217	155.217	155.217	155.217	155.217	155.217	)
640			16.0922			(	4.4299	23.2825	23.2825	23.2825	23.2825	23.2825	23.2825	0.509645	23.2825	23.2825	23.2825	23.2825	23.2825	23.2825	23.2825	23.2825	3.67405	155.217	155.217	155.217	155.217	155.217	155.217	155.217	155.217	155.217	155.217	155.217	155.217	155.217	155.217	155.217	)
690			16.0921			(	4.48359	23.2825	23.2825	23.2825	23.2825	23.2825	23.2825	0.509645	23.2825	23.2825	23.2825	23.2825	23.2825	23.2825	23.2825	23.2825	3.67405	155.217	155.217	155.217	155.217	155.217	155.217	155.217	155.217	155.217	155.217	155.217	155.217	155.217	155.217	155.217	)
