{
    "ate_drug": [
        6.0,
        1.05312,
        0.0,
        6.46713,
        24.0,
        15.8326,
        9.47124,
        0.281995,
        24.0,
        0.0,
        16.2091,
        0.431689,
        6.40511,
        13.7918,
        0.0251114,
        0.0
    ],
    "cibi_drug": [
        5.33919,
        0.495643,
        6.7032,
        0.0,
        32.5937,
        72.2555,
        116.954,
        7.59642,
        40.5129,
        0.0,
        2.63318,
        20.4818,
        29.8034,
        1.8006,
        20.7085,
        0.0
    ],
    "inefficacy": 24.97745207428278,
    "total_drugs": 12.198518458333332,
    "objective_value": 23.699558712687836,
    "tumour_diameter": [
        32.13735730940974,
        32.21535843318471,
        32.29088970282571,
        32.36396510067882,
        32.434604186704505,
        32.50283139871215,
        32.56867542055523,
        32.632168584531215,
        32.69334610566035,
        32.752246646936484,
        32.80891026168333,
        32.86337910521902,
        32.9156968226068,
        32.965908192066316,
        33.01405887261403,
        33.06019505409294,
        33.10436360917246,
        33.14661131618287,
        33.18698511164212,
        33.22553180065384,
        33.262297935173464,
        33.29732970933044,
        33.33067268455232,
        33.36237238883932,
        33.392473210766696,
        33.42101903522741,
        33.44805302134943,
        33.4736175545797,
        33.497754214676824,
        33.520503621812864,
        33.5419059296552,
        33.56200004230821,
        33.58082411013614,
        33.598415401621466,
        33.614810302619944,
        33.63004431500573,
        33.644152060697635,
        33.65716728809549,
        33.66912288090403,
        33.68005086749487,
        33.689982430521695,
        33.69894791153089,
        33.70697680168063,
        33.7140977191543,
        33.72033834642747,
        33.7257254082817,
        33.73028470870953,
        33.73404126587909,
        33.73701950764013,
        33.73924345448845,
        33.74073682223889,
        33.74152301259893,
        33.74162501065212,
        33.7410652399115,
        33.73986543843698,
        33.73804659296353,
        33.73562893380318,
        33.73263197002564,
        33.729074540757566,
        33.724974867491866,
        33.72035059845078,
        33.71521884479334,
        33.709596209403585,
        33.70349881016292,
        33.69694229933567,
        33.68994188003375,
        33.682512321591865,
        33.67466797299275,
        33.66642277578721,
        33.6577902763008,
        33.648783637324755,
        33.639415649853404,
        33.62969874232764,
        33.6196449937129,
        33.60926614216441,
        33.59857359546797,
        33.587578440790516,
        33.576291454176,
        33.564723088083866,
        33.552883567348,
        33.540782768139145,
        33.52843031126622,
        33.51583555083258,
        33.50300758216513,
        33.48995524892644,
        33.47668035852953,
        33.4631841164152,
        33.44947418616885,
        33.435558030797324,
        33.42144291794111,
        33.40713592192082,
        33.39264392454259,
        33.37797360972138,
        33.363131518621465,
        33.348123972713104,
        33.33295713131077,
        33.31763698104892,
        33.302169341691,
        33.28655986825773,
        33.270814044460174,
        33.254937229225916,
        33.238934596996785,
        33.222811183247366,
        33.206571875948796,
        33.19022142240996,
        33.17376443082354,
        33.15720537384204,
        33.14054859270234,
        33.12379830001133,
        33.106958583226174,
        33.09003340787403,
        33.07302662057342,
        33.055941951402815,
        33.03878301398238,
        33.021553298246324,
        33.00425614606451,
        32.986894699466745,
        32.969471830508354,
        32.951990098078475,
        32.93445179055195,
        32.91685907311747,
        32.8992141924173,
        32.881519654769725,
        32.86377830605102,
        32.84599328745706,
        32.82816789344514,
        32.81030539460476,
        32.79240828217956,
        32.77447875715803,
        32.756519368453006,
        32.738532432959076,
        32.72052007785627,
        32.70248428162795,
        32.68442690702431,
        32.66634972489725,
        32.64825443046985,
        32.630142654244274,
        32.61201596909136,
        32.59387589501426,
        32.57572390239493,
        32.55756141431661,
        32.53938981018698,
        32.52121042516567,
        32.50302454809524,
        32.48483342643763,
        32.46663826710001,
        32.448440237236326,
        32.43024046499838,
        32.41204004007797,
        32.393840012650394,
        32.37564138883121,
        32.35744511358051,
        32.33925203077148,
        32.32106281728319,
        32.302877919059014,
        32.28469754677074,
        32.26652177392883,
        32.24835072001698,
        32.23018474640616,
        32.212024583482275,
        32.19387134086002,
        32.175726403685694,
        32.15759126389248,
        32.13946735463314,
        32.12135593981291,
        32.103258072713416,
        32.08517460703689,
        32.067106233482974,
        32.04905352110237,
        32.0310166498213,
        32.01299571480889,
        31.994991076669525,
        31.977003067459005,
        31.959031998034682,
        31.941078162615177,
        31.923141841546837,
        31.90522330492928,
        31.887322814099623,
        31.869440612441238,
        31.851576933288303,
        31.833731998036548,
        31.815906009297283,
        31.79809913112729,
        31.78031144522561,
        31.762542883256938,
        31.744793167787343,
        31.727061819499664,
        31.709348266656104,
        31.691652030639876,
        31.673972912520878,
        31.656311103112042,
        31.638667175540068,
        31.62104197056635,
        31.603436426964024,
        31.585851423828647,
        31.568287681127615,
        31.550745727243655,
        31.533225914392144,
        31.51572845560211,
        31.49825346454639,
        31.48080098858602,
        31.46337103307399,
        31.445963577827246,
        31.428578587720907,
        31.411216019259967,
        31.393875824530582,
        31.376557953499074,
        31.359262355294533,
        31.341988978875502,
        31.32473777333051,
        31.307508687968923,
        31.290301222246384,
        31.273114845381656,
        31.255949475757795,
        31.23880503336771,
        31.22168143934072,
        31.20457861570174,
        31.18749648380692,
        31.170434963707443,
        31.153393966789878,
        31.13637337813401,
        31.119373015263214,
        31.10239256306261,
        31.08543151357876,
        31.068489166734476,
        31.051564730074617,
        31.034657496598026,
        31.017767029199018,
        31.00089327480032,
        30.984036565011408,
        30.967197509792587,
        30.95037683326723,
        30.933575217029443,
        30.916793198424863,
        30.900031134751462,
        30.883289215784625,
        30.866567499080276,
        30.849865948727533,
        30.833184468066786,
        30.816522923768847,
        30.799881162184466,
        30.783259019824612,
        30.76665632982417,
        30.750072925767583,
        30.73350864385642,
        30.716963324054312,
        30.700436810615678,
        30.683928952244493,
        30.667439602047903,
        30.65096861736902,
        30.634515859563898,
        30.618081193754463,
        30.601664488578304,
        30.585265617816415,
        30.56888445268827,
        30.552520872862978,
        30.536174758799937,
        30.519845993438672,
        30.503534462055338,
        30.48724005213145,
        30.470962656036786,
        30.45470215974728,
        30.4384584595169,
        30.422231450660465,
        30.40602103026911,
        30.38982709715298,
        30.37364955181118,
        30.357488300096268,
        30.341343238404683,
        30.325214275835684,
        30.309101319376012,
        30.293004277646236,
        30.276923060869454,
        30.260857580864908,
        30.244807752657206,
        30.2287734881605,
        30.212754705675124,
        30.19675132357338,
        30.180763261960298,
        30.164790442647202,
        30.148832789187914,
        30.132890225336347,
        30.116962678999947,
        30.101050076489916,
        30.085152337811582,
        30.069269359286633,
        30.053400973912883,
        30.037546888635543,
        30.021706626991406,
        30.00587953121625,
        29.990064859852136,
        29.97426195976815,
        29.958470443254075,
        29.942690296291918,
        29.926921877317003,
        29.911165105419347,
        29.895419944279958,
        29.879687042183637,
        29.86396691347385,
        29.848259904648483,
        29.83256620673237,
        29.816885889183478,
        29.80121893686943,
        29.78556528112284,
        29.769924822522878,
        29.75429744627045,
        29.73868303198738,
        29.72308145968604,
        29.70749261324517,
        29.69191638232144,
        29.67635266329915,
        29.660801359664347,
        29.64526238204346,
        29.6297356480471,
        29.614221082036664,
        29.59871861479852,
        29.58322818333049,
        29.567749730863092,
        29.55228320545317,
        29.536828560476906,
        29.52138575433382,
        29.50595475001328,
        29.490535514031258,
        29.475128012929,
        29.459732202251875,
        29.44434799843357,
        29.428975225981457,
        29.41361355319232,
        29.398262461343432,
        29.38292129716394,
        29.367589414972407,
        29.352266357541524,
        29.336951999603123,
        29.321646596445152,
        29.30635072316406,
        29.29106513587191,
        29.275790613848987,
        29.260525772401554,
        29.2452689499054,
        29.230020367941396,
        29.214780120047234,
        29.19954820726696,
        29.18432457094355,
        29.169109117948494,
        29.153901738124162,
        29.138702315500687,
        29.123510735101522,
        29.108326886825,
        29.093150667479264,
        29.07798198168449,
        29.06282074209996,
        29.047666865524395,
        29.032520284546106,
        29.017380926315642,
        29.002248706779312,
        28.987123499564113,
        28.97200508026889,
        28.956893064062303,
        28.941786884260434,
        28.926685857462918,
        28.911589332941983,
        28.896496869820147,
        28.881408367288575,
        28.866324096348666,
        28.85124462565561,
        28.83617067789918,
        28.82110297639888,
        28.8060421336373,
        28.790988601525548,
        28.77594267279322,
        28.760904509893756,
        28.74587418124201,
        28.730851693440403,
        28.715837015748562,
        28.700830096962875,
        28.685830876372375,
        28.670839290540872,
        28.655855277340482,
        28.640878778235873,
        28.625909722262495,
        28.61094804164565,
        28.595993692285468,
        28.581046635603762,
        28.56610683833882,
        28.551174272290943,
        28.536248914043902,
        28.521330744642565,
        28.506419749863966,
        28.491515918836974,
        28.47661924444426,
        28.461729722992796,
        28.446847353497134,
        28.43197213542067,
        28.417104061271623,
        28.40224309609115,
        28.38738913434849,
        28.3725419380444,
        28.357701090170174,
        28.342866015277487,
        28.328036091293402,
        28.313210819808713
    ]
}