{
    "synthesized_therapy": {
        "ate_freq_in": 6.0,
        "ate_m10_in": 16.2091,
        "ate_m11_in": 0.431689,
        "ate_m12_in": 6.40511,
        "ate_m13_in": 13.7918,
        "ate_m14_in": 0.0251114,
        "ate_m15_in": 0.0,
        "ate_m1_in": 1.05312,
        "ate_m2_in": 0.0,
        "ate_m3_in": 6.46713,
        "ate_m4_in": 24.0,
        "ate_m5_in": 15.8326,
        "ate_m6_in": 9.47124,
        "ate_m7_in": 0.281995,
        "ate_m8_in": 24.0,
        "ate_m9_in": 0.0,
        "cibi_freq_in": 5.33919,
        "cibi_m10_in": 2.63318,
        "cibi_m11_in": 20.4818,
        "cibi_m12_in": 29.8034,
        "cibi_m13_in": 1.8006,
        "cibi_m14_in": 20.7085,
        "cibi_m15_in": 0.0,
        "cibi_m1_in": 0.495643,
        "cibi_m2_in": 6.7032,
        "cibi_m3_in": 0.0,
        "cibi_m4_in": 32.5937,
        "cibi_m5_in": 72.2555,
        "cibi_m6_in": 116.954,
        "cibi_m7_in": 7.59642,
        "cibi_m8_in": 40.5129,
        "cibi_m9_in": 0.0
    },
    "tumour_diameter": 28.313196397344672,
    "total_drugs": 12.198518458333332,
    "objective": 23.699535810821747,
    "inefficacy": 24.977426627764903
}