======= APRICOPT =========

=== Optimization through COPASI solver ===


Solver settings: 

Method: Scatter Search
    Log Verbosity: 0
    Number of Iterations: 500
    Random Number Generator: 1
    Seed: 104
    Stop after # Stalled Generations: 0

Population Information: 
Population Size: 0
# Generations / Iterations: 0
Current Generation / Iteration: 0
Population Values: 
   (		)

Population:



Optimization Log:

Function Evaluation	Objective Value		Optimization Parameters
320			25.5912			(	2.83882	1.73501e-84	2.33316e-48	2.49878e-29	3.59007e-131	1.95695e-92	1.19874e-126	0.843979	8.85587e-81	8.32582e-117	5.90197e-297	3.44499e-196	1.32737e-114	3.9495e-238	2.83086e-261	2.9505e-238	1.286	1.5958e-287	4.78208e-196	2.22756e-214	4.73784e-149	1.62323e-24	1.19069e-269	2.99465e-172	6.48005e-197	7.71402e-199	9.08684e-06	1.34858e-136	2.56506e-249	1.38804e-73	7.51435e-293	1.42175e-110	)
734			15.3058			(	2.99042	1.31154	2.20745	0.428401	0.523823	0.279829	0.0646416	0.840733	0.277485	0.278174	0.107634	0.648065	0.00458063	0.230517	1.56873	1.19773	5.60182	0.299435	9.87742	6.61454	2.41847	1.40764	11.2141	7.12345	2.05983	0.920544	9.3208	12.1188	9.57446	2.85568	4.59845	9.68883	)
1135			14.5944			(	4.34932	0.203505	0.0479298	0.0175028	0.0463846	0.000442504	0.00562053	0.994217	0.0238262	0.00431238	0.00928683	0.0704907	0.000513976	0.00563021	0.162709	0.17194	3.78486	0.0163072	0.966105	0.462441	0.382833	0.000413543	0.274192	0.694508	0.14504	0.109822	1.00671	5.03026	0.966817	0.417405	0.582253	0.428656	)
