{
    "synthesized_therapy": {
        "ate_freq_in": 4.34932,
        "ate_m10_in": 0.203505,
        "ate_m11_in": 0.0479298,
        "ate_m12_in": 0.0175028,
        "ate_m13_in": 0.0463846,
        "ate_m14_in": 0.000442504,
        "ate_m15_in": 0.00562053,
        "ate_m1_in": 0.994217,
        "ate_m2_in": 0.0238262,
        "ate_m3_in": 0.00431238,
        "ate_m4_in": 0.00928683,
        "ate_m5_in": 0.0704907,
        "ate_m6_in": 0.000513976,
        "ate_m7_in": 0.00563021,
        "ate_m8_in": 0.162709,
        "ate_m9_in": 0.17194,
        "cibi_freq_in": 3.78486,
        "cibi_m10_in": 0.0163072,
        "cibi_m11_in": 0.966105,
        "cibi_m12_in": 0.462441,
        "cibi_m13_in": 0.382833,
        "cibi_m14_in": 0.000413543,
        "cibi_m15_in": 0.274192,
        "cibi_m1_in": 0.694508,
        "cibi_m2_in": 0.14504,
        "cibi_m3_in": 0.109822,
        "cibi_m4_in": 1.00671,
        "cibi_m5_in": 5.03026,
        "cibi_m6_in": 0.966817,
        "cibi_m7_in": 0.417405,
        "cibi_m8_in": 0.582253,
        "cibi_m9_in": 0.428656
    },
    "tumour_diameter": 17.86164287715081,
    "total_drugs": 0.5348753767361112,
    "objective": 14.59448415264143,
    "inefficacy": 16.1566629055198
}