{
    "synthesized_therapy": {
        "ate_freq_in": 4.83527,
        "ate_m10_in": 1.16071,
        "ate_m11_in": 12.6352,
        "ate_m12_in": 0.75603,
        "ate_m13_in": 0.210452,
        "ate_m14_in": 0.364841,
        "ate_m15_in": 0.184673,
        "ate_m1_in": 0.186706,
        "ate_m2_in": 2.46263,
        "ate_m3_in": 1.51653,
        "ate_m4_in": 0.0,
        "ate_m5_in": 2.04687,
        "ate_m6_in": 1.90356,
        "ate_m7_in": 1.70721,
        "ate_m8_in": 0.287935,
        "ate_m9_in": 0.0656142,
        "cibi_freq_in": 5.07975,
        "cibi_m10_in": 6.23604,
        "cibi_m11_in": 36.6248,
        "cibi_m12_in": 3.86929,
        "cibi_m13_in": 5.81208,
        "cibi_m14_in": 1.04374,
        "cibi_m15_in": 44.356,
        "cibi_m1_in": 40.6496,
        "cibi_m2_in": 2.25652,
        "cibi_m3_in": 0.0,
        "cibi_m4_in": 4.52397,
        "cibi_m5_in": 4.8161,
        "cibi_m6_in": 42.2531,
        "cibi_m7_in": 2.16203,
        "cibi_m8_in": 11.6463,
        "cibi_m9_in": 0.775583
    },
    "tumour_diameter": 12.38267973305542,
    "total_drugs": 2.8044505781250004,
    "objective": 11.913913092333102,
    "inefficacy": 12.92607559391178
}
