{
    "ate_drug": [
        5.43975,
        10.1655,
        17.6099,
        7.91358,
        4.62596,
        8.41573,
        15.5128,
        2.06342,
        9.56543,
        6.5925,
        4.41471,
        1.87779,
        19.2751,
        10.6448,
        5.15398,
        14.4664
    ],
    "cibi_drug": [
        5.40869,
        95.6304,
        21.0328,
        61.006,
        61.1478,
        42.6262,
        142.0,
        54.9197,
        59.2858,
        2.89953,
        123.129,
        103.114,
        114.879,
        86.9251,
        4.10028,
        29.716
    ],
    "inefficacy": 13.071300627589267,
    "total_drugs": 26.15188071180556,
    "objective_value": 14.379358636010897,
    "tumour_diameter": [
        11.863693170479667,
        11.876569891902037,
        11.889447761446432,
        11.902324611818539,
        11.915198489577179,
        11.928067621968546,
        11.940930376283546,
        11.953785211417994,
        11.966630625532723,
        11.979465110399424,
        11.992287128930927,
        12.005095126391813,
        12.01788757550729,
        12.03066303982673,
        12.043420234139019,
        12.05615806636846,
        12.068875655884538,
        12.081572332836402,
        12.094247625333717,
        12.106901242357985,
        12.119533057218057,
        12.132143094287951,
        12.144731518911124,
        12.157298626780934,
        12.16984482638773,
        12.18237060896964,
        12.194876509606377,
        12.20736306976447,
        12.219830809729084,
        12.23228021275124,
        12.244711718082753,
        12.257125720187666,
        12.269522570569933,
        12.28190258113231,
        12.294266027814775,
        12.30661315405554,
        12.318950507246363,
        12.33128429838814,
        12.343613157335477,
        12.355935582696869,
        12.3682498555804,
        12.380553968251782,
        12.392845612748266,
        12.40512225688492,
        12.417381301128044,
        12.429620272813576,
        12.441836998892926,
        12.454029716022003,
        12.466197108677017,
        12.478338291137144,
        12.490452758193566,
        12.502540326579798,
        12.514601081091802,
        12.526635332642115,
        12.538643588543458,
        12.550626529070676,
        12.562584977571143,
        12.57451985089563,
        12.586432090032668,
        12.598322588775487,
        12.610192140138004,
        12.622041407602257,
        12.633870916865172,
        12.645681060623067,
        12.657472109953458,
        12.669244228098975,
        12.680997484393146,
        12.6927318670918,
        12.704447294704964,
        12.716143625764945,
        12.727820667108505,
        12.73948997390664,
        12.751162044350437,
        12.762834094906122,
        12.774503358134535,
        12.786166951951037,
        12.797821717694546,
        12.809464056956129,
        12.82108982358927,
        12.832694340425773,
        12.844272579343947,
        12.855819477776079,
        12.867330298905866,
        12.878800930413423,
        12.890228056914335,
        12.901609201237665,
        12.912942671605418,
        12.924227460270355,
        12.935463132786628,
        12.946649730456791,
        12.957787696213204,
        12.968877822525561,
        12.979921207875464,
        12.99091919829254,
        13.001873290567847,
        13.012785006055125,
        13.023655768037045,
        13.034486815541827,
        13.04527916129889,
        13.056033583791457,
        13.066750640602704,
        13.07743069044421,
        13.088073919498322,
        13.098680366612312,
        13.109249946330312,
        13.119782469029563,
        13.130298374676897,
        13.140816141179537,
        13.15133094561101,
        13.161838023991512,
        13.172332451495462,
        13.182808871128715,
        13.193261221835566,
        13.203682560259118,
        13.214065092406397,
        13.224400477152088,
        13.234680356986914,
        13.244896958578545,
        13.255043588088428,
        13.265114913667304,
        13.275107028486454,
        13.285017357786714,
        13.294844483726697,
        13.30458795764685,
        13.314248133654145,
        13.323826041878684,
        13.333323298505565,
        13.342742030405507,
        13.352084776465226,
        13.361354326165305,
        13.37055351232198,
        13.379685010279212,
        13.38875119760343,
        13.397754086364067,
        13.40669531102265,
        13.41557615147931,
        13.42439756907385,
        13.433160250438602,
        13.441864648779493,
        13.450511021576864,
        13.459099463480465,
        13.467662483805206,
        13.476229713075497,
        13.48479356126564,
        13.493346375924098,
        13.501880054355695,
        13.510385608843483,
        13.518852818089348,
        13.527270140100034,
        13.535625029199764,
        13.543904648943,
        13.552096793384148,
        13.560190734541742,
        13.568177780081973,
        13.576051478032575,
        13.583807535358716,
        13.591443572737884,
        13.598958822408546,
        13.606353847386154,
        13.61363031512523,
        13.620790833935137,
        13.627838828844489,
        13.63477840636136,
        13.641614146303034,
        13.648350804681868,
        13.654992995751105,
        13.661544942399502,
        13.668010336590223,
        13.674392296282619,
        13.680693384342048,
        13.68691566199686,
        13.693060750209062,
        13.699129895870378,
        13.705124030992467,
        13.711043825207145,
        13.71688973072811,
        13.722709457532112,
        13.728546216664379,
        13.734389540996336,
        13.740229067692947,
        13.74605402267268,
        13.751852605649066,
        13.757611414920587,
        13.763315141497635,
        13.768946778450502,
        13.774488434537895,
        13.779922589944107,
        13.78523340877248,
        13.790407737849495,
        13.79543560224221,
        13.800310229832363,
        13.805027765442746,
        13.809586841614317,
        13.813988145522059,
        13.81823404885728,
        13.822328329450329,
        13.826275969844732,
        13.830082976820181,
        13.833756137998908,
        13.837302646647338,
        13.84072965369578,
        13.844043865000897,
        13.847251281633906,
        13.850357090468043,
        13.853365662818378,
        13.856280616871098,
        13.859104902071552,
        13.861840894402933,
        13.864490484537136,
        13.867055156882715,
        13.869536058023805,
        13.871999035780764,
        13.87450349285275,
        13.87703549508399,
        13.879581337186565,
        13.882126872421322,
        13.884656702764852,
        13.887153397708463,
        13.889597032115788,
        13.891965379328893,
        13.894234912364434,
        13.896382432693033,
        13.898386838483965,
        13.900230515978494,
        13.901900071337648,
        13.903386415057016,
        13.904684405743119,
        13.905792277340547,
        13.906711048598396,
        13.907444008729927,
        13.907996325241045,
        13.908374760311483,
        13.90858742896984,
        13.908643490642593,
        13.908552679560893,
        13.908324722512754,
        13.907968798887104,
        13.907493179331382,
        13.90690506394957,
        13.906210569726014,
        13.905414807284311,
        13.90452199055444,
        13.90353556241214,
        13.902458311895085,
        13.901292479859867,
        13.900039850497656,
        13.898756555767124,
        13.897512244214406,
        13.896278443600675,
        13.895021910639235,
        13.893708711635782,
        13.892306254171936,
        13.89078534847147,
        13.889121717423018,
        13.887296683460058,
        13.885297103908778,
        13.88311482564171,
        13.880745937841397,
        13.87819002822811,
        13.875449554879673,
        13.872529370281708,
        13.869436370654377,
        13.866179176947238,
        13.86276771318429,
        13.859212594009142,
        13.855524405239533,
        13.851713076867055,
        13.847787485918605,
        13.843755295540744,
        13.83962295544744,
        13.835395798540207,
        13.83107817448414,
        13.826673591551124,
        13.822184850336082,
        13.817614161183904,
        13.81296325146393,
        13.808233443710888,
        13.803425732741065,
        13.798540844017491,
        13.793579282678685,
        13.788541374564534,
        13.783519694815421,
        13.778597397915032,
        13.77375529292084,
        13.768975229161665,
        13.764239359799731,
        13.759529187555778,
        13.754824405808758,
        13.75010170949213,
        13.745333974508636,
        13.740490308917405,
        13.735537312017044,
        13.730441381109861,
        13.725171414179062,
        13.719701096835141,
        13.714010242937029,
        13.708085119920273,
        13.701918015850199,
        13.69550641883366,
        13.688852103795533,
        13.681960315853564,
        13.67483912923986,
        13.667498982727533,
        13.659952313000586,
        13.652213132669617,
        13.644296405355377,
        13.636217218211401,
        13.62798996136183,
        13.61962773457486,
        13.611142053183334,
        13.602542794244009,
        13.593838287871998,
        13.585035479380329,
        13.57614011247708,
        13.567156907721731,
        13.558089724275883,
        13.549062754867533,
        13.540186345621603,
        13.53143675170949,
        13.522791489377312,
        13.51422845080239,
        13.505724761757536,
        13.497255418261084,
        13.488791934549075,
        13.480301486886693,
        13.471747129245802,
        13.463089409075385,
        13.45428912012426,
        13.445310389922849,
        13.436123186678458,
        13.426704696102968,
        13.417039556861988,
        13.407119269293505,
        13.396941216726562,
        13.386507611615293,
        13.375824572160552,
        13.364901406529453,
        13.35375009318256,
        13.342384860902884,
        13.33082167670324,
        13.319077499360509,
        13.307169320077294,
        13.295113247713646,
        13.28292387483756,
        13.270613981101251,
        13.258194498981695,
        13.245674628740417,
        13.233062028951842,
        13.220363024154045,
        13.20758280510071,
        13.19472560908867,
        13.181930271785893,
        13.169320761948878,
        13.15687012647495,
        13.144552454879559,
        13.132341764409805,
        13.120210582668857,
        13.10812837536757,
        13.096060215317081,
        13.08396632850115,
        13.071803075720645,
        13.059525450477917,
        13.04709046392879,
        13.034460388631107,
        13.021604981908103,
        13.008502371354854,
        12.9951388080749,
        12.981507736200463,
        12.967608616830299,
        12.953445798596762,
        12.939027589805486,
        12.924365569123491,
        12.909474073968756,
        12.894369710274425,
        12.879070668662933,
        12.863595756803344,
        12.847963317604078,
        12.83219034278189,
        12.816291953768024,
        12.800281226219315,
        12.784169245917258,
        12.767965283392444,
        12.751677018697492,
        12.735310768921405,
        12.718871699389064,
        12.702364009880528,
        12.685900322337178,
        12.669608387754522,
        12.653441060339611,
        12.63734426011799,
        12.62126110003481,
        12.605134837312757,
        12.58891254346025,
        12.572548352600663,
        12.55600547297915,
        12.539256756790554,
        12.522284160504586,
        12.50507759129797,
        12.48763358107522,
        12.469954068855849,
        12.452045424100286
    ]
}