{
    "ate_drug": [
        6.0,
        1.464144607958638e-194,
        3.8005953867271465e-271,
        22.222331934403478,
        1.2011596140817036e-89,
        1.3786465938443463e-64,
        0.0,
        2.774436307932336e-224,
        2.665235615627315e-275,
        6.248680627079022e-221,
        2.0736002204612588e-148,
        1.9225042373899605e-242,
        5.845445948361217e-147,
        1.5320874120327638e-28,
        1.5876142622456325e-282,
        9.724713663398814e-188
    ],
    "cibi_drug": [
        2.6629534188441975,
        160.0,
        0.0,
        141.85996487176902,
        160.0,
        160.0,
        2.203376267624594e-146,
        0.0,
        0.0,
        8.68464475446768e-220,
        9.748489859951153e-166,
        7.993443987422e-77,
        0.0,
        150.2625171060534,
        131.19971693078318,
        160.0
    ],
    "inefficacy": 40.701913450607606,
    "total_drugs": 24.417406299957726,
    "objective_value": 39.073440901623016,
    "tumour_diameter": [
        7.04033135027455,
        7.058469097931067,
        7.07665203696896,
        7.094880377534203,
        7.113154321759577,
        7.131474066518146,
        7.149839804896355,
        7.168251726674587,
        7.186710018867227,
        7.205214863342695,
        7.223766440166494,
        7.2423649254183715,
        7.261010492010723,
        7.279703310104346,
        7.298443547642743,
        7.317231371417517,
        7.336066946664426,
        7.354950439854541,
        7.3738820183829334,
        7.392861851621218,
        7.411890111157316,
        7.4309669703831736,
        7.450092589010083,
        7.469267070371835,
        7.488490503751581,
        7.507762983429152,
        7.52708461075687,
        7.5464554946688835,
        7.565875751052107,
        7.585345502193901,
        7.604864873139193,
        7.624433994361784,
        7.644052998621768,
        7.663722021147811,
        7.683441199481729,
        7.703210673652784,
        7.72303058673769,
        7.742901084648131,
        7.762822318204829,
        7.782794443084749,
        7.802817620615109,
        7.822892017783306,
        7.84301780639708,
        7.863195161993502,
        7.88342425907768,
        7.9037052724941645,
        7.924038373023684,
        7.944423726747375,
        7.964861494488667,
        7.9853518318165735,
        8.005894890133757,
        8.026490814410455,
        8.047139748099555,
        8.067841830940859,
        8.088597200263052,
        8.10940599150625,
        8.130268338668122,
        8.151184375756023,
        8.172154232793028,
        8.193178042529235,
        8.214255936348174,
        8.235388045514092,
        8.256574502113255,
        8.277815435847948,
        8.299110400982926,
        8.32045895777359,
        8.341861245004866,
        8.363317404861276,
        8.384827586427548,
        8.406391946560305,
        8.428010649028208,
        8.449683863031831,
        8.471411761076164,
        8.49319451853266,
        8.515032312324761,
        8.536925320706459,
        8.558873723368285,
        8.580877701955043,
        8.602937441710807,
        8.625053129811073,
        8.647224961214242,
        8.669453137189135,
        8.69173786694061,
        8.714079367465025,
        8.73647786195042,
        8.75891249133265,
        8.781362386768972,
        8.803827867899312,
        8.826309221259127,
        8.848806718667014,
        8.871320628863716,
        8.893851224234975,
        8.916398784642245,
        8.93896359763184,
        8.961545961438585,
        8.984146184030527,
        9.006764584075112,
        9.029401491858206,
        9.052057250792041,
        9.074732220124256,
        9.097426775761148,
        9.120141317102581,
        9.142876268481674,
        9.165632082195419,
        9.188409238338858,
        9.211208240738051,
        9.23402949878812,
        9.256873106127516,
        9.279739101717693,
        9.302627549359073,
        9.325538550150709,
        9.348472246323098,
        9.371428818056573,
        9.394408477539443,
        9.41741145969231,
        9.440438019415115,
        9.463488424876795,
        9.486562955286841,
        9.509661899877702,
        9.532785558619935,
        9.555934245246357,
        9.579108288894167,
        9.602308042916148,
        9.625533888030443,
        9.648786236960683,
        9.672065534728336,
        9.695372253207017,
        9.718706752718147,
        9.742068900466931,
        9.765458439753045,
        9.788875157560785,
        9.812318902335429,
        9.835789588363586,
        9.859287189774818,
        9.882811730203413,
        9.906363270343892,
        9.929941900718593,
        9.953547733478487,
        9.977180898595511,
        10.000841542283174,
        10.024529827908006,
        10.048245939853242,
        10.071990086635006,
        10.095762511390557,
        10.119563496854182,
        10.143393371106361,
        10.167252507523925,
        10.191141317048512,
        10.215060232974814,
        10.239009687351802,
        10.26299009308804,
        10.2870018235335,
        10.311045201405191,
        10.335120493491555,
        10.359227910543634,
        10.38336761103785,
        10.407539704788443,
        10.431744261343336,
        10.45598131427001,
        10.480250867025385,
        10.504552897776167,
        10.528887363568106,
        10.553254204539954,
        10.577653344020476,
        10.602084695169966,
        10.626548160252316,
        10.651043632993643,
        10.675570999756701,
        10.700130140821805,
        10.724720972462693,
        10.749343282880833,
        10.773996981125824,
        10.798681930460983,
        10.823397991835273,
        10.848145023708756,
        10.872922882401493,
        10.897731464091237,
        10.9225705370974,
        10.947439995873571,
        10.972339689341,
        10.997269465953844,
        11.022229173012958,
        11.047218656708887,
        11.07223780298549,
        11.097286373587165,
        11.122364253947506,
        11.147471285852035,
        11.172607310948578,
        11.197772170154366,
        11.222965703575587,
        11.248187771739783,
        11.273438170899706,
        11.298716760997873,
        11.324023379279291,
        11.34935786281998,
        11.37472004819634,
        11.400109771459652,
        11.425526896739868,
        11.45097120193177,
        11.476442550594973,
        11.501940777091077,
        11.527465715575303,
        11.55301719995619,
        11.578595063799265,
        11.604199181143823,
        11.629829303709538,
        11.655485305474059,
        11.681167019332385,
        11.706874278215391,
        11.732606914982425,
        11.758364762506735,
        11.784147672232109,
        11.80995543975724,
        11.835787917373247,
        11.861644937991487,
        11.88752633506932,
        11.913431942296722,
        11.93936159360106,
        11.96531514776923,
        11.991292389975888,
        12.017293179871423,
        12.043317352697414,
        12.069364744173765,
        12.0954351904482,
        12.121528528171154,
        12.147644632883614,
        12.173783265028028,
        12.199944302378757,
        12.226127583344105,
        12.25233294752176,
        12.278560235199897,
        12.304809287373194,
        12.331079973784353,
        12.357372080631137,
        12.383685479510964,
        12.41002001438671,
        12.436375530219177,
        12.462751872832404,
        12.489148888922116,
        12.515566463488645,
        12.542004369851078,
        12.568462495868658,
        12.594940691622064,
        12.621438808662967,
        12.647956699649471,
        12.674494218227268,
        12.701051255725773,
        12.727627594312814,
        12.754223128409002,
        12.780837715697345,
        12.807471215424616,
        12.834123488107995,
        12.86079439541675,
        12.88748380813306,
        12.914191574134932,
        12.940917567297166,
        12.967661653934892,
        12.994423701938505,
        13.02120358048991,
        13.04800116007656,
        13.07481634749155,
        13.101648945752453,
        13.12849886468241,
        13.155365979984154,
        13.182250168875813,
        13.209151310044552,
        13.236069283538537,
        13.26300400523586,
        13.289955288933893,
        13.31692305361018,
        13.343907184895418,
        13.37090756993446,
        13.397924097418546,
        13.42495665744374,
        13.452005157942395,
        13.479069458874338,
        13.506149471777631,
        13.533245092335816,
        13.560356218088257,
        13.587482748072299,
        13.614624582792821,
        13.641781641588988,
        13.668953793044912,
        13.696140960172372,
        13.72334304919848,
        13.750559968237381,
        13.777791626927812,
        13.805037936388505,
        13.832298820853687,
        13.859574171019856,
        13.886863914797635,
        13.914167969064636,
        13.941486252584406,
        13.968818685645408,
        13.996165190007863,
        14.02352569762823,
        14.050900115675205,
        14.078288379711202,
        14.105690417270674,
        14.133106157658187,
        14.16053553166079,
        14.187978471558052,
        14.21543494660332,
        14.2429048208868,
        14.270388067254812,
        14.297884623606043,
        14.325394429615502,
        14.352917426404055,
        14.380453556540266,
        14.408002799686223,
        14.435565029837475,
        14.463140230179748,
        14.490728348721854,
        14.518329335214135,
        14.54594314080485,
        14.573569718037277,
        14.601209056734003,
        14.628861040302297,
        14.656525662008594,
        14.684202879619516,
        14.711892652604039,
        14.73959494177528,
        14.767309709281285,
        14.795036955016753,
        14.822776570846676,
        14.85052856002541,
        14.87829288963801,
        14.906069528506059,
        14.933858446779267,
        14.961659615842041,
        14.989473019535142,
        15.017298609130998,
        15.04513637173609,
        15.072986283436746,
        15.10084832197783,
        15.128722466377583,
        15.15660869682839,
        15.18450700454872,
        15.212417352222621,
        15.240339734260717,
        15.268274135304281,
        15.296220541611849,
        15.324178940665456,
        15.352149321061553,
        15.380131681618968,
        15.408125994754782,
        15.436132262458623,
        15.464150477556903,
        15.492180634408342,
        15.520222728489014,
        15.548276756347047,
        15.576342762860676,
        15.604420652140156,
        15.632510472339202,
        15.660612223916528,
        15.688725908893744,
        15.716851530528576,
        15.74498909306992,
        15.773090074829124,
        15.801110158887528,
        15.829055168023938,
        15.856930489307215,
        15.884741260300718,
        15.912492452155345,
        15.940188879370204,
        15.967835177834367,
        15.995435778032016,
        16.02299488952766,
        16.05051649697075,
        16.07800437087799,
        16.10546209114124,
        16.132893082694945,
        16.160300662237635,
        16.187688093032907,
        16.215058647709327,
        16.242415665055535,
        16.26976259064364,
        16.297102982386658,
        16.32444046872538,
        16.35177708157259,
        16.379110999989855,
        16.406440119162585,
        16.433762744696015,
        16.461077688370995,
        16.488384262234398,
        16.51568221044103,
        16.542971621361737,
        16.570252845036674,
        16.597526430589735,
        16.624793080696854,
        16.6520536270402,
        16.679309023315625,
        16.70656035472343,
        16.733808862725812,
        16.76105598011055,
        16.78830337686244,
        16.81555299764413,
        16.842807080044416,
        16.8700681323432,
        16.897338860135537,
        16.924620379503104
    ]
}