{
    "ate_drug": [
        5.81673,
        0.891394,
        18.8402,
        1.77812,
        20.0138,
        5.44796,
        16.788,
        8.56845,
        10.9197,
        8.94653,
        3.4448,
        22.9136,
        20.3042,
        7.02034,
        1.61003,
        11.0266
    ],
    "cibi_drug": [
        5.64653,
        154.991,
        8.59767,
        46.6349,
        14.2874,
        91.4743,
        12.7148,
        44.3689,
        134.019,
        39.0569,
        124.998,
        97.9414,
        60.4577,
        151.63,
        81.3588,
        1.94642
    ],
    "inefficacy": 30.79713118542704,
    "total_drugs": 26.424300260416665,
    "objective_value": 30.359848092926004,
    "tumour_diameter": [
        21.49711919611798,
        21.510683980881424,
        21.523707556098667,
        21.53639613506851,
        21.54889763246956,
        21.56129187766033,
        21.573614911684043,
        21.58587697679566,
        21.598070025982267,
        21.61016902364064,
        21.622131391256783,
        21.633899747871208,
        21.645412104303045,
        21.656616642408544,
        21.667481740483566,
        21.677996522702692,
        21.68816561383077,
        21.69800317297313,
        21.707528419543163,
        21.716762791593375,
        21.72572826905259,
        21.734446425376095,
        21.74293790932761,
        21.751222182602064,
        21.759317402988014,
        21.76724039813821,
        21.775006689704536,
        21.78263054725868,
        21.79012505834477,
        21.797502206262216,
        21.80477295100841,
        21.811947307905495,
        21.819034425215648,
        21.82604265691558,
        21.832979631194906,
        21.83985231415696,
        21.84666706811397,
        21.853429708265633,
        21.8601455485479,
        21.86681944970094,
        21.873455861286487,
        21.880058854351798,
        21.886632163786675,
        21.89319181683124,
        21.899827450716643,
        21.906669279762188,
        21.913797537238622,
        21.921213408345846,
        21.928861274912688,
        21.936658064578104,
        21.944519859307015,
        21.952380013100502,
        21.96019444522567,
        21.967938066071,
        21.975598836880938,
        21.98317283087695,
        21.990660915430272,
        21.99806669104147,
        22.005395245130362,
        22.01265239649298,
        22.01984423950884,
        22.026976866615023,
        22.034056202334916,
        22.041087906498557,
        22.048077321746863,
        22.05502945000463,
        22.06194894568349,
        22.068840121814684,
        22.07570696252914,
        22.082553139826537,
        22.089382032606533,
        22.0961967465663,
        22.103000134232154,
        22.109794814437056,
        22.116583191070802,
        22.12336747075479,
        22.13014967941512,
        22.136931677694974,
        22.143715176208833,
        22.150501744717044,
        22.15729283022136,
        22.164089763630784,
        22.17089377144784,
        22.17770598510521,
        22.18452744746372,
        22.191371647187978,
        22.198327227142453,
        22.205533986039665,
        22.213096228477404,
        22.2210491917518,
        22.229376781624072,
        22.238030344522596,
        22.246938145918087,
        22.256012819652184,
        22.265163574315157,
        22.27431165722333,
        22.28340049028717,
        22.29239616334925,
        22.301282118185327,
        22.3100531059478,
        22.318710620592427,
        22.327259945259097,
        22.33570835731344,
        22.344064058854183,
        22.352335543882706,
        22.360531223313746,
        22.368659209239063,
        22.37672719390899,
        22.38474238870708,
        22.392711500233236,
        22.40064072950626,
        22.40853578605168,
        22.41640190988683,
        22.42424389867161,
        22.432066136902478,
        22.4398726259916,
        22.44766701373629,
        22.455452622861223,
        22.463232478108225,
        22.471009331682872,
        22.47878568739626,
        22.486563820950764,
        22.494345802583286,
        22.502133514099175,
        22.509928666301533,
        22.517732814328802,
        22.525547372556634,
        22.53338560975028,
        22.54133269628393,
        22.549523804254633,
        22.558062148010112,
        22.566987033449877,
        22.576291585388336,
        22.585941679555813,
        22.595884468495473,
        22.60605108941451,
        22.616360021440748,
        22.626726287518878,
        22.637075257957513,
        22.64735280745535,
        22.657526592630365,
        22.66758129880622,
        22.67751280254536,
        22.687323636907472,
        22.69702003474238,
        22.706610128391937,
        22.716102882008787,
        22.72550746356938,
        22.734832878592716,
        22.744087762471825,
        22.753280265473865,
        22.762418000131092,
        22.771508022950716,
        22.780556839545998,
        22.78957042328942,
        22.798554241922773,
        22.80751328877363,
        22.816452115047404,
        22.825374863212254,
        22.83428529922601,
        22.843186843526595,
        22.852082600324508,
        22.860975385194195,
        22.869867749920424,
        22.87876200692551,
        22.88766025040513,
        22.896564376302063,
        22.90547610047351,
        22.914396975287495,
        22.923339568935155,
        22.932382352694706,
        22.941643124604735,
        22.951199486571795,
        22.961061021027888,
        22.971186360344475,
        22.98150476893018,
        22.99193637051932,
        23.002410412244913,
        23.012875450668552,
        23.023299700361065,
        23.03366628209404,
        23.043968035879086,
        23.054203670994607,
        23.06437528829745,
        23.074486868896464,
        23.084543363259474,
        23.094550144352375,
        23.104512677472936,
        23.114436322233374,
        23.124326216782702,
        23.134187213049312,
        23.144023845116838,
        23.153840317730804,
        23.163640508683713,
        23.173427978984495,
        23.183205988044662,
        23.19297751152427,
        23.20274526049452,
        23.212511700630078,
        23.222279071563275,
        23.2320494051017,
        23.241824542653493,
        23.251606151607177,
        23.26139574055158,
        23.271194675378496,
        23.28100418432828,
        23.290825381869848,
        23.300659271553098,
        23.310506758161754,
        23.320368656772406,
        23.330245701098885,
        23.34014938955058,
        23.35015625386186,
        23.36038840396154,
        23.37093977424043,
        23.381847309289302,
        23.393107295193044,
        23.404693032427197,
        23.416562991036113,
        23.428662789667587,
        23.440925640866162,
        23.453276200267496,
        23.46564058640472,
        23.477958416638323,
        23.490189117243773,
        23.50231052656316,
        23.514313823313213,
        23.52619856337891,
        23.537969131949417,
        23.549632505218526,
        23.561196906580058,
        23.57267101558926,
        23.584063504773596,
        23.595382774497804,
        23.606636803001933,
        23.6178330717323,
        23.6289785333071,
        23.640079607489163,
        23.651142193899087,
        23.66217169465473,
        23.673173042929477,
        23.684150733507842,
        23.695108854976898,
        23.706051121185816,
        23.71698090172973,
        23.72790125094682,
        23.73881493525618,
        23.74972445810137,
        23.760632084073126,
        23.771539860190778,
        23.782449635849783,
        23.79336308103127,
        23.80428170292969,
        23.815217185404027,
        23.82624302435139,
        23.837474340405603,
        23.848996224311453,
        23.860836142496545,
        23.87297843020434,
        23.885379707701162,
        23.89797732782087,
        23.91069726375932,
        23.92346596140625,
        23.936222838515768,
        23.948926463647283,
        23.961553120084623,
        23.974091918142165,
        23.98654008309958,
        23.998899599405267,
        24.011175090035096,
        24.023372538269115,
        24.035498527222185,
        24.047559788425083,
        24.05956293653409,
        24.07151431581055,
        24.083419916639922,
        24.09528533368855,
        24.107115752489328,
        24.11891595215789,
        24.1306903185604,
        24.142442863584083,
        24.15417724770701,
        24.16589680408355,
        24.177604562792155,
        24.189303274796806,
        24.20099543487659,
        24.2126833033196,
        24.22436892630131,
        24.23605415576329,
        24.247740663233277,
        24.259429961317867,
        24.27112341501974,
        24.28282225612933,
        24.29452759601776,
        24.306240434917832,
        24.317971765538093,
        24.329793166510463,
        24.341818503365612,
        24.354134944807473,
        24.366775975575237,
        24.37973634494525,
        24.39298810009301,
        24.406487807562243,
        24.420178665779403,
        24.43399276570094,
        24.447858087516515,
        24.461709974530184,
        24.475500451962027,
        24.489200183056475,
        24.502794823761697,
        24.516280044124976,
        24.529657526972343,
        24.542932322435536,
        24.55611122687223,
        24.5692018184499,
        24.58221189178496,
        24.59514912620662,
        24.608020897376836,
        24.620834172547102,
        24.633595461408753,
        24.646310798216916,
        24.65898574468091,
        24.67162540515014,
        24.68423444899769,
        24.69681713716646,
        24.709377349898528,
        24.721918615395396,
        24.73444413760348,
        24.74695682295865,
        24.759459305699192,
        24.771953971616483,
        24.784442979963128,
        24.79692828398784,
        24.809411649695132,
        24.82189467305485,
        24.83437879467219,
        24.846865316333837,
        24.85936529160348,
        24.871949069493102,
        24.884727836361243,
        24.89778556088563,
        24.911152467899697,
        24.92481923852392,
        24.938752064738154,
        24.952899644099148,
        24.96719710168397,
        24.98157278406564,
        24.99595957851628,
        25.01030537862939,
        25.024576635696,
        25.03875556576046,
        25.05283526225322,
        25.06681550206506,
        25.080699887089523,
        25.094494075605205,
        25.108204722790042,
        25.121838853644974,
        25.13540349351646,
        25.14890545351165,
        25.16235121021724,
        25.175746841767342,
        25.18909800163438,
        25.202409913977583,
        25.21568738297525,
        25.228934810534078,
        25.242156218592907,
        25.25535527405001,
        25.26853531408174,
        25.281699371724017,
        25.294850200411815,
        25.307990297432344,
        25.32112192598195,
        25.334247136221144,
        25.347367782507124,
        25.360485543614345,
        25.373601937237208,
        25.386718335135445,
        25.399835976578327,
        25.4129559814746,
        25.426089177370706,
        25.43930536941624,
        25.45271540303921,
        25.466403832884087,
        25.480402564503944,
        25.494705210014285,
        25.509282431265348,
        25.524088836523433,
        25.539065484245917,
        25.55414361162552,
        25.569253411053783,
        25.584335551177972,
        25.599348381232044,
        25.614267772595348,
        25.629082780392306,
        25.643790948948666,
        25.658394817426846,
        25.67289968065918,
        25.687312230076365,
        25.70163975015517,
        25.715889644483376,
        25.730069159217905
    ]
}