======= APRICOPT =========

=== Optimization through COPASI solver ===


Solver settings: 

Method: Praxis
    Log Verbosity: 0
    Tolerance: 0.1



Optimization Log:

Function Evaluation	Objective Value		Optimization Parameters
1			18.2943			(	4	24	24	24	24	24	24	24	24	24	24	24	24	24	24	24	3	160	160	160	160	160	160	160	160	160	160	160	160	160	160	160	)
9			18.2929			(	4.2	23.9	24	24	24	24	24	24	24	24	24	24	24	24	24	24	3	160	160	160	160	160	160	160	160	160	160	160	160	160	160	160	)
10			18.1556			(	4.2	14	24	24	24	24	24	24	24	24	24	24	24	24	24	24	3	160	160	160	160	160	160	160	160	160	160	160	160	160	160	160	)
12			18.1543			(	4.2	14	23.9	24	24	24	24	24	24	24	24	24	24	24	24	24	3	160	160	160	160	160	160	160	160	160	160	160	160	160	160	160	)
13			18.017			(	4.2	14	14	24	24	24	24	24	24	24	24	24	24	24	24	24	3	160	160	160	160	160	160	160	160	160	160	160	160	160	160	160	)
15			18.0156			(	4.2	14	14	23.9	24	24	24	24	24	24	24	24	24	24	24	24	3	160	160	160	160	160	160	160	160	160	160	160	160	160	160	160	)
16			17.8782			(	4.2	14	14	14	24	24	24	24	24	24	24	24	24	24	24	24	3	160	160	160	160	160	160	160	160	160	160	160	160	160	160	160	)
18			17.8768			(	4.2	14	14	14	23.9	24	24	24	24	24	24	24	24	24	24	24	3	160	160	160	160	160	160	160	160	160	160	160	160	160	160	160	)
19			17.7393			(	4.2	14	14	14	14	24	24	24	24	24	24	24	24	24	24	24	3	160	160	160	160	160	160	160	160	160	160	160	160	160	160	160	)
21			17.738			(	4.2	14	14	14	14	23.9	24	24	24	24	24	24	24	24	24	24	3	160	160	160	160	160	160	160	160	160	160	160	160	160	160	160	)
22			17.6005			(	4.2	14	14	14	14	14	24	24	24	24	24	24	24	24	24	24	3	160	160	160	160	160	160	160	160	160	160	160	160	160	160	160	)
34			17.5991			(	4.2	14	14	14	14	14	14	24	23.9	24	24	24	24	24	24	24	3	160	160	160	160	160	160	160	160	160	160	160	160	160	160	160	)
35			17.4617			(	4.2	14	14	14	14	14	14	24	14	24	24	24	24	24	24	24	3	160	160	160	160	160	160	160	160	160	160	160	160	160	160	160	)
37			17.4603			(	4.2	14	14	14	14	14	14	24	14	23.9	24	24	24	24	24	24	3	160	160	160	160	160	160	160	160	160	160	160	160	160	160	160	)
38			17.3231			(	4.2	14	14	14	14	14	14	24	14	14	24	24	24	24	24	24	3	160	160	160	160	160	160	160	160	160	160	160	160	160	160	160	)
40			17.3217			(	4.2	14	14	14	14	14	14	24	14	14	23.9	24	24	24	24	24	3	160	160	160	160	160	160	160	160	160	160	160	160	160	160	160	)
41			17.1845			(	4.2	14	14	14	14	14	14	24	14	14	14	24	24	24	24	24	3	160	160	160	160	160	160	160	160	160	160	160	160	160	160	160	)
43			17.1831			(	4.2	14	14	14	14	14	14	24	14	14	14	23.9	24	24	24	24	3	160	160	160	160	160	160	160	160	160	160	160	160	160	160	160	)
44			17.0459			(	4.2	14	14	14	14	14	14	24	14	14	14	14	24	24	24	24	3	160	160	160	160	160	160	160	160	160	160	160	160	160	160	160	)
46			17.0445			(	4.2	14	14	14	14	14	14	24	14	14	14	14	23.9	24	24	24	3	160	160	160	160	160	160	160	160	160	160	160	160	160	160	160	)
47			16.9074			(	4.2	14	14	14	14	14	14	24	14	14	14	14	14	24	24	24	3	160	160	160	160	160	160	160	160	160	160	160	160	160	160	160	)
49			16.906			(	4.2	14	14	14	14	14	14	24	14	14	14	14	14	23.9	24	24	3	160	160	160	160	160	160	160	160	160	160	160	160	160	160	160	)
50			16.7689			(	4.2	14	14	14	14	14	14	24	14	14	14	14	14	14	24	24	3	160	160	160	160	160	160	160	160	160	160	160	160	160	160	160	)
52			16.7675			(	4.2	14	14	14	14	14	14	24	14	14	14	14	14	14	23.9	24	3	160	160	160	160	160	160	160	160	160	160	160	160	160	160	160	)
53			16.6304			(	4.2	14	14	14	14	14	14	24	14	14	14	14	14	14	14	24	3	160	160	160	160	160	160	160	160	160	160	160	160	160	160	160	)
55			16.629			(	4.2	14	14	14	14	14	14	24	14	14	14	14	14	14	14	23.9	3	160	160	160	160	160	160	160	160	160	160	160	160	160	160	160	)
56			16.4918			(	4.2	14	14	14	14	14	14	24	14	14	14	14	14	14	14	14	3	160	160	160	160	160	160	160	160	160	160	160	160	160	160	160	)
63			16.4917			(	4.2	14	14	14	14	14	14	24	14	14	14	14	14	14	14	14	3.2	159.9	160	160	160	160	160	160	160	160	160	160	160	160	160	160	)
64			16.475			(	4.2	14	14	14	14	14	14	24	14	14	14	14	14	14	14	14	3.2	150	160	160	160	160	160	160	160	160	160	160	160	160	160	160	)
66			16.4749			(	4.2	14	14	14	14	14	14	24	14	14	14	14	14	14	14	14	3.2	150	159.9	160	160	160	160	160	160	160	160	160	160	160	160	160	)
67			16.4583			(	4.2	14	14	14	14	14	14	24	14	14	14	14	14	14	14	14	3.2	150	150	160	160	160	160	160	160	160	160	160	160	160	160	160	)
69			16.4579			(	4.2	14	14	14	14	14	14	24	14	14	14	14	14	14	14	14	3.2	150	150	159.9	160	160	160	160	160	160	160	160	160	160	160	160	)
70			16.4249			(	4.2	14	14	14	14	14	14	24	14	14	14	14	14	14	14	14	3.2	150	150	150	160	160	160	160	160	160	160	160	160	160	160	160	)
72			16.4248			(	4.2	14	14	14	14	14	14	24	14	14	14	14	14	14	14	14	3.2	150	150	150	159.9	160	160	160	160	160	160	160	160	160	160	160	)
73			16.4084			(	4.2	14	14	14	14	14	14	24	14	14	14	14	14	14	14	14	3.2	150	150	150	150	160	160	160	160	160	160	160	160	160	160	160	)
75			16.4083			(	4.2	14	14	14	14	14	14	24	14	14	14	14	14	14	14	14	3.2	150	150	150	150	159.9	160	160	160	160	160	160	160	160	160	160	)
76			16.3922			(	4.2	14	14	14	14	14	14	24	14	14	14	14	14	14	14	14	3.2	150	150	150	150	150	160	160	160	160	160	160	160	160	160	160	)
78			16.392			(	4.2	14	14	14	14	14	14	24	14	14	14	14	14	14	14	14	3.2	150	150	150	150	150	159.9	160	160	160	160	160	160	160	160	160	)
79			16.3766			(	4.2	14	14	14	14	14	14	24	14	14	14	14	14	14	14	14	3.2	150	150	150	150	150	150	160	160	160	160	160	160	160	160	160	)
93			16.3766			(	4.2	14	14	14	14	14	14	24	14	14	14	14	14	14	14	14	3.2	150	150	150	150	150	150	160	160	160	160	160	160	160	160	160	)
100			16.3764			(	4.2	14	14	14	14	14	14	24	14	14	14	14	14	14	14	14	3.2	150	150	150	150	150	150	160	160	160	160	159.9	160	160	160	160	)
101			16.3603			(	4.2	14	14	14	14	14	14	24	14	14	14	14	14	14	14	14	3.2	150	150	150	150	150	150	160	160	160	160	150	160	160	160	160	)
103			16.3599			(	4.2	14	14	14	14	14	14	24	14	14	14	14	14	14	14	14	3.2	150	150	150	150	150	150	160	160	160	160	150	159.9	160	160	160	)
104			16.3273			(	4.2	14	14	14	14	14	14	24	14	14	14	14	14	14	14	14	3.2	150	150	150	150	150	150	160	160	160	160	150	150	160	160	160	)
106			16.3272			(	4.2	14	14	14	14	14	14	24	14	14	14	14	14	14	14	14	3.2	150	150	150	150	150	150	160	160	160	160	150	150	159.9	160	160	)
107			16.3107			(	4.2	14	14	14	14	14	14	24	14	14	14	14	14	14	14	14	3.2	150	150	150	150	150	150	160	160	160	160	150	150	150	160	160	)
109			16.3105			(	4.2	14	14	14	14	14	14	24	14	14	14	14	14	14	14	14	3.2	150	150	150	150	150	150	160	160	160	160	150	150	150	159.9	160	)
110			16.294			(	4.2	14	14	14	14	14	14	24	14	14	14	14	14	14	14	14	3.2	150	150	150	150	150	150	160	160	160	160	150	150	150	150	160	)
112			16.2936			(	4.2	14	14	14	14	14	14	24	14	14	14	14	14	14	14	14	3.2	150	150	150	150	150	150	160	160	160	160	150	150	150	150	159.9	)
113			16.2604			(	4.2	14	14	14	14	14	14	24	14	14	14	14	14	14	14	14	3.2	150	150	150	150	150	150	160	160	160	160	150	150	150	150	150	)
119			13.7974			(	4.6	4	4	4	4	4	4	24	4	4	4	4	4	4	4	4	3.4	140	140	140	140	140	140	160	160	160	160	140	140	140	140	140	)
124			13.7651			(	4.6	1.5	4	4	4	4	4	24	4	4	4	4	4	4	4	4	3.4	140	140	140	140	140	140	160	160	160	160	140	140	140	140	140	)
130			13.7322			(	4.6	1.5	4.05	1.5	4	4	4	24	4	4	4	4	4	4	4	4	3.4	140	140	140	140	140	140	160	160	160	160	140	140	140	140	140	)
134			13.6982			(	4.6	1.5	4.05	1.5	1.5	4	4	24	4	4	4	4	4	4	4	4	3.4	140	140	140	140	140	140	160	160	160	160	140	140	140	140	140	)
