{
    "ate_drug": [
        4.6,
        24.0,
        4.0,
        4.0,
        4.0,
        4.0,
        4.0,
        4.0,
        4.0,
        4.0,
        1.5,
        4.05,
        1.5,
        1.5,
        4.0,
        4.0
    ],
    "cibi_drug": [
        3.4,
        160.0,
        160.0,
        160.0,
        160.0,
        140.0,
        140.0,
        140.0,
        140.0,
        140.0,
        140.0,
        140.0,
        140.0,
        140.0,
        140.0,
        140.0
    ],
    "inefficacy": 9.217119599038146,
    "total_drugs": 54.02777777777778,
    "objective_value": 13.69818541691211,
    "tumour_diameter": [
        17.33479615061333,
        17.3611693732258,
        17.38733765076735,
        17.41329459016619,
        17.43903455358413,
        17.464552586347228,
        17.489844294181367,
        17.514905570986027,
        17.5397320447667,
        17.564318257002814,
        17.58865693205417,
        17.612738866273464,
        17.63655364005148,
        17.66009087773628,
        17.683341583348007,
        17.7062991973566,
        17.728960230187138,
        17.75132445037582,
        17.773394673489847,
        17.795176213403693,
        17.816676116400206,
        17.83790233958543,
        17.858887370354765,
        17.879673459442234,
        17.900259318442277,
        17.920642254683308,
        17.940819921853063,
        17.960790121724752,
        17.980550283019415,
        18.00009638872352,
        18.019421477734696,
        18.038514514991096,
        18.057360616912295,
        18.075942819685558,
        18.094244666576007,
        18.112252658136896,
        18.129957950911773,
        18.147357195404947,
        18.16445256608405,
        18.18125108880787,
        18.197763489764462,
        18.214002778360385,
        18.229982838649562,
        18.24575592950295,
        18.26138856232649,
        18.276877412831162,
        18.2922168776152,
        18.307401871744794,
        18.322427540341568,
        18.337288499729247,
        18.351977294176223,
        18.36648228459714,
        18.380786138313468,
        18.394866299903654,
        18.408697629818274,
        18.422256108262722,
        18.435522233536588,
        18.448483302349732,
        18.46113440775624,
        18.47347828868116,
        18.485524294437184,
        18.497286705050687,
        18.508782737682616,
        18.52003061374699,
        18.5310992710922,
        18.54207606365714,
        18.55295549125031,
        18.56372907209523,
        18.57438905442172,
        18.584928041581314,
        18.59533801517373,
        18.60560826728214,
        18.615722815493307,
        18.625658655471792,
        18.63538633893632,
        18.644873381181103,
        18.654088961953583,
        18.663008174091154,
        18.671614818771367,
        18.67990256266482,
        18.68787465836693,
        18.695542570451156,
        18.702923824726184,
        18.710039498497814,
        18.716911813127194,
        18.72362490069283,
        18.73028514435374,
        18.736885267117493,
        18.743414366229285,
        18.749862452078116,
        18.75621999454418,
        18.76247674822546,
        18.768619394962037,
        18.7746283674893,
        18.780475666119454,
        18.786125718770627,
        18.79153948640982,
        18.796680070011437,
        18.801517740585464,
        18.806033206978206,
        18.81021892512461,
        18.814078705284537,
        18.817626033760284,
        18.820881495565477,
        18.823869794759236,
        18.826616914613968,
        18.829220828778386,
        18.831805283936557,
        18.834361513951155,
        18.836876528641405,
        18.83933840938359,
        18.841735784476047,
        18.844056473352694,
        18.84628477309593,
        18.848397814912847,
        18.850363082771324,
        18.85213943905966,
        18.85368186837746,
        18.854947917375004,
        18.855903442784268,
        18.856526316309587,
        18.856807877665165,
        18.856752442218113,
        18.85637534661647,
        18.855699982589005,
        18.854754387161723,
        18.853568005278415,
        18.852251788127745,
        18.850945915848452,
        18.849640400881793,
        18.848320419171106,
        18.84697229074731,
        18.845582745527658,
        18.844137096710657,
        18.842615857648923,
        18.840990708656125,
        18.839222454077007,
        18.837263226150966,
        18.835062483287178,
        18.83257423239185,
        18.82976298810836,
        18.82660708555601,
        18.823099907326732,
        18.81924912876692,
        18.815074007223906,
        18.810601896174305,
        18.805864430949093,
        18.800894062971757,
        18.79581076977718,
        18.790765674754798,
        18.785747424181046,
        18.780739465913065,
        18.775726514099837,
        18.7706937413832,
        18.76562476764616,
        18.760497941538087,
        18.75528191633908,
        18.749933422566144,
        18.74439971078071,
        18.73862515210742,
        18.732559164287057,
        18.726162735031394,
        18.719412261118023,
        18.712300675668285,
        18.70483633559922,
        18.697040259654255,
        18.68894230035735,
        18.680576968449618,
        18.67197964480295,
        18.663280983744436,
        18.65464552953355,
        18.646060930970055,
        18.63750916791748,
        18.628973589901882,
        18.62043804128655,
        18.611884681640937,
        18.60328971863017,
        18.5946188302579,
        18.58582503839232,
        18.57685113354021,
        18.56763682817661,
        18.55812733153139,
        18.548280389750854,
        18.538070419018062,
        18.52748970426758,
        18.51654717868618,
        18.505265428354438,
        18.493676554422528,
        18.481817665019072,
        18.469726792955303,
        18.45754436888715,
        18.44544726064327,
        18.433422209576772,
        18.421449849804215,
        18.409512273660404,
        18.397592095180222,
        18.38567011676619,
        18.373721019181662,
        18.36170824454944,
        18.349581444174536,
        18.33727933940763,
        18.324737384478073,
        18.311896935649347,
        18.298712771919853,
        18.285157498449244,
        18.271222811837823,
        18.256918182838994,
        18.24226764862306,
        18.22730538993173,
        18.212070919236847,
        18.196604728949126,
        18.181055978526587,
        18.165612586299833,
        18.15026048853756,
        18.134979109210086,
        18.11974940790015,
        18.10455288759509,
        18.089369119536688,
        18.07417117265596,
        18.058920190030374,
        18.04356269143808,
        18.028033616185077,
        18.01226445066533,
        17.996192946501182,
        17.979771082586154,
        17.96296971726534,
        17.945779920466677,
        17.928211570364475,
        17.91028995261978,
        17.892051077514477,
        17.873536591140276,
        17.854789174725784,
        17.835966483769617,
        17.81726717181591,
        17.798676505296896,
        17.780172859277013,
        17.761736210423237,
        17.74334709392259,
        17.724983998157146,
        17.70661855407424,
        17.688209828468825,
        17.66970149199013,
        17.651025027489588,
        17.632108287833308,
        17.61288571811996,
        17.593306724573917,
        17.57334026830848,
        17.55297650099018,
        17.532225622484173,
        17.511114015780198,
        17.489679328988167,
        17.46796513213635,
        17.446016089511243,
        17.423997406435554,
        17.402117347437855,
        17.38036055212799,
        17.358704412727807,
        17.33712798152701,
        17.315610876673574,
        17.294130557904243,
        17.272657293076993,
        17.251148186775104,
        17.229544220276512,
        17.207773610435954,
        17.18576076283147,
        17.163436961123438,
        17.14074911771409,
        17.117664880043066,
        17.09417408494819,
        17.070287214071662,
        17.04603165747275,
        17.021446577302065,
        16.996577329370602,
        16.97147042502749,
        16.946298104932836,
        16.92127762104452,
        16.89639309924717,
        16.871621087474157,
        16.846939837286815,
        16.822328171148584,
        16.797762645453897,
        16.77321205281038,
        16.748631419758002,
        16.723959211618656,
        16.699120580386875,
        16.674036683669954,
        16.64863581245094,
        16.62286249600041,
        16.5966828208145,
        16.570085941358222,
        16.54308248628243,
        16.515700672282957,
        16.48798096833571,
        16.459970302982565,
        16.431716826502292,
        16.403399315283735,
        16.37524344237756,
        16.347232846232746,
        16.31934326690379,
        16.291552184211593,
        16.263837645166927,
        16.23617532094885,
        16.208533066200992,
        16.180864461561136,
        16.153105612190387,
        16.125178771284062,
        16.097002006912067,
        16.068500745125853,
        16.039617218717392,
        16.010315987830527,
        15.980585519480258,
        15.950436537923533,
        15.919898011536658,
        15.889011629426665,
        15.85782580149137,
        15.82639023791766,
        15.79488938441546,
        15.763556357347746,
        15.732374312408345,
        15.701318193950078,
        15.670364714058227,
        15.639491141475425,
        15.608672256104386,
        15.57787471381752,
        15.54705035419391,
        15.516132875523398,
        15.485041576251973,
        15.453691350934392,
        15.422004641661593,
        15.389921222387958,
        15.357403927232575,
        15.324440302856987,
        15.291040920536206,
        15.257235240086843,
        15.22306591045401,
        15.18858257207288,
        15.153836253622456,
        15.119018052107801,
        15.084369764708965,
        15.049874167549424,
        15.015505501398827,
        14.98123979259987,
        14.947053604536865,
        14.912920888925045,
        14.878807152633149,
        14.844662523255003,
        14.810418294672704,
        14.775990777643402,
        14.741291635727546,
        14.706240243317529,
        14.670773824109373,
        14.634852695001427,
        14.598462584037316,
        14.561613695932875,
        14.524335792010412,
        14.486672314934257,
        14.448673995163185,
        14.410393059128971,
        14.372026773442057,
        14.333825224359241,
        14.295770660721585,
        14.257836446203749,
        14.219997735199987,
        14.182230185219021,
        14.144506696236826,
        14.106791362658972,
        14.06903227160994,
        14.031157894062236,
        13.993081042539494,
        13.954709560142483,
        13.915959120238632,
        13.876763752737872,
        13.837082036047416,
        13.796898942206841,
        13.756224102490862,
        13.715087441098975,
        13.673533119434143,
        13.631612926642324,
        13.589380287714807,
        13.547039289507108,
        13.504849333075295,
        13.462792098720586,
        13.420839975081998,
        13.378967137308644,
        13.337148214278734,
        13.295354899978044,
        13.253548818801212,
        13.211674728840475,
        13.169657626480454,
        13.127406019758526,
        13.084823007871279,
        13.04181959927719,
        12.998325690099746,
        12.954296567372309,
        12.909714891238004,
        12.864588966643332,
        12.818948256404733,
        12.772837126268366,
        12.726307989741311,
        12.679415079841583,
        12.632370214881444
    ]
}