{
    "ate_drug": [
        4.48359,
        0.509645,
        23.2825,
        23.2825,
        23.2825,
        23.2825,
        23.2825,
        23.2825,
        23.2825,
        23.2825,
        23.2825,
        23.2825,
        23.2825,
        23.2825,
        23.2825,
        23.2825
    ],
    "cibi_drug": [
        3.67405,
        155.217,
        155.217,
        155.217,
        155.217,
        155.217,
        155.217,
        155.217,
        155.217,
        155.217,
        155.217,
        155.217,
        155.217,
        155.217,
        155.217,
        155.217
    ],
    "inefficacy": 0.43420783773275434,
    "total_drugs": 78.5583996527778,
    "objective_value": 8.246627019237259,
    "tumour_diameter": [
        29.43962082250269,
        29.4972066811176,
        29.55434383676361,
        29.611045825874275,
        29.667324998333854,
        29.72319267136251,
        29.77865925786126,
        29.833734361558392,
        29.888426791648385,
        29.942744276591142,
        29.99669198905247,
        30.05026687631031,
        30.103440295026843,
        30.156119298042388,
        30.208095632054718,
        30.259032752967162,
        30.308532169393686,
        30.356234625841914,
        30.401882726910898,
        30.445330264184683,
        30.48652357134829,
        30.525476799676426,
        30.5622500649853,
        30.596932366057047,
        30.629628938099884,
        30.660452251991142,
        30.689515909750998,
        30.716930728650258,
        30.742802412078976,
        30.767836832754085,
        30.794154995839992,
        30.822293717588053,
        30.852106618781466,
        30.88339887779058,
        30.91599118529692,
        30.949722730308583,
        30.984449511958186,
        31.02004186297418,
        31.05637973443036,
        31.093339970495684,
        31.130761679380846,
        31.16837341571507,
        31.205702987182907,
        31.24206453691607,
        31.27669076838771,
        31.30891793449714,
        31.33829007578806,
        31.364563962450084,
        31.38766626293559,
        31.407643474190998,
        31.42461986983549,
        31.438765860619707,
        31.450275386138596,
        31.459350381819927,
        31.46619064244657,
        31.47098762123046,
        31.47392098574506,
        31.47607836326633,
        31.48067575725056,
        31.488502829396605,
        31.49931394784236,
        31.512791877756975,
        31.528644091233378,
        31.546607241758807,
        31.56644464438834,
        31.587942595936966,
        31.610903569670146,
        31.63512830720353,
        31.66036780160153,
        31.686223579072145,
        31.71202619246466,
        31.73682191724967,
        31.75955705407167,
        31.779330063887535,
        31.795529687905496,
        31.807837112828835,
        31.816164421296893,
        31.82058462465682,
        31.82127375642756,
        31.81846778803002,
        31.812432152501195,
        31.8034410558017,
        31.791764140026455,
        31.777658457707496,
        31.761364122135532,
        31.74428138901811,
        31.730526542172864,
        31.721105286046196,
        31.715699350515322,
        31.71389848460052,
        31.715323448773628,
        31.71963191232851,
        31.72651541300364,
        31.73569484547746,
        31.746912043995593,
        31.75990765953225,
        31.77436209847649,
        31.78977339117941,
        31.805309562660735,
        31.81979475061875,
        31.831936878791854,
        31.84063561062255,
        31.845148848240527,
        31.845092825568063,
        31.84036510546922,
        31.83105833310603,
        31.817389223955136,
        31.799646063214382,
        31.778151756146247,
        31.753238879579502,
        31.725233699850275,
        31.69444662317642,
        31.661167086229757,
        31.6270579295207,
        31.59699720946894,
        31.572178472075798,
        31.55222737007674,
        31.536659456260416,
        31.525025806988214,
        31.51692025327488,
        31.511976031026567,
        31.509860647867526,
        31.51026617536033,
        31.512883579445045,
        31.517334216781563,
        31.523028452671756,
        31.528995608470247,
        31.533869754117266,
        31.536154514399712,
        31.534578829883536,
        31.528287572392546,
        31.51683981906674,
        31.50011879259299,
        31.478231723533142,
        31.45142783679269,
        31.420037940859043,
        31.384431914275147,
        31.34499025077937,
        31.30208582293844,
        31.25607305111997,
        31.207282140104105,
        31.157601302418012,
        31.112567776717444,
        31.073541917171678,
        31.040105463732438,
        31.011713629412643,
        30.98786034315499,
        30.96808675568126,
        30.951977707962012,
        30.939156151156766,
        30.929272377440565,
        30.921975283427038,
        30.91683555411556,
        30.91318734496623,
        30.909938533116634,
        30.905556411302562,
        30.898365372192576,
        30.886944442634583,
        30.870338733722033,
        30.848055944176103,
        30.819964907960802,
        30.786183489562525,
        30.746987048604375,
        30.702741127689265,
        30.653854377805658,
        30.60074695170023,
        30.543830383064698,
        30.48349565293058,
        30.420106870547475,
        30.355749661125632,
        30.296544662831803,
        30.24400412043678,
        30.197675594211244,
        30.1569648236218,
        30.121318393951803,
        30.090233413165624,
        30.063254023739475,
        30.039965411334986,
        30.019982208505386,
        30.002917009386596,
        29.988296043265,
        29.97538547855583,
        29.962983893897913,
        29.94940825027605,
        29.932821411692828,
        29.911667120042342,
        29.884899854874586,
        29.851979563636537,
        29.812760042606307,
        29.767366152990963,
        29.716093942886193,
        29.6593373169282,
        29.597536867184726,
        29.531145588802783,
        29.4606070954848,
        29.386342731092952,
        29.308744763464333,
        29.230076331675782,
        29.15699028876533,
        29.091142334878846,
        29.03205415310326,
        28.979090846318233,
        28.9316594840429,
        28.88922008397216,
        28.8512820805515,
        28.81739820111286,
        28.78715209094369,
        28.76012432365341,
        28.735801027662195,
        28.713385644160724,
        28.6915747942853,
        28.668544570469713,
        28.64230629822436,
        28.61117646063004,
        28.57402332750768,
        28.530259986668398,
        28.479723182943026,
        28.422540899156918,
        28.359024782567637,
        28.289591393606177,
        28.214707327028403,
        28.13485251063086,
        28.050496926792793,
        27.962086861062502,
        27.870037657231016,
        27.77677876696164,
        27.68947252821054,
        27.609918050074185,
        27.53761884269949,
        27.47190670404559,
        27.41215554314208,
        27.357793684459946,
        27.308300507789653,
        27.263200237964224,
        27.222048884802195,
        27.184397848398685,
        27.14969549209533,
        27.117084377631976,
        27.08516031848243,
        27.051959120434443,
        27.01534057198163,
        26.973492774681475,
        26.925195472292383,
        26.869811277565503,
        26.807155364936413,
        26.73735361968437,
        26.660727702516837,
        26.577711136432765,
        26.488790761950263,
        26.394467799601514,
        26.295233117692575,
        26.19155265103703,
        26.083859724940616,
        25.97475063432544,
        25.87191591823891,
        25.777311556619367,
        25.69043086971742,
        25.610578562239613,
        25.537100426004223,
        25.469397169134865,
        25.40692136388646,
        25.349171267081488,
        25.295677141406152,
        25.24596227927999,
        25.19943687354685,
        25.155179139525522,
        25.11167563035205,
        25.066807996594555,
        25.018267503256173,
        24.964097291270782,
        24.90297412591334,
        24.834198107306793,
        24.757552674107885,
        24.67315279056088,
        24.58132217888423,
        24.48250386301635,
        24.377197830871744,
        24.265919628727456,
        24.14917409851468,
        24.027439877559903,
        23.901161237764644,
        23.773121198716265,
        23.651631890886893,
        23.53884566812042,
        23.434255997508654,
        23.33714618603456,
        23.246837927065403,
        23.16270708511491,
        23.084181164226436,
        23.010733283550596,
        22.941867839973387,
        22.877078363883843,
        22.8157316220313,
        22.7568279464908,
        22.698716760347967,
        22.639081841860662,
        22.575393887867854,
        22.50550138842776,
        22.427936966957137,
        22.34190621219433,
        22.247136088524776,
        22.14371079917913,
        22.031939283115307,
        21.91225886157287,
        21.78516806236694,
        21.651182090200606,
        21.510804506290143,
        21.364510492884698,
        21.21273795570213,
        21.058514129193767,
        20.91103290674117,
        20.772743945811136,
        20.643159615820736,
        20.52154933905484,
        20.4072150640143,
        20.299509999106615,
        20.19783697356726,
        20.10164264513904,
        20.010402419066597,
        19.923573259764744,
        19.84046230675579,
        19.75995337139979,
        19.680180485243397,
        19.598506765948105,
        19.512034607850484,
        19.418275027090694,
        19.31549609368772,
        19.202713029923355,
        19.079519375872742,
        18.945903802337615,
        18.80210212031012,
        18.64848959670425,
        18.48550573176395,
        18.313604122443852,
        18.133220207809494,
        17.9447517343719,
        17.748547761267425,
        17.548013158010587,
        17.353965774109586,
        17.169441266458062,
        16.994020841985648,
        16.826978624724138,
        16.66760746992388,
        16.515243027935682,
        16.369263632988083,
        16.229084964171985,
        16.094142777596613,
        15.963834496530117,
        15.837351809086599,
        15.713326294874928,
        15.589395849065347,
        15.462150255485552,
        15.32775938725419,
        15.182821529273067,
        15.024816306239112,
        14.852103346327487,
        14.663715417049877,
        14.459128868718135,
        14.238075175456922,
        14.00040045597094,
        13.745963701093334,
        13.474565129772966,
        13.185897375707532,
        12.879517160311773,
        12.554842468872792,
        12.215600058965206,
        11.876426467813845,
        11.541575614392194,
        11.21048400008195,
        10.882087958883425,
        10.55529569577148,
        10.229061911322182,
        9.902483916299765,
        9.5750296246484,
        9.247111316538014,
        8.921285968215214,
        8.602432257259595,
        8.293921148572174,
        7.9963467052662365,
        7.709399760280135,
        7.43264093773797,
        7.165641707056237,
        6.9080523578292174,
        6.659668608290072,
        6.420222805961917,
        6.189396328503524,
        5.966879614698949,
        5.752374211269705,
        5.5455924649111,
        5.346257092408413,
        5.1541008139984195,
        4.968866007979273,
        4.79030435454045,
        4.618176540448123,
        4.452251989738379,
        4.292308418219559,
        4.138131521714509,
        3.9895147412539096,
        3.8462590049604137,
        3.7081724646933494,
        3.5750702813805018
    ]
}