======= APRICOPT =========

=== Optimization through COPASI solver ===


Solver settings: 

Method: Differential Evolution
    Log Verbosity: 0
    Number of Generations: 25
    Population Size: 64
    Random Number Generator: 1
    Seed: 104
    Mutation Variance: 0.1
    Stop after # Stalled Generations: 0

Population Information: 
Population Size: 0
# Generations / Iterations: 0
Current Generation / Iteration: 0
Population Values: 
   (		)

Population:



Optimization Log:

Function Evaluation	Objective Value		Optimization Parameters
1			23.6822			(	4	24	24	24	24	24	24	24	24	24	24	24	24	24	24	24	3	160	160	160	160	160	160	160	160	160	160	160	160	160	160	160	)
199			17.9605			(	3.65518	0	0	24	1.33561e-167	24	0	24	24	0	24	2.88709e-156	24	0	3.92868e-149	1.46607e-19	3	160	3.59669e-78	7.16341e-75	160	160	0	160	160	160	3.67325e-65	160	0.00162741	0	4.64187e-186	0	)
334			17.7692			(	6	5.1189e-112	6.07246e-303	20.1705	1.9633e-84	2.0579e-48	0	1.19086e-183	5.44728e-109	22.8719	8.56418e-69	0.732291	24	5.92508e-190	4.19684e-22	3.07298e-305	5.6048	2.19657e-58	6.23131e-292	148.937	151.958	1.32648e-39	3.55341e-06	147.224	160	8.84619e-205	8.32346e-87	6.53642e-52	0	145.119	2.79058e-154	3.09572e-106	)
604			16.6132			(	6	24	0	24	24	24	0	24	1.26803e-78	24	24	1.10318e-64	24	24	24	0	6	160	160	160	160	160	1.92373e-156	160	160	0.316772	7.56904e-112	2.36874e-101	2.99228e-90	160	2.35142e-50	160	)
739			16.2017			(	6	8.11316e-07	1.07315e-44	24	1.7635e-62	24	13.2653	24	24	2.24353e-61	24	0.0010559	24	2.2838e-28	2.0624e-13	5.86427e-19	5.91017	160	1.43868e-77	8.55039e-33	160	160	3.35912e-58	160	160	160	7.19472e-17	160	0.00650965	8.45294e-48	1.77548e-57	9.98807e-73	)
874			14.9281			(	6	2.2368e-26	1.21493e-38	24	1.7635e-62	9.31323e-135	18.4178	24	5.54299e-75	2.24353e-61	1.79698e-225	2.48646e-58	24	3.82434e-28	2.0624e-13	5.86427e-19	5.91017	1.78104e-189	9.00983e-47	0	0	160	3.35912e-58	160	3.81998e-57	0	2.99597e-52	8.29022e-08	0.00650965	8.45294e-48	1.77548e-57	4.51695e-37	)
1009			14.9066			(	3.52661	4.52635e-26	2.82223e-38	0	2.09567e-24	0	9.63985e-112	10.3103	5.11253e-178	0	19.3626	0	24	0	0	0	6	0	1.99555e-34	0	160	1.20389e-30	0	160	7.98939e-57	145.137	6.41247e-52	4.74264e-08	4.11729e-18	0	5.97088e-08	8.75776e-37	)
1279			14.7087			(	6	1.62929e-06	0	0	0	0	22.608	24	2.95421e-40	0	0.00166061	0	21.4255	0	0	0	6	160	4.167e-92	0	2.17992e-69	0	7.0384e-06	156.315	1.0345e-126	0.256486	4.80669e-16	1.6853e-07	0	143.652	0	0	)
1414			14.5955			(	6	0	1.41109e-37	0	1.04783e-23	0	24	24	2.55626e-177	1.9864e-60	24	0.0120949	24	0	4.12481e-13	24	6	3.36012e-97	9.97774e-34	8.00051e-32	160	0	0	160	0	160	2.36131e-16	0	0	0	2.98544e-07	4.37888e-36	)
1549			14.375			(	5.71139	0	0	0	0	2.0579e-48	0	7.7065	0	0	0.000787223	0.0117048	22.6841	0	4.19684e-22	23.6093	6	0	0	0	149.35	0	3.55341e-06	147.107	160	0	6.69249e-91	0	0	132.318	0	8.18815e-73	)
1684			14.0747			(	4.94911	3.27863e-271	6.50479e-37	0	3.14022e-24	0	1.093e-227	16.5182	1.44517e-159	0	2.49173	0	1.95752	0	0	20.2	6	8.05983e-33	4.13595e-33	1.87793e-31	160	0	2.28791e-104	13.2798	8.37202e-116	156.793	0	0	0	0	5.41463e-07	7.50699e-36	)
