======= APRICOPT =========

=== Optimization through COPASI solver ===


Solver settings: 

Method: Particle Swarm
    Log Verbosity: 0
    Iteration Limit: 100
    Swarm Size: 30
    Std. Deviation: 0.1
    Random Number Generator: 1
    Seed: 104
    Stop after # Stalled Iterations: 0

Population Information: 
Population Size: 0
# Generations / Iterations: 0
Current Generation / Iteration: 0
Population Values: 
   (		)

Population:



Optimization Log:

Function Evaluation	Objective Value		Optimization Parameters
1			18.2943			(	4	24	24	24	24	24	24	24	24	24	24	24	24	24	24	24	3	160	160	160	160	160	160	160	160	160	160	160	160	160	160	160	)
4			11.7498			(	5.48009	12.5293	22.5591	0.145588	7.74936	23.0966	15.6594	1.5572	4.6583	13.6649	18.3135	9.95606	18.0584	6.55034	14.9428	17.7514	5.12898	44.1692	17.0272	37.0107	33.6892	48.008	1.48612	126.728	43.09	155.913	141.11	22.3499	34.2111	142.408	49.1491	152.798	)
27			11.6388			(	5.44744	2.23223	11.1706	6.19901	22.5885	21.0555	22.6265	2.56234	18.3771	4.76463	10.2065	2.47307	13.7284	16.8215	23.0817	12.3875	5.40335	126.671	127.137	159.767	71.2976	47.8659	148.395	129.436	26.0831	111.574	11.2562	34.4261	93.4963	88.3902	1.00661	14.8343	)
30			11.0647			(	5.78188	9.61875	11.1471	19.2714	11.5914	1.09549	13.7291	18.8984	5.7031	7.22825	7.57236	8.35053	23.6433	22.1348	2.43315	6.97684	4.84888	34.1113	144.837	62.4	62.7746	20.913	41.2313	56.5313	55.4371	119.507	11.6565	125.203	105.756	63.2797	110.953	66.7611	)
38			10.7996			(	5.69424	10.914	4.34789	9.84427	18.6102	0	3.6227	6.75269	2.41701	6.51647	16.8092	13.6865	7.18129	10.3817	11.2745	14.7295	4.26436	156.799	98.282	40.094	29.9839	30.7147	0	23.142	93.93	48.012	109.292	84.5385	64.8695	64.5069	68.5105	53.362	)
91			10.2486			(	5.24113	1.876	2.29978	4.52381	0	16.0052	0	9.43556	5.75246	0	0.945483	5.03673	7.80281	8.05664	10.5047	0	5.50127	21.0987	77.539	81.2823	54.2609	30.0258	55.6627	56.1628	13.282	67.2749	12.8242	80.6284	23.5276	0	70.9769	15.049	)
170			9.84338			(	6	11.0108	2.8198	0	7.04147	13.8168	6.83726	0.307341	5.17916	0	1.57887	5.91905	2.53697	10.2683	12.7641	8.1666	5.59908	150.775	12.4005	50.0899	43.4611	0	139.496	37.9821	8.46068	23.0262	0	66.3251	16.6211	1.14808	43.6233	46.599	)
254			9.84237			(	5.0694	1.55105	5.59166	0	0.227178	11.7211	0	0.860067	1.93594	0	1.85739	3.76112	9.7709	4.98315	10.673	0	5.52761	33.1286	88.4773	72.2187	28.1568	3.13973	50.6124	73.9559	15.8093	52.7544	21.8055	88.9509	3.5821	0	47.8165	17.2476	)
267			9.65364			(	6	13.8155	3.454	0.022864	3.90497	9.15621	12.7496	0.227146	9.65066	0	2.20654	8.07138	2.74757	4.55288	13.0818	6.71919	5.78396	152.571	5.52394	13.0891	41.0368	0	136.254	10.3335	7.00809	21.5444	0	56.8033	11.5452	6.43121	10.3168	47.4779	)
358			9.61576			(	6	3.86393	3.01574	0	18.8224	10.3947	6.3453	3.44526	1.19565	0	0	8.56643	0	0.444831	11.5923	5.1598	6	70.2529	7.5199	7.73324	75.0946	1.6507	0	26.9149	11.5096	42.6954	0	63.5035	16.3199	0	45.5899	14.3307	)
384			9.57086			(	5.8686	18.6435	9.12416	0.0204131	2.53325	3.19165	8.73473	3.39486	12.3877	0	1.86071	10.3599	9.02728	0	6.33343	7.68834	3.96912	48.2224	23.8034	44.3347	25.3836	0	112.895	3.34508	9.6523	10.8367	10.4027	82.9134	3.50916	11.3522	24.4388	63.7939	)
394			9.50585			(	4.95146	0.000726691	5.24466	3.6583	0.676554	2.00945	5.7566	0.155017	2.31374	0	0.559938	8.79552	0	10.0354	7.83376	9.8976	5.07757	54.0269	42.5357	37.2687	9.64296	0	74.5277	4.08599	11.3057	13.8853	13.7232	90.1054	7.18583	0.607739	33.7333	24.0785	)
410			9.41474			(	6	0	3.80223	0	24	9.18928	6.22862	7.07635	0.790593	0	0	7.76126	0	0	3.14795	1.53536	6	79.8407	0.763056	11.6034	98.3849	2.20205	0	12.6001	2.13396	38.1829	1.41326	32.4065	22.3786	0	55.3661	5.66523	)
417			9.35673			(	6	12.1026	3.48852	0	14.324	9.34934	12.6083	2.26523	3.83202	0	0.9732	8.21279	1.57209	3.24036	9.34171	3.03921	6	71.7533	3.06347	10.4225	98.9572	0.518428	0	11.4427	3.613	27.6218	0.447591	48.8996	26.4895	0	1.98	11.3347	)
451			9.33017			(	5.85711	8.4796	8.3335	0.288672	13.6679	3.84818	11.7192	5.99783	8.22352	0.000108019	0.204354	8.47789	2.32513	0.712229	2.67961	5.26739	4.26567	87.5801	52.6597	11.7974	37.4493	0.437445	18.3836	15.8499	5.3841	32.3594	5.08115	14.4227	3.78565	6.43913	34.1958	28.408	)
513			9.20232			(	5.84247	5.12442	2.97155	0.192669	20.2675	8.7696	14.8834	5.89135	5.50631	9.35422e-05	0.103543	7.64742	2.18779	0.465458	2.2344	1.4776	4.0381	55.871	42.124	13.7492	36.8985	2.00729	16.822	19.3453	2.53044	25.7355	7.68345	7.19003	8.44245	10.7028	34.7098	46.2352	)
556			9.19976			(	5.80683	3.21614	3.08102	0.205185	21.3282	9.38145	18.109	6.02033	3.56932	0.00015915	0	5.90207	3.30946	0.554434	0.326327	1.28812	3.92077	47.7599	39.5516	10.0048	17.5205	2.21777	29.2317	25.7226	2.73396	20.1735	10.2325	10.9395	9.53633	7.65666	66.0084	52.2635	)
635			9.16144			(	5.79873	4.4282	3.26576	1.29128	18.2538	7.0323	18.5351	5.96368	2.91527	0.00015174	0.0228391	1.49313	4.0197	0.377724	0.600945	2.46422	3.85882	15.0305	71.07	6.62647	14.1883	2.4305	47.6854	30.6186	3.06464	10.9419	8.56112	4.27082	10.8222	13.2507	93.5235	51.4122	)
675			9.1492			(	5.86248	7.79995	4.36932	0.184932	15.1214	8.64354	14.4748	7.04707	3.68834	3.83847e-05	1.40255	7.24462	2.66697	1.4193	2.18356	1.8289	4.26326	70.4104	34.2214	19.2188	1.05209	0.695055	1.14764	19.3493	2.60521	11.147	15.1035	26.2074	15.3393	5.60202	40.7679	22.5411	)
679			8.99792			(	5.29067	0.890424	4.28174	0	1.40279	4.42508	11.9312	0.670681	3.03455	9.89605e-06	0.187376	8.27365	2.7506	1.42961	3.12421	2.53126	4.47563	59.1334	25.4402	16.3436	9.75394	0.366076	20.0351	14.1913	6.57751	10.334	13.4522	28.177	23.5731	1.50153	38.3939	24.8314	)
815			8.92242			(	5.67738	8.31955	0.959207	0.497951	18.9718	0.0595939	14.5617	4.45347	4.61073	0.000410415	0.408388	1.9303	2.20119	0.321199	1.22826	4.78428	3.73278	30.2149	84.5462	3.04812	34.1066	3.00518	35.3522	12.7773	3.19937	11.1911	9.32771	24.1937	18.2858	11.83	23.9516	13.6089	)
871			8.89983			(	5.91551	7.54063	1.31083	0.532903	18.0617	1.4145	17.1688	3.9066	2.77458	0.00198472	0.335554	4.03974	1.7477	0.952062	1.37419	2.63841	3.0503	61.3736	67.2945	6.3941	23.4644	2.24036	29.4219	13.2294	5.4396	16.9263	8.75028	22.7477	17.198	13.4557	25.1475	21.9041	)
