======= APRICOPT =========

=== Optimization through COPASI solver ===


Solver settings: 

Method: Particle Swarm
    Log Verbosity: 0
    Iteration Limit: 100
    Swarm Size: 30
    Std. Deviation: 0.1
    Random Number Generator: 1
    Seed: 104
    Stop after # Stalled Iterations: 0

Population Information: 
Population Size: 0
# Generations / Iterations: 0
Current Generation / Iteration: 0
Population Values: 
   (		)

Population:



Optimization Log:

Function Evaluation	Objective Value		Optimization Parameters
1			15.9886			(	4	24	24	24	24	24	24	24	24	24	24	24	24	24	24	24	3	160	160	160	160	160	160	160	160	160	160	160	160	160	160	160	)
4			15.1014			(	5.48009	12.5293	22.5591	0.145588	7.74936	23.0966	15.6594	1.5572	4.6583	13.6649	18.3135	9.95606	18.0584	6.55034	14.9428	17.7514	5.12898	44.1692	17.0272	37.0107	33.6892	48.008	1.48612	126.728	43.09	155.913	141.11	22.3499	34.2111	142.408	49.1491	152.798	)
25			14.0615			(	5.37684	11.3728	14.4029	20.4808	20.7758	11.251	14.8171	20.0509	19.8994	4.9344	9.57148	9.72025	9.93572	19.9799	4.64646	17.1941	2.9545	132.35	88.3533	54.6813	71.0459	130.307	19.8085	39.9847	33.2532	40.3411	73.7403	8.23083	55.5478	150.215	80	24.2069	)
34			12.8869			(	4.09542	5.177	21.5635	7.13583	18.9174	7.51533	13.1473	4.37884	15.0704	19.8397	21.7103	10.3531	15.1747	8.05112	7.10634	22.0589	3.30076	35.6922	34.8236	30.6632	12.6606	117.084	58.9306	129.591	72.919	51.7787	139.14	14.4242	64.2695	44.0872	85.725	148.801	)
39			12.4675			(	3.50051	19.8477	10.1895	8.92338	17.4954	11.9135	22.2122	3.93624	6.49924	11.2771	19.7219	8.41904	8.75947	14.6867	14.3519	3.01091	3.94475	86.2045	45.6784	33.874	42.6356	35.9625	31.4351	71.9388	64.1626	70.2235	75.4929	120.38	115.53	53.207	82.544	39.8787	)
54			12.2148			(	3.54516	20.8278	6.75102	16.4047	0.41163	14.7602	13.6745	16.4082	9.31163	1.89135	14.4828	20.0792	20.6003	10.4703	11.4383	15.9765	5.78889	95.1228	94.5806	98.3465	9.00998	75.3319	126.056	138.991	68.4038	160	80.5402	62.4416	135.452	98.8005	51.6882	106.414	)
55			11.7802			(	4.39686	14.178	19.7433	19.6654	15.413	7.19274	18.0269	18.6324	19.9872	10.5557	11.7584	13.5577	5.54193	16.2899	7.87768	7.57643	5.05714	127.88	102.325	32.8354	63.3836	74.6963	6.03183	18.7551	37.1946	73.6904	41.7853	19.2892	31.7511	46.779	112.748	94.2969	)
89			11.7063			(	4.43864	6.75436	16.7864	6.22681	8.62106	24	8.38324	11.4413	18.5073	16.9849	12.8175	8.44598	15.5815	12.8111	6.86026	17.8483	5.23405	76.0401	0	66.1377	64.8059	22.4877	160	135.208	12.3792	75.5646	92.3315	133.814	107.878	47.1656	0	113.519	)
124			11.5527			(	4.38495	15.8025	3.90621	1.81384	16.3079	11.1355	11.2923	10.5178	7.83144	10.676	13.2141	17.2969	12.7243	10.0013	11.7878	16.867	6	35.855	104.918	56.887	50.3239	0	79.1322	136.288	27.214	155.907	123.44	3.22458	96.6541	84.2711	0	160	)
144			11.2159			(	4.18806	12.9771	10.3402	4.57417	18.231	8.48208	14.3638	11.5879	9.10511	11.2767	13.5799	18.0144	11.3084	14.9994	11.6312	15.9712	5.74224	89.8501	93.8209	96.8266	48.4718	13.8528	61.6516	141.543	46.5997	156.853	160	11.7544	92.764	105.051	0	104.093	)
211			11.1215			(	3.94727	20.719	18.2331	9.10492	16.2676	12.4126	15.5584	17.6352	11.893	15.6592	13.2126	20.0668	17.4254	22.1619	16.3727	19.9322	5.51606	121.741	106.777	101.797	0	0	82.9603	133.489	21.2998	156.272	160	12.6753	77.9112	145.653	0	126.452	)
347			10.9927			(	3.71666	21.291	16.2643	19.253	17.1518	6.24338	15.839	7.76119	20.0507	17.7947	9.10144	16.3537	7.51401	14.3332	11.3459	12.3665	5.51874	126.95	101.463	26.8525	25.4594	58.5462	0	114.698	30.9043	55.2794	77.7811	10.8011	68.3515	30.9007	54.4487	0	)
371			10.9244			(	4.09535	9.03789	10.6121	7.88641	15.043	8.42435	9.85083	6.57461	13.6003	12.0658	17.8627	15.3199	12.5836	17.2146	13.9651	16.6346	5.7461	41.263	21.7294	124.987	34.5352	11.8124	40.8743	150.802	44.7108	62.8013	149.342	26.7472	100.492	90.4176	5.82001	115.246	)
383			10.8867			(	3.68104	15.1194	10.8333	7.42696	15.2408	3.44484	11.0313	13.2711	13.731	15.7305	12.1265	16.1315	10.0695	19.0035	10.9273	16.3979	5.64211	77.6999	96.532	84.6588	39.8257	11.9207	44.8625	154.789	27.881	74.6305	110.589	29.2513	71.4758	100.657	17.416	81.2609	)
401			10.7345			(	4.02251	14.5034	10.5649	13.2452	15.0303	6.42186	6.18209	6.73412	14.1221	13.7189	17.9613	15.0015	13.285	17.2106	13.71	15.3638	5.68608	55.2046	21.0827	90.6743	27.6847	9.05789	55.2531	143.767	18.8345	35.6206	144.824	45.2842	117.369	91.952	6.4782	100.189	)
506			10.5807			(	4.12743	16.2764	15.5088	9.55852	16.8358	6.44635	1.70067	4.85212	14.4075	22.7717	14.7225	22.7548	22.4233	23.8467	8.14559	17.9872	5.53597	103.731	0	8.07303	46.4399	0	0	156.729	0	0	0	106.039	44.6484	119.05	0	119.197	)
543			10.5604			(	4.27222	12.2547	9.11766	20.3618	13.4669	4.68585	14.5587	10.079	10.0311	14.7597	16.5904	14.7351	18.1528	21.8407	16.1115	16.7519	6	100.395	52.1013	48.66	1.54549	7.62947	69.4727	124.877	24.8966	29.3706	126.448	72.1875	103.737	109.141	0	29.5467	)
548			10.554			(	3.81213	21.5288	8.60602	11.3648	13.8681	3.80784	7.42619	13.121	18.4055	15.5727	16.2957	15.9495	13.876	18.1909	14.0311	14.7284	5.54046	88.8118	68.4461	49.3587	27.501	4.12684	63.7702	139.16	0	6.47354	124.849	74.5971	75.4235	99.5243	6.60078	83.0926	)
551			10.5361			(	3.82683	20.8326	9.23832	15.5463	14.8021	3.7939	8.11179	7.52011	17.336	15.9085	15.9502	15.982	13.778	17.8803	14.0011	14.3655	5.56905	87.9131	20.3348	46.3616	30.2072	4.27003	67.9078	139.483	0	3.45714	124.384	72.4011	111.729	96.5933	6.58355	84.8448	)
566			10.4531			(	4.13464	16.659	14.7006	9.06403	18.6939	5.45536	2.86868	7.06064	15.2605	21.7132	15.272	22.9833	22.9058	23.7954	9.22909	17.7951	5.62372	99.1666	0	1.42966	68.1622	0	0	153.44	0	0	0	87.3852	34.8663	122.781	0	131.846	)
583			10.3757			(	3.64628	20.4335	12.0318	12.2461	18.1691	4.84109	6.96502	7.26826	16.1677	15.9449	15.5641	18.7152	19.719	17.4906	13.0887	17.3886	5.61859	58.5639	6.0615	0	17.3376	5.82242	14.2306	148.951	1.97686	0.990907	70.6871	79.5763	58.4551	97.5387	15.9445	85.4129	)
590			10.3694			(	4.44729	17.99	12.8758	12.1537	11.0741	3.1401	6.898	7.11681	7.28536	14.3138	21.2181	15.6876	18.7613	15.1576	13.8477	16.0068	5.61735	65.0519	13.0089	44.2842	18.7767	6.52743	52.2874	119.506	4.91553	1.73822	90.0015	79.0976	86.9441	97.8598	14.6467	40.5223	)
600			10.3162			(	4.23889	12.1757	10.1579	9.89276	11.4446	6.95599	6.77179	9.69014	13.156	18.152	21.5865	15.6601	16.947	18.4754	12.8638	14.5138	5.65367	92.9583	30.4295	42.0913	25.548	5.57449	44.8635	117.952	0	18.2201	95.4594	70.5494	71.3449	105.252	10.8411	26.1658	)
601			10.2116			(	3.97137	13.5438	11.2578	20.4247	17.9388	0	13.8455	6.56489	11.19	12.8315	20.8043	18.3218	19.2214	18.4429	15.8058	19.5845	5.69007	129.68	29.2154	2.27144	0	7.33144	89.8452	89.8862	24.4658	22.276	160	39.6948	86.4625	109.376	1.6429	0	)
633			10.1286			(	4.13803	18.2617	9.60407	12.5787	20.5886	0	12.2419	10.2976	14.1635	11.9505	18.8543	20.909	20.3357	15.448	13.5164	17.077	5.54408	147.625	16.0058	0	0	8.36712	82.327	92.3405	6.91829	20.448	160	49.97	71.3623	109.337	5.11199	0	)
