{
    "ate_drug": [
        4.0,
        0.022977104737379385,
        11.943810402758242,
        12.02903391261014,
        11.997151276769523,
        11.971185974943555,
        11.971722685008023,
        12.013736085484826,
        11.992998611034992,
        11.974736535112758,
        11.970722837216474,
        11.984741059748963,
        12.00212987695665,
        11.993800858431394,
        11.995285090436845,
        24.0
    ],
    "cibi_drug": [
        3.0,
        156.6098689502503,
        158.2958979251002,
        156.6234245980239,
        158.30974488332643,
        158.3124430596693,
        156.66009962319458,
        158.34197199950626,
        158.3539718344159,
        156.7238513687314,
        158.37564420113466,
        158.38664970182572,
        156.80641680930938,
        158.43463408202734,
        158.52117642599978,
        158.64944046119044
    ],
    "inefficacy": 22.05840951049901,
    "total_drugs": 70.88267504989219,
    "objective_value": 26.940808850471647,
    "tumour_diameter": [
        19.746630672055772,
        19.754200675656676,
        19.76177161176152,
        19.769345862612646,
        19.776923043653223,
        19.784502369389653,
        19.792082069500704,
        19.799657455501457,
        19.807215787724758,
        19.81472576956975,
        19.822123672365795,
        19.829306664380287,
        19.836144200364185,
        19.842503331709896,
        19.848272313901703,
        19.853372461416516,
        19.857759074132353,
        19.86141652089352,
        19.864351693416534,
        19.866587916609163,
        19.86815999605207,
        19.86911036469047,
        19.86989704869024,
        19.871267637243015,
        19.87320563217673,
        19.875657651373974,
        19.878574732300834,
        19.881911479041076,
        19.885623681641153,
        19.889662722557556,
        19.89396456309746,
        19.8984353533036,
        19.902944373514135,
        19.90733531988032,
        19.911451736443603,
        19.91516073341837,
        19.918364838084013,
        19.921002758417696,
        19.923044236311124,
        19.924483261820168,
        19.925331760931392,
        19.92561444629385,
        19.925364794637392,
        19.92503772133952,
        19.92538190357396,
        19.9263736532437,
        19.927952606338266,
        19.930063452550726,
        19.93265503536327,
        19.935677937803934,
        19.939078870759438,
        19.942789617925914,
        19.946712474828978,
        19.950712848456952,
        19.954630296876932,
        19.958304064074447,
        19.96159714544443,
        19.964408447619235,
        19.966673663481636,
        19.9683601164442,
        19.969459882475476,
        19.969983379827678,
        19.969954131975605,
        19.96940467496916,
        19.96879208211142,
        19.96886934236682,
        19.969611715115708,
        19.970957591371732,
        19.97285051162442,
        19.97523824111365,
        19.97807030146456,
        19.98129224074891,
        19.98483441624683,
        19.988597368787033,
        19.99244465611529,
        19.996214310692096,
        19.999744624652458,
        20.002898178339116,
        20.005573799354153,
        20.00770727963057,
        20.00926610113319,
        20.010242517353042,
        20.01064711957904,
        20.010503590388968,
        20.009844606424064,
        20.0091287239026,
        20.009111216126367,
        20.00976696919528,
        20.01103389718432,
        20.012855099714447,
        20.01517793458747,
        20.01795154057142,
        20.021121095921778,
        20.024616576110365,
        20.028338107203513,
        20.03214879586109,
        20.03588621889565,
        20.039388264127705,
        20.04251719320319,
        20.045171610499093,
        20.047287169675904,
        20.048831278071784,
        20.049796159593363,
        20.050192404601045,
        20.0500437121433,
        20.04938278391615,
        20.048668470217287,
        20.0486564100526,
        20.04932134423693,
        20.050601037725556,
        20.052438457838754,
        20.054780859702554,
        20.057577345226736,
        20.060773203665565,
        20.064298780331235,
        20.068054824109733,
        20.07190507218644,
        20.075687394240273,
        20.07923950021863,
        20.082423151100745,
        20.085136351036628,
        20.087314197307553,
        20.08892364887655,
        20.089956587742947,
        20.09042335306098,
        20.090347461608292,
        20.089761484180514,
        20.089123662144818,
        20.08918867657822,
        20.08993129370944,
        20.09128935017203,
        20.093205877002465,
        20.095628186111387,
        20.098505436402974,
        20.101782977073082,
        20.105391245700222,
        20.109231142670843,
        20.113166637372984,
        20.11703588738067,
        20.120676915150526,
        20.123951758619615,
        20.126758642430854,
        20.129032813541833,
        20.130741323996123,
        20.131876098818076,
        20.132447479751114,
        20.132478955962423,
        20.13200304686045,
        20.13147689947784,
        20.131653374944545,
        20.13250725106879,
        20.133976457400127,
        20.1360041026297,
        20.13853755107501,
        20.141525954138675,
        20.14491453985397,
        20.148633426582187,
        20.152583059922048,
        20.15662708401857,
        20.160603788922984,
        20.164351820973206,
        20.167734124409517,
        20.170649832656654,
        20.173034960749057,
        20.17485712245447,
        20.17610861899603,
        20.176800015297037,
        20.176954905228996,
        20.176605823673228,
        20.176208585041785,
        20.17651370912065,
        20.177495923014124,
        20.179093224897784,
        20.181248787370436,
        20.183910034652527,
        20.187026183198988,
        20.19054254611568,
        20.194389385072576,
        20.198467393903563,
        20.2026405941892,
        20.206747746018895,
        20.210627974594356,
        20.21414463303853,
        20.21719715330003,
        20.219721734661373,
        20.221686076325796,
        20.223082487207346,
        20.223921481851747,
        20.224226562024693,
        20.224030141234692,
        20.223786510929465,
        20.224243629296772,
        20.225376249142112,
        20.227122532472517,
        20.2294258094344,
        20.232233671338317,
        20.235495555975305,
        20.239157150674178,
        20.243149388625792,
        20.247373965635312,
        20.25169601399071,
        20.255955121593328,
        20.259990751242967,
        20.263666182695584,
        20.26688054602683,
        20.26956966728528,
        20.271700881078374,
        20.27326616786601,
        20.27427575359197,
        20.274752886629326,
        20.274729758334125,
        20.27465904999363,
        20.27528617054346,
        20.27658600165393,
        20.278496958069745,
        20.280962602212256,
        20.283930739781,
        20.28735101413278,
        20.29116933074395,
        20.295316885432847,
        20.29969574184166,
        20.30417151723703,
        20.30858436718729,
        20.312774317320866,
        20.316605116290365,
        20.319976249888004,
        20.322823767452615,
        20.32511512674437,
        20.32684234727056,
        20.32801563267363,
        20.328658164798682,
        20.328802037860545,
        20.328898449578798,
        20.32969039352908,
        20.3311528237425,
        20.33322433765226,
        20.33584865931418,
        20.33897372566596,
        20.342549251907908,
        20.346521096469683,
        20.35082022803423,
        20.355348352931667,
        20.359970870579016,
        20.36452814982147,
        20.368860899809246,
        20.372833805193263,
        20.376347267753484,
        20.379338096353692,
        20.38177429631234,
        20.383648246432035,
        20.384970356723446,
        20.38576389920944,
        20.386060971890238,
        20.386311494206094,
        20.38725624806985,
        20.388870167659118,
        20.39109194287482,
        20.3938653840878,
        20.39713851067797,
        20.400861121527456,
        20.40497917630111,
        20.409423792734394,
        20.414096912584785,
        20.418864273977242,
        20.423566658783773,
        20.428045186220277,
        20.43216487872931,
        20.435826379976504,
        20.438966641815835,
        20.441553730008987,
        20.443580019459233,
        20.445055870507517,
        20.446004473227173,
        20.446457821814477,
        20.44686468540473,
        20.447963926500726,
        20.449730511192257,
        20.452103266368248,
        20.45502613626857,
        20.45844728463451,
        20.462316709448693,
        20.466580706735826,
        20.471171008349625,
        20.475990458842947,
        20.480905763557413,
        20.485758362878443,
        20.490389555989292,
        20.494664154432073,
        20.498482406153585,
        20.501780832175502,
        20.50452710548684,
        20.50671326927653,
        20.50834940999109,
        20.509458492961837,
        20.510072329112777,
        20.510638668941304,
        20.51189481768012,
        20.51381585549632,
        20.51634079981673,
        20.51941376923151,
        20.52298308933916,
        20.52699891298241,
        20.531407694485033,
        20.536141348393528,
        20.541102957371347,
        20.546159532140532,
        20.551152852267748,
        20.555924545513022,
        20.560339696337238,
        20.56429875563289,
        20.56773836767112,
        20.57062627637258,
        20.572954547947088,
        20.574733258605534,
        20.575985340116326,
        20.576742553490757,
        20.577451894801833,
        20.57884947002917,
        20.58091040855659,
        20.583573826382324,
        20.586783928197413,
        20.59048910034565,
        20.594639499942236,
        20.59918147106257,
        20.60404661013797,
        20.60913751710796,
        20.614320785155353,
        20.619438158140195,
        20.624331669397762,
        20.628867078435842,
        20.632945565286857,
        20.636504395588187,
        20.639511783688768,
        20.641960125795183,
        20.643859710855203,
        20.645233593310277,
        20.646113589218483,
        20.64694622493606,
        20.648466742101714,
        20.65065022243654,
        20.653435779217823,
        20.656767615936488,
        20.660594120436112,
        20.664865455187062,
        20.66952797824292,
        20.674513320147927,
        20.679724145415612,
        20.685027148650654,
        20.69026419539594,
        20.695277434898394,
        20.699932723396334,
        20.704131289977965,
        20.707810427857464,
        20.71093835278362,
        20.713507442856827,
        20.715527956274116,
        20.71702290886013,
        20.718024072975496,
        20.718977674405906,
        20.720618443306392,
        20.722921457458384,
        20.725825861705406,
        20.72927589650005,
        20.73322000441285,
        20.737608455000544,
        20.74238784737456,
        20.74749029114237,
        20.75281915862944,
        20.75824184823427,
        20.763600583311284,
        20.768737395681967,
        20.773517686580714,
        20.777842110089864,
        20.781647421251066,
        20.78490138988654,
        20.787596053058177,
        20.78974141897282,
        20.791360326008245,
        20.792484425896777,
        20.793559784321832,
        20.795320989409593,
        20.797743193667472,
        20.800765621831744,
        20.804332588972624,
        20.80839260653908,
        20.81289601231659,
        20.81778947430719,
        20.823005180904858,
        20.828446592561313,
        20.8339811907859,
        20.839451251457895,
        20.844698827320997,
        20.84958931249934,
        20.854023345901116,
        20.857937660314246,
        20.861300013905836,
        20.864102436060577,
        20.866354932562384,
        20.86808034369858,
        20.86931032712365,
        20.870491051275
    ]
}