{
    "ate_drug": [
        4.52543,
        8.82394,
        0.709433,
        17.6524,
        7.57845,
        7.96803,
        17.4242,
        7.06212,
        20.9779,
        22.6861,
        6.74025,
        8.72325,
        1.89649,
        1.30052,
        13.1946,
        14.6486
    ],
    "cibi_drug": [
        5.65802,
        27.6652,
        73.3668,
        65.6067,
        74.1377,
        106.511,
        143.4,
        153.749,
        25.4169,
        4.20258,
        141.582,
        127.91,
        63.7236,
        88.2353,
        41.3835,
        41.484
    ],
    "inefficacy": 17.855897469006287,
    "total_drugs": 26.80537354166667,
    "objective_value": 18.750845076272327,
    "tumour_diameter": [
        19.746629774934462,
        19.754168132236455,
        19.761702544537716,
        19.769241210230707,
        19.776779860147094,
        19.78430673106939,
        19.791792904920296,
        19.799178476549358,
        19.806364459332684,
        19.8132221037848,
        19.81961736276331,
        19.825435332241756,
        19.830593471106297,
        19.835043459171448,
        19.838766682076695,
        19.84176772973728,
        19.844068227934834,
        19.84570174763257,
        19.846709862916747,
        19.84713903010898,
        19.84703801311721,
        19.84645572303252,
        19.845439513269323,
        19.844033998435105,
        19.84228038273409,
        19.840216197104393,
        19.83787531494942,
        19.83528813252369,
        19.83248183166381,
        19.82948067251802,
        19.826306288014372,
        19.822977959317292,
        19.819512872661036,
        19.815926349482247,
        19.812232052684735,
        19.808442170198024,
        19.804567577999023,
        19.800617984558247,
        19.79660205897616,
        19.79252754457655,
        19.78840135972528,
        19.784229687819632,
        19.780018056149032,
        19.77614124142869,
        19.77322664047519,
        19.771218694317827,
        19.770032641732687,
        19.769589879601988,
        19.769814908129995,
        19.770628073485195,
        19.771932635736817,
        19.773600469006464,
        19.77546897822657,
        19.777357463735402,
        19.77909406595874,
        19.780537090542108,
        19.781583536957804,
        19.78216759822425,
        19.782254524646888,
        19.78183356093042,
        19.78091169801789,
        19.779508649521873,
        19.777652917239724,
        19.775378620158982,
        19.77272282990661,
        19.769723361528197,
        19.76641707051945,
        19.762838725608937,
        19.759020382039196,
        19.754991139556402,
        19.750777149585442,
        19.74640176580345,
        19.741885763465614,
        19.73724758324904,
        19.732503573939113,
        19.727668221129782,
        19.722754356646963,
        19.717773346375893,
        19.71273525578656,
        19.70764900827956,
        19.702522500774787,
        19.697362730897126,
        19.6921758964497,
        19.686967485837865,
        19.681742361467204,
        19.676882890485093,
        19.673030387450446,
        19.670127036260972,
        19.668084898863977,
        19.666822091521585,
        19.666259140790707,
        19.666310586492585,
        19.666870980253258,
        19.667801438787148,
        19.66893003211508,
        19.670071561858435,
        19.67105491050848,
        19.671742344481096,
        19.672035810872405,
        19.67187410743016,
        19.671226235179315,
        19.670084302548172,
        19.668457397864035,
        19.666366718952,
        19.663841750547448,
        19.660917158085095,
        19.657630172613807,
        19.654018439869418,
        19.650118410570585,
        19.64596429753228,
        19.64158752560037,
        19.63701654263237,
        19.63227685995479,
        19.627391219890644,
        19.622379825935134,
        19.617260584928385,
        19.612049351653663,
        19.606760154413458,
        19.601405401166055,
        19.59599606513573,
        19.590541846027598,
        19.58505132591712,
        19.57953208300883,
        19.573990815867994,
        19.568433441115758,
        19.562865181981138,
        19.55729064693905,
        19.5520939365842,
        19.5479160680771,
        19.5446982560411,
        19.542352544647592,
        19.540798107597826,
        19.539959403235752,
        19.53976163170435,
        19.54012124492585,
        19.54093131995128,
        19.542049750972012,
        19.543303535358852,
        19.544511373051872,
        19.54551046404205,
        19.5461733250773,
        19.546411897186537,
        19.546173616148145,
        19.545434497519917,
        19.544192177387703,
        19.54246004105003,
        19.54026259408164,
        19.537631820304092,
        19.534604195969482,
        19.53121818256662,
        19.527512181888827,
        19.523523056457083,
        19.51928520121556,
        19.514830084685677,
        19.51018612274342,
        19.505378757906882,
        19.50043065177279,
        19.495361921305758,
        19.49019039273648,
        19.48493184488396,
        19.47960023579432,
        19.474207908393293,
        19.468765774288794,
        19.46328347899482,
        19.45776954402093,
        19.452231497282927,
        19.446675985424346,
        19.441108873783783,
        19.43553533482431,
        19.430339466717232,
        19.426160063964158,
        19.42293847906059,
        19.420587341769053,
        19.41902667780232,
        19.41818264494696,
        19.417984523207142,
        19.418358050909173,
        19.419213102212687,
        19.420429022090545,
        19.421849617778328,
        19.42329754174311,
        19.4246010587765,
        19.425616739722216,
        19.42623946510533,
        19.426401775288376,
        19.42606796541052,
        19.425226984231085,
        19.423886017405117,
        19.42206530837036,
        19.419794112274907,
        19.417107453609272,
        19.414043426308996,
        19.41064093044122,
        19.40693793430782,
        19.40297029214635,
        19.398771081355406,
        19.39437033615696,
        19.389795043981728,
        19.38506929596105,
        19.380214506513987,
        19.375249666084905,
        19.37019159064339,
        19.36505515846632,
        19.35985352686552,
        19.354598326478456,
        19.34929983961798,
        19.343967147564857,
        19.338608272430314,
        19.33323029624083,
        19.327839467645113,
        19.322441295819175,
        19.317410667416368,
        19.313383496361713,
        19.310303487013034,
        19.30807984001377,
        19.306620618808502,
        19.305821506192604,
        19.305550959636943,
        19.30564333315739,
        19.305910821978465,
        19.306169296842462,
        19.306261807340356,
        19.306069875544335,
        19.30551369091775,
        19.304546537369255,
        19.303147688692615,
        19.30131585914745,
        19.299063863808417,
        19.29641443707619,
        19.29339689107316,
        19.290044330730705,
        19.28639132020691,
        19.28247205046041,
        19.278319072216394,
        19.273962546101394,
        19.269429914571848,
        19.26474584655874,
        19.25993234698676,
        19.25500894995911,
        19.249992944765786,
        19.244899608253398,
        19.239742422421074,
        19.234533278696897,
        19.2292826601124,
        19.22399980423726,
        19.218692847229814,
        19.21336895162901,
        19.208034418672725,
        19.20269478817103,
        19.197354924781227,
        19.192019096502495,
        19.18669104261975,
        19.18137403401328,
        19.17641050350046,
        19.17241099235981,
        19.16930166081962,
        19.166931957939507,
        19.16511760193163,
        19.16365402730474,
        19.162341997665173,
        19.161010765992884,
        19.15952913413726,
        19.157805516511864,
        19.15578231087278,
        19.15342875206531,
        19.150734327699983,
        19.147703395948042,
        19.144350956659455,
        19.140699261761647,
        19.13677498125479,
        19.132606825802423,
        19.128223672014794,
        19.123653250146187,
        19.11892135915819,
        19.114051494819044,
        19.10906475919582,
        19.10397993221478,
        19.09881363381626,
        19.093580519897298,
        19.08829348583344,
        19.082963861849812,
        19.077601593349684,
        19.07221540337008,
        19.066812937383155,
        19.06140089123296,
        19.055985123983465,
        19.050570757153565,
        19.045162261030057,
        19.039763551686292,
        19.03437798421693,
        19.029008526747642,
        19.023657727548713,
        19.018327795752132,
        19.013020628477133,
        19.007737852511617,
        19.002841833547087,
        18.998937371387427,
        18.995966552542132,
        18.99384438396487,
        18.99249296997361,
        18.991840102065453,
        18.991815845750036,
        18.99234510438256,
        18.993334693291015,
        18.99465982930271,
        18.99616251613708,
        18.99766885851348,
        18.99901545568835,
        19.000069314306305,
        19.000735202790317,
        19.000953631971537,
        19.00069465779214,
        18.999951018036402,
        18.99873211753213,
        18.997059226072498,
        18.994961724234226,
        18.99247407140386,
        18.989633262855985,
        18.98647672929992,
        18.983040747866696,
        18.97935939888165,
        18.975464006209727,
        18.971382937471375,
        18.96714163494065,
        18.96276277967778,
        18.958266511784466,
        18.953670676142988,
        18.948991062481404,
        18.944241630214457,
        18.9394347147476,
        18.934581211675873,
        18.929690742956108,
        18.924771799879675,
        18.91983187437473,
        18.914877572114136,
        18.909914713185188,
        18.904948421125116,
        18.90034489103554,
        18.896717674620273,
        18.894011173459493,
        18.892140903607075,
        18.89102810258688,
        18.890596115051952,
        18.89076214312824,
        18.891423766604547,
        18.892446514584286,
        18.893665201011824,
        18.894903463622484,
        18.895999651199674,
        18.89682451978833,
        18.897286621228336,
        18.897329281957163,
        18.896924183645755,
        18.896064633077447,
        18.894759790008255,
        18.89303009087913,
        18.890903659148783,
        18.88841338055908,
        18.885594443033767,
        18.88248232536069,
        18.879111296772948,
        18.8755134601065,
        18.871718253167867,
        18.86775228555315,
        18.86363938707773,
        18.85940077257838,
        18.855055260467648,
        18.85061950637092,
        18.84610823268528,
        18.841534442397577,
        18.836909613996042,
        18.832243875657635,
        18.827546159532396,
        18.822824344001393,
        18.818085367053087,
        18.813335339151994,
        18.80857963661782,
        18.803822984456513,
        18.79906953215995,
        18.79467718528236,
        18.791249307729856,
        18.788731117773686,
        18.787038084310396,
        18.786089306120445,
        18.785801091991033,
        18.786074838493004,
        18.786783245915945,
        18.7877666665277,
        18.78884794619718,
        18.789857940620877,
        18.79065618679161,
        18.791139419985896,
        18.79124035435771,
        18.79092185321135,
        18.79017015903389,
        18.788988838273294,
        18.787393925668578,
        18.78541011567916,
        18.783067699671854,
        18.780400001581125,
        18.777441243109553
    ]
}