{
    "ate_drug": [
        4.52543,
        8.82394,
        0.709433,
        17.6524,
        7.57845,
        7.96803,
        17.4242,
        7.06212,
        20.9779,
        22.6861,
        6.74025,
        8.72325,
        1.89649,
        1.30052,
        13.1946,
        14.6486
    ],
    "cibi_drug": [
        5.65802,
        27.6652,
        73.3668,
        65.6067,
        74.1377,
        106.511,
        143.4,
        153.749,
        25.4169,
        4.20258,
        141.582,
        127.91,
        63.7236,
        88.2353,
        41.3835,
        41.484
    ],
    "inefficacy": 30.7932441209406,
    "total_drugs": 26.80537354166667,
    "objective_value": 30.394457063013206,
    "tumour_diameter": [
        21.497143783478737,
        21.510699831623985,
        21.523688201066154,
        21.536311454413536,
        21.54871794801899,
        21.560980189209932,
        21.573115180952385,
        21.585102334257133,
        21.59689547824246,
        21.608436971418648,
        21.619674918842634,
        21.630575664276186,
        21.64112616339492,
        21.65132945604491,
        21.661198725604653,
        21.670752651437688,
        21.680012408067427,
        21.688999871789278,
        21.69773660849509,
        21.706243314826555,
        21.714539530207727,
        21.72264350700444,
        21.730572174499276,
        21.73834115998972,
        21.74596483575726,
        21.753456389807234,
        21.760827902010742,
        21.768090423935558,
        21.775254058112214,
        21.78232803465438,
        21.78932078591244,
        21.796240012685352,
        21.803092749923188,
        21.809885425401987,
        21.816623914543612,
        21.823313588935385,
        21.829959364492698,
        21.836565740944923,
        21.843136840485837,
        21.849676442590006,
        21.856188015313325,
        21.862674743864773,
        21.86913955674069,
        21.875598039658357,
        21.882143135749725,
        21.888921500298633,
        21.896044988070898,
        21.90355597566608,
        21.9114460533318,
        21.919675948444166,
        21.928184545252204,
        21.93689269621789,
        21.945709453877434,
        21.95454494517958,
        21.963325301539367,
        21.972000460725443,
        21.980542570548014,
        21.988939918828734,
        21.997190983167016,
        22.005300165831862,
        22.013275098951457,
        22.021125022857742,
        22.028859825266792,
        22.036489476871697,
        22.044023701803965,
        22.05147179271958,
        22.058842509632278,
        22.066144036791655,
        22.073383970702682,
        22.080569329833793,
        22.087706576689644,
        22.094801647691607,
        22.101859981838643,
        22.108886558566113,
        22.115885931798008,
        22.122862263736526,
        22.129819357089016,
        22.136760685489676,
        22.143689421596566,
        22.15060846410054,
        22.15752046102918,
        22.164427832747503,
        22.171332792227464,
        22.17823736372361,
        22.185143399847924,
        22.192065146176088,
        22.19909214279588,
        22.206365856092308,
        22.21399340411348,
        22.222013963564336,
        22.230416928572186,
        22.23916115860908,
        22.248183810963145,
        22.257404752788183,
        22.266734089790255,
        22.2760858018325,
        22.285391576268417,
        22.29460653423223,
        22.303706422479774,
        22.312681494164934,
        22.321531004853636,
        22.330259390488113,
        22.338873887664253,
        22.347383106419674,
        22.355796185506254,
        22.36412229573942,
        22.372370351149204,
        22.38054884502372,
        22.388665764932046,
        22.39672855500007,
        22.404744108216104,
        22.412718777184725,
        22.420658395980876,
        22.42856830827093,
        22.436453398934866,
        22.44431812623841,
        22.452166554536554,
        22.460002385667153,
        22.467828988958672,
        22.475649429504436,
        22.48346649457329,
        22.491282718003447,
        22.499100402822513,
        22.506921642057545,
        22.514748337700933,
        22.522582218100627,
        22.53042485385182,
        22.53828966288113,
        22.546261983061182,
        22.55447731815995,
        22.563039516228283,
        22.57198885183663,
        22.58131990747981,
        22.591000765567355,
        22.60098170202756,
        22.611197564560285,
        22.621569782456426,
        22.632013567100834,
        22.642451018978992,
        22.65282294182505,
        22.663092333157806,
        22.67324063465428,
        22.683261827542,
        22.69315749437997,
        22.702933497237545,
        22.712597933627304,
        22.72215992030423,
        22.731628877952733,
        22.741014113489214,
        22.750324582664003,
        22.759568757157517,
        22.76875456164934,
        22.77788934986972,
        22.786979906578598,
        22.796032464911672,
        22.80505273280343,
        22.814045924253364,
        22.823016792987957,
        22.831969666462484,
        22.84090847933271,
        22.849836805616867,
        22.85875788916087,
        22.86767467233773,
        22.87658982205892,
        22.885505755091348,
        22.894424660217563,
        22.903348519055996,
        22.912279125050322,
        22.92121810080167,
        22.930178301921284,
        22.93924080119824,
        22.94853445776175,
        22.95815855075587,
        22.968152595789796,
        22.9785135622417,
        22.9892145305331,
        23.000213356532118,
        23.011454761992297,
        23.022870503222876,
        23.03438267280424,
        23.045913487027555,
        23.05739806231688,
        23.068791949397813,
        23.08007041082965,
        23.091223289255428,
        23.10224968423917,
        23.113154064129077,
        23.123943790619986,
        23.134627630145097,
        23.145214876088755,
        23.155714836031166,
        23.166136538247553,
        23.176488565160014,
        23.18677897017681,
        23.197015241411183,
        23.207204296198686,
        23.21735249401911,
        23.227465660343515,
        23.23754911698727,
        23.247607714751584,
        23.257645867841195,
        23.267667587574376,
        23.277676515070283,
        23.287675952340642,
        23.297668891574695,
        23.307658042200607,
        23.31764585633635,
        23.3276345519367,
        23.337626134154075,
        23.34762241490877,
        23.35762503072364,
        23.367646164273506,
        23.377761852343607,
        23.388089771136187,
        23.398714264212288,
        23.409658035116056,
        23.420897050343495,
        23.432377016995282,
        23.444025126995317,
        23.45576324565498,
        23.46752257096273,
        23.47925299843056,
        23.49092381981615,
        23.50251926196249,
        23.514033341650293,
        23.52546596121361,
        23.536820377476573,
        23.54810165761006,
        23.559315755832703,
        23.5704689626955,
        23.5815675773353,
        23.592617714615532,
        23.603625195054907,
        23.614595486853126,
        23.62553367930151,
        23.63644447782271,
        23.647332211128923,
        23.658200846291106,
        23.669054008252125,
        23.67989500164684,
        23.690726833459298,
        23.701552235688506,
        23.712373687376,
        23.723193435522703,
        23.734013515042587,
        23.74483576718689,
        23.755661856875275,
        23.76649328752899,
        23.777331416428936,
        23.78817746798854,
        23.799032546012413,
        23.809897644951473,
        23.82077366002464,
        23.831671300537483,
        23.842657675570614,
        23.85382363901754,
        23.86521269671072,
        23.876806219881853,
        23.88854933169248,
        23.900379849142947,
        23.912246623043725,
        23.924114953424702,
        23.93596419121012,
        23.94778338759364,
        23.95956768584048,
        23.97131589507499,
        23.983028978681904,
        23.994709130105832,
        24.00635920822021,
        24.017982388748283,
        24.02958194904062,
        24.04116113504223,
        24.052723080621348,
        24.06427076052673,
        24.075806965304057,
        24.08733429027936,
        24.098855133925472,
        24.11037170200015,
        24.12188601535846,
        24.13339991988716,
        24.144915097552044,
        24.156433077970767,
        24.167955249174497,
        24.17948286929302,
        24.191017077160318,
        24.202558902437104,
        24.214109275060625,
        24.225669034039072,
        24.237238937942397,
        24.248819662983514,
        24.260411823869664,
        24.272015970833746,
        24.28363259766644,
        24.295262146938626,
        24.306905014874836,
        24.31857167564968,
        24.330333397837926,
        24.34230410944867,
        24.354571449925075,
        24.367169764245396,
        24.380095288748933,
        24.393322591300887,
        24.406812119184917,
        24.420512038396105,
        24.434358844346068,
        24.44828143134303,
        24.462210885195535,
        24.476091632404138,
        24.489886801535512,
        24.503576513114275,
        24.517153042483113,
        24.530616248167075,
        24.54397034556611,
        24.557221880282043,
        24.57037851382861,
        24.58344830738392,
        24.596439303672838,
        24.609359284581007,
        24.622215637946955,
        24.635015288903098,
        24.647764671790878,
        24.660469727074354,
        24.673135913539422,
        24.685768229614943,
        24.69837123962957,
        24.71094910274436,
        24.723505602439147,
        24.736044175794497,
        24.748567941703644,
        24.761079727749618,
        24.773582095448113,
        24.786077363604637,
        24.79856763023511,
        24.811054792550074,
        24.82354056538469,
        24.83602649740909,
        24.848513988113083,
        24.861014190758585,
        24.873597621345276,
        24.88637574764648,
        24.89943291868254,
        24.91279981952605,
        24.926467739725613,
        24.940403705132983,
        24.9545574452562,
        24.968865005345886,
        24.983254977669652,
        24.997659482327308,
        25.0120249822027,
        25.026316502934492,
        25.04051522294825,
        25.054613615740088,
        25.06861114024507,
        25.082511272451452,
        25.096319655350886,
        25.110042990890175,
        25.123688383865208,
        25.137262955674544,
        25.15077361978321,
        25.164226955012072,
        25.17762913945553,
        25.19098592153852,
        25.204302614576793,
        25.217584105723983,
        25.230834873580733,
        25.24405901064792,
        25.257260248403803,
        25.270441983230395,
        25.28360730209336,
        25.29675900760024,
        25.3098996417908,
        25.323031508557385,
        25.33615669488646,
        25.349277089085355,
        25.362394400307814,
        25.375510174000652,
        25.388625807168104,
        25.40174256214161,
        25.414861579118526,
        25.427993664233046,
        25.441208258873843,
        25.45461453798364,
        25.46829356951149,
        25.482272038123018,
        25.496535959888657,
        25.511045268985033,
        25.525741577716477,
        25.54055506523029,
        25.555415202271345,
        25.570262814709622,
        25.585056711406587,
        25.599772901145506,
        25.61440008411508,
        25.62893507577622,
        25.643379481327525,
        25.65773757661347,
        25.672015027568577,
        25.686218126490445,
        25.700353339153374,
        25.714427037582617,
        25.72844534572869
    ]
}