{
    "ate_drug": [
        4.6,
        24.0,
        4.0,
        4.0,
        4.0,
        4.0,
        4.0,
        4.0,
        4.0,
        4.0,
        1.5,
        4.05,
        1.5,
        1.5,
        4.0,
        4.0
    ],
    "cibi_drug": [
        3.4,
        160.0,
        160.0,
        160.0,
        140.0,
        140.0,
        140.0,
        140.0,
        140.0,
        140.0,
        140.0,
        140.0,
        140.0,
        140.0,
        140.0,
        140.0
    ],
    "inefficacy": 20.998961554406094,
    "total_drugs": 53.71527777777778,
    "objective_value": 24.270593176743265,
    "tumour_diameter": [
        28.49818449653723,
        28.529973229289403,
        28.56142285525805,
        28.59251283410008,
        28.62322508084489,
        28.653543740532303,
        28.68345498301204,
        28.71294681581978,
        28.742008912230265,
        28.770632461273003,
        28.798810017015192,
        28.826535374970856,
        28.853803452656553,
        28.880610182142767,
        28.906952412078972,
        28.932827818432813,
        28.958234822907865,
        28.983172516429242,
        29.007640579507513,
        29.031639177113863,
        29.055168810392995,
        29.0782301621248,
        29.100824964113205,
        29.122955937750753,
        29.144625289656453,
        29.16583549902977,
        29.186589291364108,
        29.206889609750597,
        29.22673958883695,
        29.24614253050746,
        29.265101885151648,
        29.28362122821903,
        29.30170424534374,
        29.31935471568083,
        29.336576497567048,
        29.353373515440133,
        29.36974974529448,
        29.385709205518772,
        29.40125594634594,
        29.416394018006635,
        29.431127391835005,
        29.445459807658985,
        29.45939461318,
        29.472936209412705,
        29.48608999261057,
        29.498860040879837,
        29.51125041177792,
        29.52326514693163,
        29.53490826857496,
        29.546183776569563,
        29.55709564561618,
        29.56764782349389,
        29.577844228052175,
        29.587688746108746,
        29.597185231676153,
        29.606337504627,
        29.61514934951844,
        29.62362451448087,
        29.63176670951318,
        29.639579600403703,
        29.647066781294203,
        29.65423168232559,
        29.661077383142334,
        29.667606419481956,
        29.67382264317184,
        29.679731143613346,
        29.685335296784185,
        29.690638431561577,
        29.695643840280905,
        29.70035477859887,
        29.70477446539776,
        29.708906069799426,
        29.712752721888798,
        29.716317527555564,
        29.719603556277146,
        29.722613841273304,
        29.725351379670307,
        29.727819132765568,
        29.730020026091566,
        29.73195694866769,
        29.733632746911617,
        29.735050193275875,
        29.736211878683726,
        29.737119995477514,
        29.737776114602614,
        29.738183360522033,
        29.738346314426902,
        29.7382675698709,
        29.73794967950899,
        29.737395167625643,
        29.736606530240497,
        29.735586235200223,
        29.734336721456142,
        29.732860402574314,
        29.73115966194498,
        29.729236856287386,
        29.72709431504306,
        29.724734340604492,
        29.722159208535437,
        29.719371167606965,
        29.716372439068437,
        29.71316520950188,
        29.709751595867832,
        29.70613352543054,
        29.7023124944598,
        29.698289322046744,
        29.694066548981745,
        29.689648343858035,
        29.685036696138308,
        29.68023356184479,
        29.675240877404306,
        29.670060559551803,
        29.664694505317836,
        29.659144591689163,
        29.653412676843384,
        29.647500598425673,
        29.64141017478266,
        29.635143204775424,
        29.628701467829792,
        29.622086724056466,
        29.615300713486427,
        29.608345156676336,
        29.601221740244306,
        29.593932067985154,
        29.586477502642246,
        29.578858887835114,
        29.571076312771748,
        29.563132072838638,
        29.555030389297833,
        29.546772800542506,
        29.53836081571999,
        29.529795931374885,
        29.52107963118056,
        29.512213385723925,
        29.50319865187126,
        29.494036874669018,
        29.484729484164117,
        29.475277897393916,
        29.465683517851314,
        29.455947735433963,
        29.446071926385788,
        29.436057431508093,
        29.42590557204546,
        29.415617662237114,
        29.4051949340261,
        29.39463837174714,
        29.383948416002823,
        29.37312471774224,
        29.362169265329367,
        29.351086086245996,
        29.33987638033056,
        29.328541322136935,
        29.31708207834417,
        29.305499807414545,
        29.293795659274167,
        29.281970774666576,
        29.270026286591353,
        29.257963317592278,
        29.245782981286794,
        29.233486381836695,
        29.221074613815134,
        29.208548762085645,
        29.19590990141552,
        29.183159094388763,
        29.170297379023392,
        29.15732571196476,
        29.144244794403168,
        29.13105476629525,
        29.117754949597213,
        29.104347105000937,
        29.09083511951127,
        29.077219940059074,
        29.063502490974543,
        29.049683692083462,
        29.035764458306854,
        29.021745699296982,
        29.007628296098655,
        28.993413120015624,
        28.9791010583156,
        28.964692992115335,
        28.950189796150234,
        28.935592338609002,
        28.920901480939502,
        28.906118077202045,
        28.891242972608495,
        28.876276989536265,
        28.86122086957134,
        28.846075093664755,
        28.830839567118744,
        28.815513355846836,
        28.800098042462594,
        28.784597402625668,
        28.7690121855665,
        28.753343119911055,
        28.73759093227014,
        28.721756346781742,
        28.705840084716066,
        28.689842863892157,
        28.67376539924083,
        28.657608401195095,
        28.641372576350356,
        28.62505862700937,
        28.608667250991786,
        28.592199141424913,
        28.575654986243894,
        28.559035465925195,
        28.54234124028094,
        28.525572888291403,
        28.508730724252406,
        28.491814475797508,
        28.474823015109546,
        28.45775776617262,
        28.440622392228036,
        28.423417487827265,
        28.40614362854795,
        28.38880138995592,
        28.371391347098598,
        28.353914074051964,
        28.33637014353011,
        28.318760126515198,
        28.301084591944473,
        28.283344106421573,
        28.265539233976988,
        28.247670535825954,
        28.229738570124955,
        28.211743891457544,
        28.193687048432206,
        28.17556857028148,
        28.15738890553285,
        28.13914823498499,
        28.120846144639934,
        28.102481353316147,
        28.084055199539936,
        28.06557130201082,
        28.047030139638633,
        28.028432173351508,
        28.009777865336424,
        27.991067678546404,
        27.972302076236613,
        27.953481521465992,
        27.934606477108428,
        27.915677404959958,
        27.89669476582758,
        27.877659019173397,
        27.858570622876325,
        27.839430032975926,
        27.820237678635255,
        27.800993980088677,
        27.78169936263342,
        27.76235417115934,
        27.742958480801768,
        27.72351176630082,
        27.704012627307662,
        27.684462314601095,
        27.66486438523644,
        27.645219222623012,
        27.62552719310917,
        27.605788665435433,
        27.586004010197858,
        27.5661735993646,
        27.546297805844336,
        27.526377003114714,
        27.506411564843113,
        27.486401864606933,
        27.466348275594832,
        27.446251170356042,
        27.426110920516763,
        27.405927896242975,
        27.385702463748245,
        27.36543497156354,
        27.34512568781966,
        27.324774609370266,
        27.304381128816075,
        27.283943758626677,
        27.263463683420454,
        27.242944411043936,
        27.22238625341138,
        27.201789506035954,
        27.181154467608867,
        27.160481439469134,
        27.13977072511754,
        27.11902260999528,
        27.098237377351072,
        27.077415330561315,
        27.056556773777462,
        27.035662011630937,
        27.014731348938486,
        26.993765090416062,
        26.9727635401031,
        26.951726998870143,
        26.930655750538843,
        26.909549998827586,
        26.88840967547464,
        26.867234106045263,
        26.84602173356427,
        26.82477368575064,
        26.803493423077832,
        26.782181197748045,
        26.76083724614714,
        26.73946180848488,
        26.718055128255553,
        26.696617451736294,
        26.67514902757125,
        26.65365010630778,
        26.6321209401197,
        26.610561782436392,
        26.588972887654414,
        26.56735451087628,
        26.545706907619532,
        26.524030333255663,
        26.502325040476723,
        26.480591265448318,
        26.458829164505758,
        26.43703862187017,
        26.41521891510502,
        26.393368439041204,
        26.371488240795873,
        26.349581697130414,
        26.32764900865,
        26.305690360872745,
        26.28370594384871,
        26.261695951589594,
        26.23966058154569,
        26.21760003414083,
        26.195514512324635,
        26.17340422122552,
        26.151269367783538,
        26.129110160436248,
        26.106926808836498,
        26.084719523542365,
        26.06248851552662,
        26.04023399328075,
        26.01795614943779,
        25.99565509707765,
        25.973330677494765,
        25.950982126008412,
        25.928607796776877,
        25.906208733043286,
        25.88378831192989,
        25.8613467012224,
        25.838884053770446,
        25.816400527127048,
        25.79389628298973,
        25.771371486712017,
        25.748826306877632,
        25.726260914789883,
        25.703675484263364,
        25.681070191193612,
        25.658445213278956,
        25.635800729751573,
        25.613136921077082,
        25.59045392817636,
        25.56775188337187,
        25.54503094171449,
        25.5222911794461,
        25.499532402020794,
        25.476753810916403,
        25.453953729777,
        25.431133165296746,
        25.408295451507747,
        25.38544072227253,
        25.362569096942583,
        25.339680699910048,
        25.316775660046325,
        25.293854110189763,
        25.2709161867072,
        25.24796202897866,
        25.224991779167148,
        25.202005581780693,
        25.1790035833829,
        25.15598593231099,
        25.13295277836926,
        25.109904272416276,
        25.086840563176427,
        25.063761784361276,
        25.04066799092398,
        25.017558967960532,
        24.994433899126836,
        24.971291094589926,
        24.948131536879696,
        24.924958525212674,
        24.90177217272016,
        24.878572578244274,
        24.85535984582026,
        24.832134084129194,
        24.808895406005817,
        24.785643882331186,
        24.76237958002859,
        24.739102612295003,
        24.715813095159195,
        24.692511147135928,
        24.669196888908967,
        24.64587044299916,
        24.622531933163238,
        24.599181481839498,
        24.57581919633117,
        24.552445105953133,
        24.529058971737477,
        24.505659956835856,
        24.482246356630178,
        24.458819124374376
    ]
}