{
    "synthesized_therapy": {
        "ate_freq_in": 4.52543,
        "ate_m10_in": 6.74025,
        "ate_m11_in": 8.72325,
        "ate_m12_in": 1.89649,
        "ate_m13_in": 1.30052,
        "ate_m14_in": 13.1946,
        "ate_m15_in": 14.6486,
        "ate_m1_in": 8.82394,
        "ate_m2_in": 0.709433,
        "ate_m3_in": 17.6524,
        "ate_m4_in": 7.57845,
        "ate_m5_in": 7.96803,
        "ate_m6_in": 17.4242,
        "ate_m7_in": 7.06212,
        "ate_m8_in": 20.9779,
        "ate_m9_in": 22.6861,
        "cibi_freq_in": 5.65802,
        "cibi_m10_in": 141.582,
        "cibi_m11_in": 127.91,
        "cibi_m12_in": 63.7236,
        "cibi_m13_in": 88.2353,
        "cibi_m14_in": 41.3835,
        "cibi_m15_in": 41.484,
        "cibi_m1_in": 27.6652,
        "cibi_m2_in": 73.3668,
        "cibi_m3_in": 65.6067,
        "cibi_m4_in": 74.1377,
        "cibi_m5_in": 106.511,
        "cibi_m6_in": 143.4,
        "cibi_m7_in": 153.749,
        "cibi_m8_in": 25.4169,
        "cibi_m9_in": 4.20258
    },
    "tumour_diameter": 21.466778036236867,
    "total_drugs": 26.80537354166667,
    "objective": 17.031973447822992,
    "inefficacy": 15.946040104062583
}