======= APRICOPT =========

=== Optimization through COPASI solver ===


Solver settings: 

Method: Scatter Search
    Log Verbosity: 0
    Number of Iterations: 500
    Random Number Generator: 1
    Seed: 104
    Stop after # Stalled Generations: 0

Population Information: 
Population Size: 0
# Generations / Iterations: 0
Current Generation / Iteration: 0
Population Values: 
   (		)

Population:



Optimization Log:

Function Evaluation	Objective Value		Optimization Parameters
320			27.686			(	4	24	24	24	24	24	24	24	24	24	24	24	24	24	24	24	3	160	160	160	160	160	160	160	160	160	160	160	160	160	160	160	)
735			0.0734697			(	3.02256	0.0809149	0.157301	0.025032	0.551776	0.135621	0.287514	0.117433	0.101603	0.112437	0.0137404	0.00830518	0.000635344	0.415023	0.373114	0.525549	5.57117	0.0260201	1.91744	1.14601	1.67783	0.639123	1.55943	0.882138	0.559867	0.330767	2.34382	0.673241	1.5144	0.4673	1.34916	2.76682	)
1137			0.0561693			(	1.92431	0.518286	0.059286	0.0319067	0.0762402	0.0395754	0.0255454	0.0115966	0.124423	0.155618	0.0405874	0.00123511	0.00256512	0.00115333	0.00220235	0.237808	3.29932	0.195185	0.675023	0.143686	0.0391426	0.0452883	0.0477698	1.3257	1.32408	0.500073	1.48115	0.0675319	0.116305	1.77548	0.348513	0.516104	)
