{
    "ate_drug": [
        6.0,
        0.0,
        4.46072e-07,
        0.0,
        5.74585e-19,
        0.0,
        0.0,
        0.0,
        0.0,
        2.46468e-11,
        4.05658e-07,
        1.89433e-52,
        0.0,
        0.0,
        0.0,
        2.04639e-06
    ],
    "cibi_drug": [
        5.45262,
        134.915,
        0.0,
        2.56179,
        0.0,
        2.21678e-08,
        2.00462e-07,
        2.26802e-33,
        3.38403e-148,
        130.882,
        5.03311e-13,
        0.0,
        0.0,
        0.0,
        8.46196e-31,
        0.0
    ],
    "inefficacy": 15.600166910420254,
    "total_drugs": 4.19310609375,
    "objective_value": 14.45946082875323,
    "tumour_diameter": [
        19.746637430217184,
        19.754205975792182,
        19.76177536448576,
        19.769348386093704,
        19.776924730497615,
        19.784503585852075,
        19.79208284445363,
        19.79965659398282,
        19.80720879882395,
        19.81470146937196,
        19.822061321867796,
        19.829176982426393,
        19.835914932602115,
        19.842145868501074,
        19.84776581798967,
        19.852704885873187,
        19.856926229939944,
        19.860420422023257,
        19.86319890524257,
        19.865288164428403,
        19.86672507509885,
        19.867553286235392,
        19.867820323865672,
        19.8675751793133,
        19.866866292636747,
        19.8657400405349,
        19.86423974486957,
        19.862405163703922,
        19.86027234464913,
        19.857873712631548,
        19.8552382905561,
        19.852391977159144,
        19.849357845543047,
        19.84615643308271,
        19.842806013247152,
        19.839322842629894,
        19.8357213815828,
        19.83201450441071,
        19.82821365845556,
        19.82432903330099,
        19.82036969584705,
        19.816343717480482,
        19.812258280206233,
        19.808119774004744,
        19.803933865349233,
        19.799705628894884,
        19.795439559184487,
        19.791139684835304,
        19.78680945741413,
        19.78245210171978,
        19.778070430315246,
        19.77366687599509,
        19.769243674931065,
        19.76480277691844,
        19.760345917238862,
        19.755874625100017,
        19.7513902858226,
        19.74689402383898,
        19.74238698777498,
        19.737870057560997,
        19.733344074118726,
        19.728809760370417,
        19.724267757560128,
        19.719718626555082,
        19.715162864092257,
        19.710600923284314,
        19.706033152070056,
        19.701459899319467,
        19.696881466559223,
        19.692298108268826,
        19.68771004967358,
        19.683419147004486,
        19.679994966472524,
        19.67734524389643,
        19.675286479244335,
        19.673608194521975,
        19.672100128741118,
        19.670577943380817,
        19.66889714678585,
        19.666954885294036,
        19.664684820976767,
        19.662049831202044,
        19.659035021766037,
        19.65564192785032,
        19.651883940340078,
        19.6477826569232,
        19.6433648494297,
        19.638659894244604,
        19.633697714875982,
        19.628507300283296,
        19.62311578676993,
        19.617547996212465,
        19.611826290972804,
        19.605970622156583,
        19.599998680182445,
        19.59392609255471,
        19.58776663305628,
        19.581532425473604,
        19.57523413221207,
        19.568881125206957,
        19.562481640076196,
        19.556042908634733,
        19.549571279833177,
        19.543072324123795,
        19.536550925590227,
        19.530011363019764,
        19.523457376876955,
        19.51689225001246,
        19.51031883667579,
        19.503739628791532,
        19.49715679100313,
        19.49057220710585,
        19.483987507406002,
        19.477404108306114,
        19.47082320053661,
        19.464245840882267,
        19.457672917324455,
        19.451105188177994,
        19.444543296819162,
        19.437987789446446,
        19.431439127143076,
        19.424897628079776,
        19.418363604769993,
        19.411837314855838,
        19.405318949075077,
        19.39880864628465,
        19.392306514140458,
        19.385812653323395,
        19.37932706532455,
        19.37284978564701,
        19.366380815562053,
        19.359920134908684,
        19.353467711719553,
        19.347023501168344,
        19.340587493228014,
        19.3341595332755,
        19.327739601300106,
        19.321327619921213,
        19.314923510519815,
        19.30852719298956,
        19.302138585682986,
        19.295757635512945,
        19.289384194886516,
        19.283018222226335,
        19.276659632730695,
        19.270308343956028,
        19.26396427893579,
        19.25762736204179,
        19.25129754659117,
        19.244974700182123,
        19.238658794547096,
        19.23234976573437,
        19.226047545722643,
        19.219752074194954,
        19.213463296295608,
        19.20718118389293,
        19.2009056263482,
        19.19463661237531,
        19.188374102997987,
        19.182118058240487,
        19.17586843331809,
        19.169625194323444,
        19.16338832195066,
        19.157157744805417,
        19.150933463733,
        19.144715456696794,
        19.138503697835148,
        19.13229816614435,
        19.1260988441431,
        19.119905742780414,
        19.11371879244295,
        19.107538013635327,
        19.10136339997641,
        19.09519494472788,
        19.089032639907476,
        19.082876482892292,
        19.07672649614345,
        19.070582624870262,
        19.064444901285647,
        19.058313330161678,
        19.0521879160416,
        19.04606866553057,
        19.039955583194402,
        19.033848705753893,
        19.02774798667183,
        19.021653466931724,
        19.015565158694436,
        19.009483076398382,
        19.00340723269336,
        18.997337644345073,
        18.991274558181484,
        18.985217525135077,
        18.97916679772414,
        18.973122394422624,
        18.967084335263845,
        18.96105263927861,
        18.955027325994454,
        18.949008448169668,
        18.942995968800478,
        18.936989939259554,
        18.930990383736876,
        18.924997322622424,
        18.919010780244328,
        18.913030782057408,
        18.90705743288386,
        18.90109060311533,
        18.895130395081363,
        18.889176833198615,
        18.883229944636497,
        18.877289753124835,
        18.87135628497477,
        18.865429696519218,
        18.859509765257396,
        18.85359664332267,
        18.847690357151468,
        18.84179093297928,
        18.835898397687917,
        18.83001277971491,
        18.824134240975024,
        18.81826255278915,
        18.812397870794683,
        18.806540220856796,
        18.800689635509055,
        18.79484613772884,
        18.789009755788946,
        18.783180655959466,
        18.777358604562316,
        18.771543760388752,
        18.76573614830897,
        18.759935806143545,
        18.75414275155232,
        18.748357014200007,
        18.74257876370044,
        18.736807760065606,
        18.731044164715478,
        18.725287999621045,
        18.71953931446982,
        18.7137981119868,
        18.708064427863782,
        18.70233843261141,
        18.696619879963983,
        18.690908933980186,
        18.685205623322314,
        18.679509977142526,
        18.673822017190524,
        18.66814177209509,
        18.662770944022334,
        18.658217043438952,
        18.65443219117255,
        18.651346262336446,
        18.64889486669412,
        18.64701798492647,
        18.645656502390615,
        18.64474441476355,
        18.644194967767497,
        18.643885721436394,
        18.64365612615395,
        18.643325927523126,
        18.642724220401796,
        18.64171190620601,
        18.640190379215007,
        18.63809969462756,
        18.635411936563287,
        18.632123755632072,
        18.628249782701854,
        18.623817374039096,
        18.61886250663458,
        18.613426474411654,
        18.6075531218302,
        18.601286549943442,
        18.59466938174693,
        18.587741620042156,
        18.580540037883267,
        18.57309796726827,
        18.565445344029442,
        18.55760890126865,
        18.549612423895443,
        18.541477032392375,
        18.53322145848881,
        18.524862305085627,
        18.516414282445755,
        18.507890419292643,
        18.49930226231345,
        18.490660028678946,
        18.481972766621585,
        18.473248484016224,
        18.464494265116432,
        18.45571637387304,
        18.446920352884188,
        18.43811106715178,
        18.429292848884707,
        18.420469497751544,
        18.411644352720046,
        18.4028203555983,
        18.394000089070996,
        18.385185854923925,
        18.376379539979457,
        18.367582920164605,
        18.358797501599714,
        18.350024589138506,
        18.34126531095865,
        18.332520647595242,
        18.323791503577947,
        18.31507841969777,
        18.306382086405286,
        18.29770301447513,
        18.289041632740865,
        18.280398286405283,
        18.27177325556175,
        18.263166865621727,
        18.254579100209458,
        18.24601019039945,
        18.237460229765375,
        18.228929281180555,
        18.220417379040086,
        18.211924531690116,
        18.20345084611136,
        18.194996046760075,
        18.186560205907227,
        18.17814326592366,
        18.169745151331202,
        18.16136578014931,
        18.153005062558456,
        18.14466298854204,
        18.13633927700625,
        18.12803392355817,
        18.119746823583316,
        18.111477858770524,
        18.103226917024067,
        18.09499388791171,
        18.08677872737997,
        18.078581178939782,
        18.07040119940152,
        18.062238711120834,
        18.054093597094745,
        18.045965738750272,
        18.037855030821206,
        18.029761419367368,
        18.021684693403017,
        18.01362482765504,
        18.005581732076962,
        17.997555302489097,
        17.98954544579137,
        17.981552074884984,
        17.973575188592033,
        17.965614520142054,
        17.957670087949,
        17.949741830330286,
        17.941829669389573,
        17.93393351920424,
        17.926053308514717,
        17.918189051006845,
        17.910340496319925,
        17.902507683595786,
        17.894690561652183,
        17.886889075325296,
        17.879103161946794,
        17.871332755382927,
        17.863577882138816,
        17.855838308201157,
        17.848114086693283,
        17.8404051721711,
        17.832711533849164,
        17.825033122606463,
        17.81736988515438,
        17.809721972677128,
        17.80208893104855,
        17.79447093975753,
        17.78686796441624,
        17.77927998207857,
        17.771706954478034,
        17.76414883858668,
        17.75660586665444,
        17.74907745663637,
        17.741563865614008,
        17.734065056153323,
        17.72658102448586,
        17.719111738432165,
        17.71165716806098,
        17.7042174389347,
        17.6967921882538,
        17.689381569688653,
        17.68198556561481,
        17.67460416364634,
        17.66723734647076,
        17.659885091509896,
        17.652547578789463,
        17.64522435017535,
        17.63791561289131,
        17.630621354537382,
        17.623341564570826,
        17.616076231584472,
        17.608825337410412,
        17.60158916474965,
        17.59436706596605,
        17.587159347743125,
        17.579966002131332,
        17.572787016367716,
        17.565622386462316,
        17.558472097687023,
        17.55133648869079
    ]
}