{
    "ate_drug": [
        4.6,
        24.0,
        4.0,
        4.0,
        4.0,
        4.0,
        4.0,
        4.0,
        4.0,
        4.0,
        1.5,
        4.05,
        1.5,
        1.5,
        4.0,
        4.0
    ],
    "cibi_drug": [
        3.4,
        160.0,
        160.0,
        160.0,
        160.0,
        140.0,
        140.0,
        140.0,
        140.0,
        140.0,
        140.0,
        140.0,
        140.0,
        140.0,
        140.0,
        140.0
    ],
    "inefficacy": 24.949290937388664,
    "total_drugs": 54.02777777777778,
    "objective_value": 27.857139621427578,
    "tumour_diameter": [
        32.13735260400379,
        32.21534918644884,
        32.29087572105582,
        32.363946180661266,
        32.434580107647925,
        32.50280192076762,
        32.56864027970879,
        32.63212750371345,
        32.69329901802136,
        32.752192968798965,
        32.80884964204421,
        32.86331116732257,
        32.91562113516432,
        32.96582426480172,
        33.013966088754486,
        33.06009265172699,
        33.104250273793404,
        33.146485348784275,
        33.186844277060786,
        33.225373439339776,
        33.262119183363424,
        33.29712776874058,
        33.330446459862095,
        33.362121918805364,
        33.39219857540426,
        33.42072018524822,
        33.447729781875225,
        33.473269635566886,
        33.4973812170159,
        33.520105170631204,
        33.54148129231723,
        33.561548520166,
        33.58034490839055,
        33.59790762174138,
        33.6142729051078,
        33.62947603942472,
        33.64355118884463,
        33.656531451475566,
        33.668449009529944,
        33.67933516821917,
        33.689220539491984,
        33.69813520383212,
        33.706108789472424,
        33.71317199647201,
        33.719354643424865,
        33.72468370642008,
        33.729185414582005,
        33.73288527146087,
        33.73580807051512,
        33.737977910993195,
        33.739418210783285,
        33.74015173246388,
        33.74020059215822,
        33.73958626480464,
        33.738329600952554,
        33.73645081177393,
        33.733969431310854,
        33.730904263023405,
        33.72727335418854,
        33.723094054430916,
        33.71838317143913,
        33.713157177802366,
        33.70743238859327,
        33.701225043598676,
        33.69455297556105,
        33.68743345104708,
        33.67988101406859,
        33.671909788478764,
        33.66353349411745,
        33.654765459486754,
        33.64561863085354,
        33.63610523685313,
        33.626237113111486,
        33.616026094411886,
        33.60548367027009,
        33.594620983216046,
        33.583448809171735,
        33.57197751023609,
        33.56021697133794,
        33.548176566963924,
        33.53586521617578,
        33.52329153923916,
        33.51046406641048,
        33.49739141480106,
        33.484082365052664,
        33.47054758164659,
        33.45679736386083,
        33.44283940605127,
        33.428681179654816,
        33.414329944780896,
        33.39979275594829,
        33.385076466381115,
        33.37018773248945,
        33.35513302094947,
        33.339918610801966,
        33.3245505935719,
        33.30903486911341,
        33.29337712021618,
        33.277582760246396,
        33.26165686445531,
        33.24560413328773,
        33.22942894380374,
        33.21313550579823,
        33.19672806933886,
        33.180211099345314,
        33.163589348331655,
        33.146869131211,
        33.13005646748153,
        33.11315532128321,
        33.096169541272175,
        33.07910286927565,
        33.0619589421776,
        33.04474129383727,
        33.027453356793146,
        33.01009846509127,
        32.99267985399725,
        32.97520065962607,
        32.95766390988381,
        32.940072497198386,
        32.92242912371474,
        32.904736230667886,
        32.88699595927616,
        32.86921020112543,
        32.85138075189655,
        32.83350951660282,
        32.81559868134481,
        32.79765078317732,
        32.77967042970164,
        32.76166203168156,
        32.743627550574885,
        32.72556888794406,
        32.70748789285099,
        32.689386362344976,
        32.67126604210252,
        32.65312862706925,
        32.634975761820535,
        32.61680904030733,
        32.598630002150436,
        32.58044011919844,
        32.56224076121635,
        32.54403313417334,
        32.52581774624709,
        32.50759481178485,
        32.489364837405354,
        32.471128323017425,
        32.45288596358328,
        32.434638797829535,
        32.41638824550854,
        32.3981377092074,
        32.37989036238897,
        32.36164705073763,
        32.34340859316244,
        32.3251757878987,
        32.30694941204963,
        32.288730221244315,
        32.270518949711295,
        32.252316308569014,
        32.234122986569275,
        32.21593964435855,
        32.19776690075856,
        32.17960529805427,
        32.16145524027154,
        32.14331692436926,
        32.12519031766495,
        32.10707523243799,
        32.0889714942656,
        32.07087914097047,
        32.05279856886501,
        32.03473056875948,
        32.01667790498225,
        31.998643131944124,
        31.980626524640538,
        31.962628348473128,
        31.94464886488186,
        31.92668833054544,
        31.908746996698472,
        31.890824651855354,
        31.87292103996211,
        31.855036359620158,
        31.837170798027394,
        31.819324516418753,
        31.801497615243374,
        31.783690072695975,
        31.765901676339666,
        31.74813200056744,
        31.730380479872245,
        31.712646574694563,
        31.694929967244764,
        31.67723070512264,
        31.659549236053724,
        31.641887963292984,
        31.62424909233235,
        31.606632591890932,
        31.58903843092323,
        31.57146658384375,
        31.553917029425442,
        31.536389749823012,
        31.518884729951587,
        31.501401955357352,
        31.483941412109406,
        31.46650308074822,
        31.44908692228631,
        31.431692843803436,
        31.414320637764217,
        31.39696991456925,
        31.37964008037492,
        31.362330409530298,
        31.345040208251095,
        31.327769007695352,
        31.31051670532601,
        31.293283598800908,
        31.276071471993593,
        31.25888188149741,
        31.241714637041778,
        31.224569555518674,
        31.20744646569412,
        31.190345206804515,
        31.173265627293215,
        31.156207583655192,
        31.139170939124444,
        31.12215556172742,
        31.10516131913415,
        31.08818806434387,
        31.071235601500646,
        31.05430362577789,
        31.037391656638274,
        31.020499015942637,
        31.003624899348367,
        30.98676853779418,
        30.96992938790497,
        30.953107271114714,
        30.936302406733425,
        30.919516922419923,
        30.90275275978794,
        30.88600969430938,
        30.869287509482227,
        30.852586001685257,
        30.835904978914222,
        30.819244259630413,
        30.802603671732985,
        30.785983051208948,
        30.76938224047346,
        30.75280108319823,
        30.736239410246835,
        30.719697005935505,
        30.70317354870358,
        30.68666810859664,
        30.670179526635575,
        30.65370696368235,
        30.63724961917105,
        30.620806918679502,
        30.604378650990213,
        30.587965000234064,
        30.571568035586363,
        30.555189644106314,
        30.538829577719916,
        30.522487598249917,
        30.506163482068626,
        30.489857018711696,
        30.473568009616187,
        30.457296267111456,
        30.44104161250208,
        30.424803875038023,
        30.408582886233052,
        30.392378465989577,
        30.376190389169512,
        30.360018326857737,
        30.343861781284957,
        30.327720064513247,
        30.311592368466034,
        30.295477922522284,
        30.279376179094374,
        30.263286949015743,
        30.247210433213166,
        30.231148693108878,
        30.215103609401282,
        30.19907495488352,
        30.18306251223196,
        30.16706607867133,
        30.151085464692255,
        30.135120492866697,
        30.119170674674855,
        30.103235500969177,
        30.087314800628334,
        30.071408406676397,
        30.055516142154598,
        30.039637787035627,
        30.0237730195925,
        30.007921352659356,
        29.99208211210722,
        29.976254506197858,
        29.96043778139562,
        29.94463140566172,
        29.928835202060164,
        29.91304937978152,
        29.8972759860688,
        29.881516889447255,
        29.865771876888004,
        29.85004074558581,
        29.8343233075369,
        29.81861938821017,
        29.80292882535638,
        29.78725146807556,
        29.771587174855405,
        29.75593581275555,
        29.740297251754733,
        29.724671351219204,
        29.709057927197705,
        29.69345669501283,
        29.677867205658252,
        29.66228882528577,
        29.646720803753084,
        29.63116242894906,
        29.61561320807495,
        29.600072999670918,
        29.58454204415334,
        29.569021788879645,
        29.553513453291984,
        29.538016818619948,
        29.522531678846892,
        29.50705784480079,
        29.491595142584014,
        29.47614341214465,
        29.460702506079777,
        29.44527228772047,
        29.429852629802166,
        29.414443408931774,
        29.399044491982785,
        29.383655703595874,
        29.36827676923951,
        29.352907252240325,
        29.337546533306323,
        29.322193878587893,
        29.306848592173306,
        29.291510195381466,
        29.27617855710174,
        29.260853923776192,
        29.245538336938427,
        29.23023366228776,
        29.214939732323284,
        29.199656389653633,
        29.18438349146156,
        29.169120908213614,
        29.153868522498435,
        29.13862622807263,
        29.123393928123416,
        29.108171534209884,
        29.09295896090976,
        29.077756112519143,
        29.062562851020232,
        29.047378939859488,
        29.032203317764935,
        29.017034688592823,
        29.001872315338503,
        28.986715501249375,
        28.97156376676201,
        28.95641697806422,
        28.941275376323485,
        28.92614097883015,
        28.91101562951646,
        28.895899162867426,
        28.880791424160435,
        28.865692273856197,
        28.85060158570013,
        28.83551924617746,
        28.820445152962247,
        28.805379213263052,
        28.790321342610746,
        28.77527145951947,
        28.760229472224587,
        28.74519524688792,
        28.730168551877995,
        28.715148996155357,
        28.700136009591084,
        28.685128909670134,
        28.670127051175804,
        28.655130001687418,
        28.640137669028704,
        28.625150330245607,
        28.610170017225744,
        28.595198588489993,
        28.58023591403794,
        28.565281873628322,
        28.550336361162678,
        28.53539928344724,
        28.520470559074724,
        28.505549337684684,
        28.490634723367815,
        28.475726609425926,
        28.460824894966983,
        28.445929471212366,
        28.431040189703943,
        28.416156806840462,
        28.40127892267132,
        28.386405961207373,
        28.371537236386022,
        28.356672100079443,
        28.34181011562391,
        28.326951183689825,
        28.312095570628426,
        28.297245278753316
    ]
}