{
    "synthesized_therapy": {
        "ate_freq_in": 4.6,
        "ate_m10_in": 1.5,
        "ate_m11_in": 4.05,
        "ate_m12_in": 1.5,
        "ate_m13_in": 1.5,
        "ate_m14_in": 4.0,
        "ate_m15_in": 4.0,
        "ate_m1_in": 24.0,
        "ate_m2_in": 4.0,
        "ate_m3_in": 4.0,
        "ate_m4_in": 4.0,
        "ate_m5_in": 4.0,
        "ate_m6_in": 4.0,
        "ate_m7_in": 4.0,
        "ate_m8_in": 4.0,
        "ate_m9_in": 4.0,
        "cibi_freq_in": 3.4,
        "cibi_m10_in": 140.0,
        "cibi_m11_in": 140.0,
        "cibi_m12_in": 140.0,
        "cibi_m13_in": 140.0,
        "cibi_m14_in": 140.0,
        "cibi_m15_in": 140.0,
        "cibi_m1_in": 160.0,
        "cibi_m2_in": 160.0,
        "cibi_m3_in": 160.0,
        "cibi_m4_in": 160.0,
        "cibi_m5_in": 140.0,
        "cibi_m6_in": 140.0,
        "cibi_m7_in": 140.0,
        "cibi_m8_in": 140.0,
        "cibi_m9_in": 140.0
    },
    "tumour_diameter": 28.297312388848116,
    "total_drugs": 54.02777777777778,
    "objective": 27.857246127635094,
    "inefficacy": 24.94940927761924
}