{
    "synthesized_therapy": {
        "ate_freq_in": 6.0,
        "ate_m10_in": 24.0,
        "ate_m11_in": 0.234375,
        "ate_m12_in": 0.140625,
        "ate_m13_in": 24.0,
        "ate_m14_in": 0.046875,
        "ate_m15_in": 24.0,
        "ate_m1_in": 0.046875,
        "ate_m2_in": 0.046875,
        "ate_m3_in": 0.09375,
        "ate_m4_in": 24.0,
        "ate_m5_in": 0.140625,
        "ate_m6_in": 0.1875,
        "ate_m7_in": 24.0,
        "ate_m8_in": 0.234375,
        "ate_m9_in": 0.234375,
        "cibi_freq_in": 4.5,
        "cibi_m10_in": 0.625,
        "cibi_m11_in": 160.0,
        "cibi_m12_in": 0.625,
        "cibi_m13_in": 0.625,
        "cibi_m14_in": 0.3125,
        "cibi_m15_in": 160.0,
        "cibi_m1_in": 0.625,
        "cibi_m2_in": 0.625,
        "cibi_m3_in": 0.625,
        "cibi_m4_in": 0.625,
        "cibi_m5_in": 0.625,
        "cibi_m6_in": 160.0,
        "cibi_m7_in": 0.625,
        "cibi_m8_in": 0.625,
        "cibi_m9_in": 0.625
    },
    "tumour_diameter": 23.7211138372814,
    "total_drugs": 0.302734375,
    "objective": 16.486913991237255,
    "inefficacy": 18.28515617081917
}