======= APRICOPT =========

=== Optimization through COPASI solver ===


Solver settings: 

Method: Particle Swarm
    Log Verbosity: 0
    Iteration Limit: 100
    Swarm Size: 30
    Std. Deviation: 0.1
    Random Number Generator: 1
    Seed: 104
    Stop after # Stalled Iterations: 0

Population Information: 
Population Size: 0
# Generations / Iterations: 0
Current Generation / Iteration: 0
Population Values: 
   (		)

Population:



Optimization Log:

Function Evaluation	Objective Value		Optimization Parameters
1			27.942			(	4	24	24	24	24	24	24	24	24	24	24	24	24	24	24	24	3	160	160	160	160	160	160	160	160	160	160	160	160	160	160	160	)
4			3.38127			(	5.48009	12.5293	22.5591	0.145588	7.74936	23.0966	15.6594	1.5572	4.6583	13.6649	18.3135	9.95606	18.0584	6.55034	14.9428	17.7514	5.12898	44.1692	17.0272	37.0107	33.6892	48.008	1.48612	126.728	43.09	155.913	141.11	22.3499	34.2111	142.408	49.1491	152.798	)
27			3.27349			(	5.44744	2.23223	11.1706	6.19901	22.5885	21.0555	22.6265	2.56234	18.3771	4.76463	10.2065	2.47307	13.7284	16.8215	23.0817	12.3875	5.40335	126.671	127.137	159.767	71.2976	47.8659	148.395	129.436	26.0831	111.574	11.2562	34.4261	93.4963	88.3902	1.00661	14.8343	)
30			2.69437			(	5.78188	9.61875	11.1471	19.2714	11.5914	1.09549	13.7291	18.8984	5.7031	7.22825	7.57236	8.35053	23.6433	22.1348	2.43315	6.97684	4.84888	34.1113	144.837	62.4	62.7746	20.913	41.2313	56.5313	55.4371	119.507	11.6565	125.203	105.756	63.2797	110.953	66.7611	)
37			2.4055			(	3.95878	15.266	0	0	14.5475	0	6.98024	0	4.65169	2.58983	2.83492	9.89987	16.9296	19.2162	1.32194	24	5.96004	25.5829	43.7118	18.9684	118.662	65.774	27.173	57.3955	119.792	0	24.6782	3.53652	103.942	91.1099	82.7827	40.193	)
51			2.26291			(	6	14.7553	0	0	21.3115	10.4942	3.3821	8.12524	6.20083	5.45392	2.25281	21.2748	18.6405	12.7963	0	24	5.15314	73.026	32.5992	0	106.595	34.7367	78.1112	101.464	68.0746	11.0504	38.0217	9.9842	109.441	36.5464	30.4154	97.5871	)
62			2.21654			(	6	18.568	0	8.07869	19.6703	0	8.3702	5.92113	24	4.26606	0	24	12.0727	23.1542	6.95389	8.66756	6	5.91318	99.4541	40.9715	101.563	55.4301	0	0	8.87957	92.5728	133.69	73.1117	121.461	54.506	23.7612	63.8109	)
68			2.1454			(	6	6.48344	0	13.4998	24	0	0	0	0	4.90082	24	18.7608	0.729689	3.95191	4.6221	13.0658	4.58389	159.46	61.5621	0	0	0	0	14.6556	89.415	2.30393	154.821	85.5851	47.1841	98.2425	60.4696	70.1817	)
81			1.79334			(	6	6.36826	0	8.97903	24	0	0	2.42287	0	1.88728	12.0402	24	15.8882	9.94827	0.281077	18.9986	6	160	0	0	0	0	82.7176	109.796	85.8051	2.88456	129.775	51.9843	115.04	16.2984	0	134.792	)
89			1.73173			(	5.90804	0.123837	0	2.94447	14.4754	13.627	0	3.6716	0	6.86872	2.13726	20.0883	7.23931	1.6287	0.216901	24	6	31.775	0	0	87.1993	0	0	62.099	44.2608	33.6596	78.9105	0	119.441	8.9354	0	146.136	)
133			1.60877			(	5.91796	6.08523	0	0.480483	19.8118	4.49096	0	2.73843	0.00118623	7.93936	3.30302	21.2119	17.7418	0	0.10555	17.3428	6	129.755	0	4.06086	92.9136	0	0	82.8234	47.0899	0	78.148	0	82.4823	0	8.4574	160	)
170			1.43512			(	6	6.70838	0	0	23.7602	0	0	1.73729	0	6.60632	0	21.172	20.136	0	0.135055	17.7197	6	152.907	0	4.15976	67.0977	0	0	81.0408	32.5427	0	17.2651	0	103.343	0	5.12455	88.017	)
171			1.40726			(	5.99448	9.799	0	2.44589	24	0	0	4.30576	0.618945	10.1783	0	22.5897	14.3557	0	0	17.4682	6	113.52	0	1.82926	82.6923	0	0	136.368	4.70313	0	12.8714	0	101.921	10.7706	2.06993	10.049	)
187			1.39297			(	4.87575	1.20215	6.49723	1.54953	10.4196	6.05372	0	0	0	6.68437	1.43771	0.14206	8.99032	0	0	12.1799	5.85081	49.28	76.266	4.58968	40.9718	0	79.7122	80.4774	15.4507	57.261	3.02569	57.3643	48.4377	0	90.8505	75.1385	)
199			1.33878			(	5.47701	3.23842	1.34944	0	0	5.61377	0	0	10.776	3.23657	0	1.32486	6.88263	0	0.786039	13.8128	5.90091	92.3177	68.0641	0	6.91666	8.07301	72.931	73.1245	16.5894	45.5518	160	131.559	49.3762	0	59.545	54.5488	)
202			1.21568			(	4.94929	0	1.88385	7.02429	7.85638	8.89497	2.56415	7.42428	4.08545	6.14393	2.60889	0.369085	20.8904	0	3.0831	3.17422	4.90501	19.6299	0	20.7129	16.6326	6.73129	83.7364	32.8442	21.3687	109.191	37.2932	0	0	0	51.0202	8.54647	)
222			1.2103			(	4.70747	0.964369	8.10983	0	7.45773	11.2704	0	4.90063	0.00613263	5.63736	1.80155	0	19.3993	0	0.156062	8.52968	5.74144	77.2414	24.5292	0	0	0	65.0333	120.108	20.2814	88.102	82.6945	109.483	0	9.55365	22.9239	23.717	)
232			1.03459			(	4.80822	0	2.01129	9.83672	0	13.3786	0	6.9822	0	3.82965	2.62022	0	23.0829	0	0	0	5.00195	33.7898	0	35.6541	0	0	126.205	43.0385	27.5937	126.392	1.49474	0	0	0	64.8503	0	)
283			0.974752			(	4.5858	4.54207	6.8535	6.23321	2.28357	9.00597	0	5.64408	0	0.97829	3.67009	2.0617	22.2511	0	0	0	4.4334	46.2759	1.95436	29.3826	3.66134	0	160	20.3728	19.022	62.4728	57.6272	3.27832	0	0	49.7939	0	)
297			0.899477			(	5.29096	6.98759	9.91659	4.22977	11.1928	12.4029	1.2652	3.81353	0	4.45798	1.2352	0	19.2053	0	2.66364	1.65816	5.98062	83.8935	10.1866	0.0505538	0	0	61.1003	19.7162	83.7726	3.30494	62.5008	22.7874	0	0	0	0	)
313			0.639854			(	4.52523	7.81849	4.79508	3.94189	0.415945	0	0	6.91061	0	0	1.53387	3.5489	22.5845	0	0	0	4.11046	44.5206	0	27.4454	6.30244	0	160	0	18.1487	0	38.947	0	0	0	54.7744	0	)
440			0.410582			(	4.57078	0	3.49417	4.23943	1.3353	6.53537	0	5.855	0	0.000394146	0.470037	3.62437	22.4784	0	0	0	5.75117	58.8121	0.642895	24.8293	5.6224	0	160	16.2891	18.0123	0.0237861	36.5267	2.01434	0	0	1.54817	0	)
471			0.405351			(	4.79301	0.348995	2.42116	4.10243	2.10592	9.29158	0.0442395	3.77606	0	0.000610002	1.15206	3.99352	24	0	0	0	5.74877	112.656	0	22.2446	8.73412	0	155.907	10.585	0	0.0167299	44.7096	0.897699	0	0	0	0.876503	)
502			0.375214			(	4.76211	4.28085	0	0.614837	0.0686998	0	0	6.76556	0	0	0.449867	0	22.4923	0	0	0	6	11.8229	21.0449	0	0	0	153.802	11.4608	7.83702	17.3093	43.0135	0	8.88833	0	46.889	15.0653	)
507			0.312259			(	4.84769	0	4.67056	2.33832	0	5.46972	0.209835	5.39646	0	0	0.399908	0.121228	23.4285	0	0.0289966	0	5.60799	87.6141	3.116	22.084	6.66717	0	97.6221	29.2425	5.2865	0.00834841	76.8876	11.74	0	0	2.70383	0	)
566			0.30307			(	4.68708	0	0	0	0	0	0	10.0298	0	0	0.288275	0.10152	24	0	0.0569478	0	5.54649	104.879	0	40.8694	12.0699	0	132.716	45.3464	2.09957	0.0115744	76.288	5.2973	0	0	3.84273	0	)
628			0.281166			(	4.87811	2.67313	0.66742	1.2999	0.0757857	0	0	1.86809	0	0.000346976	0.707398	0	21.1377	0	0	0	6	59.8809	6.59341	0	5.7297	0	151.81	18.6306	0.0324542	15.8128	21.0029	1.44438	8.64325	0.0113771	46.9753	19.6338	)
640			0.281051			(	4.57266	3.03941	0.0962113	1.18348	0.0908055	0	0	0.434317	0	0.000209861	0.0243028	0	21.6701	0	0	0	6	43.9667	4.05377	0	7.81093	0	150.764	17.7177	0.0623351	27.6697	33.3318	1.3113	15.5852	0	45.1883	22.5321	)
650			0.273923			(	4.79118	4.20235	1.55833	1.52521	0.0496116	0	0.0063173	4.05654	0	0.000585177	0.526208	0.187534	21.6145	0	0	0.00016543	5.88969	64.6476	2.71635	0	5.51866	0	154.009	19.6176	0.0204838	0	20.7429	1.2829	5.71236	0.00999924	28.0512	20.3782	)
658			0.236952			(	4.96832	1.92005	0.812631	1.58492	0.108092	0	0	1.5151	0	0.0004192	0.85068	0	20.7975	0	0	0	6	70.1255	5.16482	0	6.90828	0	151.78	16.3432	0.015509	0	18.8788	1.43296	5.75824	0.0114007	46.9743	18.999	)
680			0.218058			(	4.78745	3.51373	1.00409	2.25594	0.136168	0	0.00900322	2.11727	0	0.000717914	0.140595	0.221395	21.0724	0	0	0.000158468	5.92796	64.8942	2.57104	0	6.45516	0	154.708	20.3942	0.00391752	0	24.6266	1.52436	0	0.00843101	25.1699	11.3157	)
687			0.216952			(	4.67972	4.80111	6.20905	2.62308	0.160752	0	0.00608596	1.22998	0	0.000860564	0.751641	0.104875	21.2288	0	0.0221003	0.000267774	5.91337	61.7121	2.4275	3.10946	10.3068	0	154.622	10.9782	0.651092	0	0	22.696	0	0.0142908	0	9.09109	)
700			0.216927			(	5.13511	1.31923	1.02396	2.74557	0.173952	0	0	1.43365	0	0.000574021	0.508971	0	20.7922	0	0	0	6	87.0447	4.79877	0	3.37086	0	154.403	8.42804	0.0095534	0	20.2056	1.27745	0	0.018858	46.6966	18.5421	)
710			0.185818			(	4.78477	3.01699	0.604287	2.78305	0.198606	0	0.0109407	0.718387	0	0.000813664	0	0.245821	20.6814	0	0	0.000153445	5.95556	65.0721	2.46621	0	7.1307	0	155.213	20.9543	0	0	27.4281	1.69854	0	0.00729977	23.0914	4.77845	)
749			0.183605			(	5.03335	2.39524	2.34967	0.98213	0.0440196	0.21945	0.052767	1.16948	0	0.490861	0	1.26579	20.9679	0	0.00352059	0.00750978	6	107.413	1.61405	8.65154	5.81913	0	157.559	15.821	0	0	34.7176	2.4016	1.66656	0.0137055	19.3621	5.87137	)
750			0.180333			(	4.73463	3.06591	0	3.27402	0.350261	0	0.0172094	0.553312	0	0	0	0.395447	20.9382	0	0	0.000233458	5.95129	72.9439	0.173271	0	6.36894	0	154.746	22.2801	0	0	40.2028	2.37129	0	0.00738817	13.701	5.12443	)
783			0.167642			(	5.33763	3.2173	0	0.611559	1.36498	0.844638	0.0508342	0.551297	0	0.0275335	0	0.493473	17.5933	0	0.00316185	0.00014075	6	86.1273	1.82163	3.34086	21.0756	0	156.746	12.9341	0.951214	0	28.9011	1.72035	0.00410385	0.0169521	10.9382	8.99738	)
788			0.136833			(	4.75056	0.115162	0	1.2538	0.37013	1.51528	0	0.02377	0	0.0480821	0.336441	0	22.972	0	0	0	5.96089	97.1506	0.543114	7.93042	9.17787	0	160	9.06887	0	0.022696	33.228	6.1426	0	0.341227	6.44302	20.7718	)
809			0.133544			(	5.39645	1.95686	0.0916781	0.877338	0.356894	0.207842	0.042782	0.663546	0	0.182863	0	0.928301	18.2291	0	0.00156622	0.00524258	6	35.7197	0.452223	3.08653	20.3029	0	157.097	8.99764	0.489819	0	35.7677	1.75969	1.45875	0.0156734	12.3119	8.14098	)
821			0.129251			(	4.91926	1.38391	0.106333	0.142483	0.435618	0.588978	0.0682703	0.779655	0.0147864	0.0575784	0	0.516407	21.657	0	0.00454699	0	5.98996	144.58	0.564879	8.18271	16.5642	0	155.507	8.07107	0.18872	0	59.4863	2.76309	0.411626	0.470714	11.2798	12.956	)
880			0.102129			(	5.04241	0	5.15255	0	0.292684	0	0.0215204	1.42925	0	0.00338715	0.294876	0.102953	20.8671	0	0.0059498	4.23666e-05	5.68698	108.403	2.19621	0	6.90021	0	160	7.22668	1.99852	1.28582	0.291643	4.56384	3.93621	0.013333	5.06278	17.1807	)
