{
    "synthesized_therapy": {
        "ate_freq_in": 5.04241,
        "ate_m10_in": 0.0,
        "ate_m11_in": 5.15255,
        "ate_m12_in": 0.0,
        "ate_m13_in": 0.292684,
        "ate_m14_in": 0.0,
        "ate_m15_in": 0.0215204,
        "ate_m1_in": 1.42925,
        "ate_m2_in": 0.0,
        "ate_m3_in": 0.00338715,
        "ate_m4_in": 0.294876,
        "ate_m5_in": 0.102953,
        "ate_m6_in": 20.8671,
        "ate_m7_in": 0.0,
        "ate_m8_in": 0.0059498,
        "ate_m9_in": 4.23666e-05,
        "cibi_freq_in": 5.68698,
        "cibi_m10_in": 108.403,
        "cibi_m11_in": 2.19621,
        "cibi_m12_in": 0.0,
        "cibi_m13_in": 6.90021,
        "cibi_m14_in": 0.0,
        "cibi_m15_in": 160.0,
        "cibi_m1_in": 7.22668,
        "cibi_m2_in": 1.99852,
        "cibi_m3_in": 1.28582,
        "cibi_m4_in": 0.291643,
        "cibi_m5_in": 4.56384,
        "cibi_m6_in": 3.93621,
        "cibi_m7_in": 0.013333,
        "cibi_m8_in": 5.06278,
        "cibi_m9_in": 17.1807
    },
    "tumour_diameter": 0.45842779181737836,
    "total_drugs": 0.9733296527777779,
    "objective": 0.1021291617594699,
    "inefficacy": 0.005329107201880117
}
