{
    "synthesized_therapy": {
        "ate_freq_in": 5.43975,
        "ate_m10_in": 4.41471,
        "ate_m11_in": 1.87779,
        "ate_m12_in": 19.2751,
        "ate_m13_in": 10.6448,
        "ate_m14_in": 5.15398,
        "ate_m15_in": 14.4664,
        "ate_m1_in": 10.1655,
        "ate_m2_in": 17.6099,
        "ate_m3_in": 7.91358,
        "ate_m4_in": 4.62596,
        "ate_m5_in": 8.41573,
        "ate_m6_in": 15.5128,
        "ate_m7_in": 2.06342,
        "ate_m8_in": 9.56543,
        "ate_m9_in": 6.5925,
        "cibi_freq_in": 5.40869,
        "cibi_m10_in": 123.129,
        "cibi_m11_in": 103.114,
        "cibi_m12_in": 114.879,
        "cibi_m13_in": 86.9251,
        "cibi_m14_in": 4.10028,
        "cibi_m15_in": 29.716,
        "cibi_m1_in": 95.6304,
        "cibi_m2_in": 21.0328,
        "cibi_m3_in": 61.006,
        "cibi_m4_in": 61.1478,
        "cibi_m5_in": 42.6262,
        "cibi_m6_in": 142.0,
        "cibi_m7_in": 54.9197,
        "cibi_m8_in": 59.2858,
        "cibi_m9_in": 2.89953
    },
    "tumour_diameter": 18.129001815261564,
    "total_drugs": 26.15188071180556,
    "objective": 11.30352773751339,
    "inefficacy": 9.653710740369814
}