id	init_time	admissible	APC0_LN	APC0_T	APC_PDL1_total	A_APC	A_Tcell	A_cell	C1_CEA_total	CEA_CD3_50	C_PDL1_total	C_max	Chi_CEA_cibis	Chi_PD1	Chi_PDL1	DAMPs	IL2_50	IL2_50_Treg	N0	N_IL2	N_M1p1_TCR	P0_C1	P1_C1	PD1_50	Q_T0_in	Q_T0_out	Q_T1_in	Q_T1_out	SA_Tcell	SA_cell	T0_CD3_total	T1_CD3_total	TCR_p0_tot	TCR_p1_tot	T_PD1_total	aPD1	c0	c50	dT_syn	gamma_C_atezolizumab	gamma_C_cibis	gamma_LN_atezolizumab	gamma_LN_cibis	gamma_P_atezolizumab	gamma_P_cibis	gamma_T_atezolizumab	gamma_T_cibis	initial_tumour_diameter	k_APC_death	k_APC_mat	k_APC_mig	k_C1_death	k_C1_growth	k_C1_therapy	k_C_BTcell	k_C_BTreg	k_C_T1	k_IL2_cons	k_IL2_deg	k_IL2_sec	k_M1p0_TCR_off	k_M1p0_TCR_on	k_M1p1_TCR_off	k_M1p1_TCR_on	k_M1p1_TCR_p	k_P0_d1	k_P0_deg	k_P0_on	k_P0_up	k_P1_d1	k_P1_deg	k_P1_on	k_P1_up	k_T0_act	k_T0_death	k_T0_pro	k_T1	k_T1_act	k_T1_death	k_T1_pro	k_Treg	k_Treg_TCE	k_c	k_cell_clear	k_cl_atezolizumab	k_cl_cibis	k_mAPC_death	k_p0_deg	k_p1_deg	k_ratio_0	k_ratio_1	k_xP0_deg	k_xP1_deg	kin	koff_CD3_cibis	koff_CEA_cibis	koff_PD1_PDL1	koff_PD1_PDL2	koff_PD1_aPD1	koff_PDL1_aPDL1	kon_CD3_cibis	kon_CEA_cibis	kon_PD1_PDL1	kon_PD1_PDL2	kon_PD1_aPD1	kon_PDL1_aPDL1	kout	n_CEA_CD3	n_PD1	n_T0_clones	n_T1_clones	n_sites_APC	p0_50	p1_50	phi_M1p1_TCR	q_LD_atezolizumab	q_LD_cibis	q_LN_atezolizumab	q_LN_cibis	q_P_atezolizumab	q_P_cibis	q_T0_LN_out	q_T0_P_in	q_T0_P_out	q_T0_T_in	q_T1_LN_out	q_T1_P_in	q_T1_P_out	q_T1_T_in	q_T_atezolizumab	q_T_cibis	r_PDL2APC	r_PDL2C	vol_Tcell	vol_cell
10001	3417.0	1.0	1.8128327412122168e-06	6.473491672109305e-07	0.0023741808101189	0.0009432056378778	0.0001391866414617	0.000926344221485	6.214772015471005e-05	0.0132600682966084	5.543538212775339e-05	732141.5828657161	31086679158.19756	3361254.75461306	487701707.7067955	7488149482.778982	0.3366008782745735	0.0030860271245514	4.853889521796663	11.274956233125843	10.528783395097	6450072282.658168	5642772647.618133	0.0103647093014408	6.501856212370692e-07	1.190038606000341	3.7224799946993786e-07	1.1634864449488012	0.0001428593462528	0.0010122840410436	7.896416941837302e-05	0.0001215252768013	0.1579446697106903	0.1878569153774156	3.074769689949321e-05	0.0	0.9856004693417506	0.99936931628378	3.254812939249316e-06	0.3776785467895526	0.4242623813294456	0.2059900591897925	0.1917352047828401	0.0391754753743982	0.0701108473795038	0.5149634910490511	0.5193092496760612	34.13380977768563	0.0095612968368204	1.4530658476601226	3.6988194838989368	4.448472639904028e-05	0.0067542510623715	0.0	1.825409223582854	5.0795353058303645	2.7760153738251687	89750576926.72485	316.51982427672647	402291658919.8989	95034.20079899368	54206855.13460477	89858.86438749352	54201041.60037644	83749.59241210687	96.86492623227	18.575016877634937	0.0001574286187231	7996421406.94229	1.2421239217746978	16.331078847558363	0.0001493027121064	8274705943.062846	20.09124379270921	0.0094432218526222	1.0339785374290265	0.094555552339335	18.63826617687059	0.0109994656858332	1.0466308627435048	0.1967860044710846	1.8007617099761388	2.0301662999726178	0.0910388800382741	0.0760863242829359	0.6341201266226352	0.021979100137904	150.72461500893806	149.84118761706236	0.0512549426437182	0.0523694299347362	1.878206644477889	2.153374018740412	14.862082060951243	6.48298597746781	4.77888461501092	131079.87464006516	43738.42689294299	297.0315406858396	14.613799126008528	0.9372409063004664	0.0942336588174976	4923761.045212828	7106158.683278151	113.1584126654493	36.37251093853604	27.78622444368012	3.0597702206708157	1.8559387696806495	105.64670153299912	60.21905673123854	9.256687141758352	4.523382074766374e-08	4.392510704068167e-08	7082.940038743744	2.342307208315643	2.0749707834845266	5.809201113551831	22.248483220028557	6.08435872410978	23.822779769496304	25.9634453268976	272.6971781480907	0.0146733576016879	4.9548064181202666e-06	24.512614694574456	292.98629939101573	1.0210632267783923	4.439106473209627e-06	0.7558491575333552	0.6690573121742297	0.0092790694585218	0.0027426576830752	111.08755615353184	1390.6255645823
10002	1900.0	1.0	2.051889877709637e-06	6.364068062297267e-07	0.0019976187613354	0.0008203908286567	0.0001438642468264	0.0009391453308866	3.2446902575592964e-06	0.0130616586525678	4.2978752744159845e-05	663219.9962587747	25712.909730138923	3634257.7252207184	5341933.330492652	8597182072.583437	0.3493198297995742	0.0032906871346127	4.974086136190222	11.438441921272265	10.44483804258528	6576375612.449213	6499453409.013744	0.0095302635448795	5.630732010511531e-07	1.0911544071727848	3.772713285613551e-07	1.107561887784228	0.0001513123822566	0.001060028518849	7.888038102766767e-05	9.44682248854776e-05	0.1884015435318514	0.1887003198473589	8.768483300809224e-06	0.0	0.9159162831767952	1.032354674138959	3.001323090589709e-06	0.3875875658182193	0.4205999234998778	0.191407591262299	0.2077541995981358	0.0427371045761809	0.0680143276159857	0.4870297104948658	0.5018135613549924	34.045012913362555	0.0104241548655355	1.4807797357412107	4.31166363302009	0.0005879906421303	0.0126040142185056	0.0	8.9396186457316	1.6207159132243278	6.013916726891512	88914317329.09497	286.6812597786773	417654600018.6719	93277.54872792908	50419403.92378665	84625.86972232844	52276757.325286254	94571.78555523865	108.8885391929403	15.69301155228654	0.0001480797511803	8169065634.225565	55.3273489131134	16.486662484472372	0.0001479368684338	8211150273.9664545	20.221276008410012	0.0094064445693723	1.017158817359434	0.3687108791241227	21.12141693323939	0.0104361256779614	0.913722853035137	0.1537493362268839	4.473694649560186	1.935098529898532	0.1097797888755777	0.0666852692313143	0.6037270340231141	0.0201286849251971	144.41017933478943	132.8934461870686	0.0469314777623824	0.0527637697081627	2.0517466236464874	1.828050181443502	13.065612424862673	220.04758747420144	37.57038260784283	132684.9609812547	47736.631369663366	307.48127772125787	14.71457836890285	0.7958042782799569	0.0867867953927554	5165616.838167296	6703052.246581888	114.6023976380465	39.36016615775462	29.44192998828543	2.8200818425175047	1.8652650668891049	100.53289122735777	71.28347049274971	10.070408293639986	4.297554113911488e-08	4.7635915142498894e-08	7671.842301792921	1.9681184489352948	2.3039881874143	5.443253400925571	24.131321780802256	6.523648416411567	22.25086084148235	24.02255780124188	280.5895136778462	0.0159758754448192	4.9022633290793245e-06	25.242428770215664	268.1829001801349	1.0314617017706076	4.64412967228304e-06	0.6778985202886987	0.7656742268123494	0.0002119386196207	0.001735297290106	111.842415579778	1546.3470241568416
10003	3500.0	1.0	2.0289262391609305e-06	6.296738129907692e-07	0.0009397651717451	0.0008305814235395	0.0001463220401935	0.0009805146288658	9.126432613619406e-06	0.0133571416973705	1.4550487249988329e-05	657642.6159560761	607142567.9806762	3089347.9826634694	4384631.018644968	8075521272.421199	0.3272019974442853	0.0033660870822517	5.368282498251128	10.35918986890683	10.70641492554484	5599444781.9158745	5653374425.711942	0.0101994546789828	5.566019965469589e-07	1.1618769064651937	3.8867933049772886e-07	1.0838969542386685	0.0001472606363561	0.0009862832439629	7.19424687257096e-05	0.0001255078355219	0.1625138454839332	0.1857583791837775	6.0315162187760666e-05	0.0	0.9001488889302603	1.0181161811129371	2.8589988891271724e-06	0.3503910443719789	0.4416933986164199	0.2073708896434593	0.2016041014320044	0.0369058534941439	0.0729878011459654	0.5135366064054808	0.5652045150047386	30.773116533685837	0.0097174839437812	1.540571508665394	3.699194065060104	3.092751311704752e-05	0.0065053286837906	0.0	7.182044572841488	8.82151919672191	3.766840709239134	85248079843.81334	309.5476804826789	417624736320.7638	88529.59006584052	52798321.15835686	79938.8964394209	54593799.87251074	81406.74388127956	107.28200010954563	18.30743318234488	0.0001489455489137	9148125997.930525	4.487285066022184	16.625642386862655	0.0001354372324226	8723092872.930948	18.2473208542674	0.0105177905817407	0.9909991877830948	0.1062020797978792	19.39033672978268	0.0099460914862929	1.0398819653322025	0.2243819351074021	7.143253684003308	1.8057363042693864	0.1072993913177558	0.0671462535626277	0.6319945388547787	0.0181947938029101	148.69358756090844	130.01016346230338	0.0510813217650893	0.046932866070237	2.10452890602439	1.9380819019622724	15.74717404780486	6.294454279241236	3.41434620113732	122205.9431786354	45384.54109925546	268.9939994170212	14.515815275866558	0.8055156782719739	0.0812820045670221	5225131.783696991	6540989.336775085	105.82462560514968	36.533050091537405	27.668649185060485	3.247858839601897	1.9732763782482088	104.88122479771248	65.98749667462806	10.684506029253496	4.19288049786768e-08	4.243875943872359e-08	7681.494780019243	2.066215330909679	2.18411493120238	6.18934859541693	23.100115314612903	5.641663822442552	21.84232569657664	22.92574015968892	269.91674156959806	0.0159143257115411	4.681617958312696e-06	26.12415238949581	281.6963181057692	0.9547456469682356	4.879287271900212e-06	0.763659030061588	0.7081605636257517	0.0069295554200717	0.000397973818394	95.43380937235132	1451.9912666556922
10004	3046.0	1.0	2.158725909244588e-06	6.703885678682265e-07	0.0018385431281257	0.0009436327512913	0.0001514507737055	0.0008843421675997	4.185639179801739e-06	0.0136291397478498	0.000128601286567	699686.4697017142	161664.93703143788	3456545.4897625246	3863082273.6340313	8482610828.864195	0.3086004220968946	0.0032381018264761	5.226422456579989	10.304854512855815	9.843368750540614	5481447174.596865	6436996979.6213455	0.0102296994584541	6.160508530076521e-07	1.1825517136373909	3.846298625400926e-07	1.1901814002455768	0.0001527986665673	0.0010270815314176	8.754119546720375e-05	0.0001245496766689	0.1825393302667436	0.1831090514964333	4.930581515155079e-05	0.0	1.0316933887568522	0.9104137806916264	3.167840917966424e-06	0.3920607770345519	0.4617443975561344	0.1991744619407334	0.2074782758331641	0.0430295284955391	0.0664022455439369	0.5132912333383063	0.5240256423354899	32.094462819620965	0.010632627953437	1.5157245306022584	4.190244573266934	6.70128576272352e-05	0.0074773994496637	0.0	1.54547696154704	2.937912666849948	6.816999083275041	80539480712.49153	315.32683358192065	406453380580.9279	93691.19422247208	50016819.58746536	87493.14108436048	48076077.74647722	79491.48897337916	97.72868280273666	17.826305412464414	0.0001490242846157	9270084379.067308	1.065717158908	16.377597813179136	0.0001393702031561	8510811776.416338	19.98848920228441	0.0094378890755631	1.0703034333717496	0.1292966660436523	20.69453383650044	0.0096231572190598	1.0163725580998302	0.150811770425318	4.520563691055318	1.8396776532817212	0.1012799248125077	0.0648222067770349	0.5478810426105872	0.0194235489249552	139.24770040160686	135.19893372887887	0.04678615424754	0.0523151479873628	1.8319394304943788	2.0032338607730007	15.128709648973508	80.67458941417134	3.999308938403747	121978.49453426764	43745.39655625732	301.82033173237346	14.17348502593802	0.8425310755399181	0.0936777047173055	4986701.088145061	6473544.696335958	108.56265031446269	39.89083156654191	28.67771716774135	3.1358290867649754	2.0817306594337723	102.66500810838888	115.78715205682748	10.087747586918413	4.3268936866787775e-08	4.28153966764403e-08	7422.976758612862	2.1416608694207357	2.3163605237928118	6.100147486350625	24.529815636071103	6.346375479868435	21.608072998106927	21.915342049050743	267.45952513282515	0.015127801098764	4.878864469725871e-06	22.660308055659588	265.2006864567362	1.07482915487153	4.461639961983147e-06	0.7725934674172965	0.8068826053972227	0.0053443453182338	0.0420005042708687	99.07881664508824	1651.661077023953
10005	3933.0	1.0	2.0609718958329176e-06	6.233943196768686e-07	0.0002926615648307	0.0008422193041863	0.0001446813606125	0.0009461765520465	4.376646176407449e-05	0.0120707564503752	0.0002348839474924	708978.9770147402	5023.25523879277	3428907.525948378	806007053.2030196	8650475288.62219	0.3144777371619368	0.0029522238421636	4.540926799677083	10.820088826574631	9.98815397212126	6290685264.355954	6114048619.352857	0.0102370607667219	5.344522394669354e-07	1.1254353748848869	3.2783164071633334e-07	1.1264445451342355	0.0001384653231642	0.0010762658186059	6.318317999272531e-05	6.39033131723926e-05	0.1864525300059088	0.1774068940084074	2.548495975859108e-05	0.0	0.9888661756681528	1.0315729078541622	2.7029496477815105e-06	0.3441063278157646	0.4961335726784664	0.1891824608946911	0.1892789802698457	0.0408353292614451	0.0629747546743857	0.4815052567556352	0.5310616767895885	39.43550623947182	0.0093900224712447	1.4371625301768676	3.747315996331864	3.262312374662603e-05	0.0059273067666589	0.0	6.5334340217362215	1.0817438635671222	2.2311229981970184	89287769904.55576	300.7102846484429	396718600124.49786	93976.37434824069	56992363.97678059	84327.60484439634	54275357.86712953	78015.09804316596	102.91808382641352	18.534726076983727	0.000148374281097	8047916655.209795	5.057955477895356	18.37646451462506	0.0001561170581174	9367582289.052189	19.493751730346	0.0090471621706466	1.01876382532675	0.0806320280557122	20.734261430707875	0.0102567069221267	0.9714952810564496	0.1366410287880645	8.252606773349019	2.1845552969643376	0.1098987567811187	0.0733807560984084	0.5747633617234504	0.0211790079442899	143.7525073740863	134.0557299299951	0.04815609923669	0.0543711119011931	2.1260479095504947	2.1649237843147557	13.419994766595847	232.48823533791716	0.4754523675718382	135781.38939622376	45005.96900787848	274.31151653216585	16.248104559679447	0.895329493951938	0.0844148626858319	5003150.275988832	6894207.088248307	123.14954641213627	36.53172608900016	31.377150195840606	2.7751124534544536	1.9227191989160903	108.45616688263408	92.09142839958496	10.548627708904217	4.7062918838879543e-08	4.322070933500333e-08	7395.319755336715	2.222254427119279	2.055845983644575	6.403781620883586	25.465931069200263	6.49719639113368	23.66868265939924	21.928789501026834	262.4026992742497	0.0139126820647727	4.426088274621636e-06	22.42584775195511	318.01493024035204	1.0312391076981615	5.052044144333392e-06	0.7616294788063367	0.7669601309422829	0.0187384097808922	0.0011087763122469	112.39147588123215	1654.1094468202557
10006	6599.0	1.0	1.874706835261544e-06	6.620560958788567e-07	0.0005569322756882	0.0008623119299626	0.000139237369381	0.0008159635132417	1.3108946001545811e-05	0.0133909075970065	0.0002419381454002	730887.2625720376	5330.511017453771	3142379.880685265	21785114585.52351	8417566997.8679	0.3449928939681443	0.0031828562011013	5.11161462407189	11.979346982186144	9.767455585356869	6479511825.313372	6527459984.237732	0.0097076757583446	6.168001531989632e-07	1.0965883716417852	3.800408168885982e-07	1.0255361382927404	0.0001640795769019	0.0010470950153018	5.013680531371741e-05	7.488434755059302e-05	0.1589775479906931	0.1735461839812962	4.135126682803269e-05	0.0	0.9131099144120876	1.075139627595569	2.7861187182050013e-06	0.3547576949310768	0.4896280653157684	0.1823862706810477	0.1811076728227106	0.0438975938158608	0.0654686222643594	0.4704222693933325	0.4781414422722171	28.488734140919348	0.0109325638722451	1.5886210294565626	4.242898210039442	0.0007570672006488	0.0041209874404111	0.0	4.73648606357758	7.963840841602411	1.0831867832171262	92046997590.12218	303.83673691919574	426321699081.5661	89414.76092086727	52401450.00662905	81488.00850714558	49634071.87000375	92267.17511405764	106.98252727402767	17.122906873688766	0.0001537731908153	9370541791.600218	19.976170914528904	15.915642496019894	0.0001417424940924	8407079108.905366	18.39580494540528	0.0104021273047421	1.0624319010713568	0.1664972299547223	21.27299109215064	0.0105992200192323	0.9212696360437472	0.515556495978467	1.1629401353628854	2.186553705186576	0.098154112740553	0.0760308130708266	0.636214969051708	0.0190339549291466	137.50067694299435	156.41914639230902	0.0549974533749413	0.050720047767387	1.879452357217677	2.0351531909978	15.107486496751015	1.6238532625232496	2.8135163208581964	121834.38700118678	43088.80080558446	263.5950144301737	15.805447520441373	0.8322246883034611	0.0823591134037652	5392701.396424344	6984263.491096949	114.64457419144532	34.18485974620497	27.21171911893913	3.2804249071618647	2.1206781789567075	93.22969754083832	96.44780760214822	10.463471834659124	4.0459746056546614e-08	4.7094804382034044e-08	8246.984204212316	2.279019853974999	2.1757677810591782	5.621668159648602	23.386728409058847	6.196245999675764	22.76684392971828	22.616054879479293	261.88322254353653	0.0141963591440655	4.62098922443819e-06	22.43389199286722	301.7072325314832	0.9543624022569548	5.203268961249282e-06	0.8008563311714191	0.7986123449818037	0.036851487493942	0.0019148192127348	108.51122777856224	1657.5565920671588
10007	6595.0	1.0	2.178002244807215e-06	6.424694656953062e-07	0.0001578066071485	0.0009325544709453	0.0001501009679431	0.0009102697215655	1.3033881578369831e-05	0.0128146142166826	2.276549375980949e-05	692007.5466628027	271679374.5831097	3554907.4295105934	9212539.992689762	8553697861.59252	0.3304023849947426	0.003257288196009	4.6273453054671005	10.60718785415176	10.849855066147487	6170343488.187442	6305588853.064628	0.009044493575625	6.479893728004021e-07	1.1071811907806115	3.427496427675959e-07	1.1194090105843408	0.0001441217814623	0.0010566687025266	0.0001008057458227	7.407595110280907e-05	0.1886830943653036	0.1759067123222921	6.726455032745166e-05	0.0	0.9959165129119688	1.0262977221886511	3.117049224229821e-06	0.3459754970585077	0.4985660699258179	0.1898519392397072	0.1904451301893672	0.0393133840667303	0.0670923671613197	0.532687835663932	0.5620821002604232	21.862127546557183	0.0105059090565082	1.42697434306088	3.698599542870639	2.5814477791531776e-05	0.003284298110681	0.0	9.87832143412992	9.090863307182971	5.555589834686155	90523162568.0198	269.7172546689702	417855776968.59033	84342.03949862235	52474910.76089138	84334.62199632698	48376232.27998159	89132.80924571805	100.3557654316771	17.22655545487814	0.0001463522015061	8454571179.923107	11.324486987230165	16.626880240078002	0.0001365461069514	9380861290.660048	19.06471954943989	0.0101131270071398	1.0913275692233773	0.3427066966767513	20.53856979565037	0.0107366320447825	1.0838693722310238	0.2663451754668612	4.237795834428888	1.9069057043013504	0.0985749330611143	0.0759622528457604	0.5829871322482845	0.0218066637806629	152.12773385686793	142.78368831017406	0.0493507837511239	0.0526458278032825	2.021771985837412	2.0340360018385666	15.179693507768295	1.6995656003201196	50.61034480961996	135448.96102016198	46229.00898074867	300.9835421395782	14.075942693387724	0.8222077955209509	0.0922779768709163	5031475.458616533	6307841.825402996	113.11880169978166	35.11642980452712	29.85472965389868	2.775856355578776	2.1407710077579964	98.45035851850577	65.28312503044755	10.367072858268031	4.295898113499335e-08	4.2343796410595945e-08	7255.904697217103	2.1354519370821925	1.9541665958302887	6.494444978931773	22.87738215808856	6.396776061490219	25.72255442387329	22.15794311943204	267.2799779953577	0.0145765440168234	5.050271553146169e-06	25.822452934991347	281.6292114595853	1.0187313026278637	4.773802290753058e-06	0.7642174334772751	0.7796587102258885	0.0590388450948878	0.0024297212576675	109.4183120326961	1542.2956993695716
10008	2479.0	1.0	1.931845625951596e-06	6.088885809198508e-07	0.0002110521676819	0.0008604646553895	0.0001557641821382	0.0009071364512801	1.777864545175212e-06	0.0139400039167387	3.288234561610908e-05	691091.1108065401	15349742314.193092	3040252.182963002	1790229.9171862705	8048008681.615179	0.318000128195356	0.0030459605324003	5.110311542798172	10.548004958670344	9.838904103019589	6472985231.949142	5787309745.277772	0.0104396916561194	5.50900679296727e-07	1.0520417517283236	3.7299328832668644e-07	1.077562993391808	0.0001604688870124	0.0009974179120479	6.63864340577285e-05	5.320656835440402e-05	0.1848825132283092	0.1857579719926085	5.008411535843883e-06	0.0	1.0670649695688907	1.0855366694143	2.756322990351815e-06	0.3954332232281596	0.4524574099780694	0.2018798630536838	0.1815008722356724	0.0424830926615181	0.0665139506469215	0.5157447542461506	0.5246451542828721	21.899101576690946	0.0096019576073407	1.3545770657212444	3.6881601169538714	1.37423671338353e-05	0.008686354466723	0.0	5.175369349714441	7.105869072017772	2.730985999536249	84217569414.6011	278.2035938526492	395838680007.1576	89176.96634942564	51510946.521889865	91921.16438684185	53558803.43289428	89259.30048627715	91.62030200024188	18.016636848060912	0.0001346802520904	8685573051.694616	63.078871327501055	15.99910328133218	0.0001324960968126	8231033245.421941	19.92226792283229	0.0098871420202703	1.0258444931567112	0.0653987730392879	18.714579155842756	0.0104391187721615	1.0238420074420438	0.2856966082808373	4.99438951703216	2.029858817228132	0.0911162118294223	0.0754760753369105	0.5825252561929571	0.019124423441935	131.90000562157587	150.3805423998765	0.0524417776370757	0.0544320722565266	1.903511471852267	2.0363731073179565	15.62154351090454	19.60411630272159	0.5787939291267944	131303.84184914088	42392.07603769621	265.25557477180206	15.71078048374441	0.7985443826435958	0.0828789926544678	5172277.725914869	7133621.949303999	103.69828235830168	39.01547480106291	30.006100546179105	2.795927887195702	1.833577669051498	101.088694649848	118.8657031611429	10.668713852426649	4.119358527553919e-08	4.5330084723683255e-08	8074.628505054712	2.3021851063781824	1.94400151644934	5.6960814760997485	21.967982874986536	5.795392628773947	24.26794153979052	24.333990393827168	272.2464131617609	0.0138276056014293	4.665885643344848e-06	23.665688936592133	297.41332675856063	0.9780996497534464	5.201969450157122e-06	0.7710448217924236	0.7872122905376058	0.0453256949226611	0.0345161270457369	115.85395499434716	1545.453375677342
10009	1963.0	1.0	2.0541883604221666e-06	6.474981690601028e-07	0.0027350721806379	0.0009276879221845	0.0001635568249376	0.0009796199418168	8.938452818444934e-05	0.0142741739156155	9.89968210953652e-05	673367.5179600513	21561796.480412178	3153861.1751574576	15987.442546655151	8262349541.933739	0.2999764715980346	0.0033084968618898	4.676832831613387	11.143575070168025	9.55654299875006	5503352947.978971	6040765090.29885	0.00931273277872	5.839338792922666e-07	1.220561290071255	3.484627396310299e-07	1.0547467973776867	0.0001532111342033	0.0010151988523074	0.0001064649881434	9.170492365817788e-05	0.1744561028887953	0.1690354236231182	5.879786301788149e-05	0.0	1.0735788990494393	1.0991206468269843	2.7113966897470074e-06	0.3326871716066228	0.4869735194349546	0.1864139939659102	0.1888299825430362	0.0435126235536493	0.0703814741317449	0.5523781966108489	0.5421835025188209	27.948132369793623	0.0096341886386066	1.5882231851109263	3.7902898237305354	4.7372099685248974e-05	0.0113738291860012	0.0	2.674632097189781	1.621404011199175	7.668015843708263	92116347759.19548	285.0894226153179	466949556257.59607	89181.13853200134	47350545.08169569	83963.06773912546	50359864.97509588	87393.6475414828	96.27216422431984	16.988414942344196	0.0001334406454913	8769058680.50436	6.063308728126852	16.447171548123748	0.0001408666479736	9467078604.295029	21.54219824383728	0.0106243231281069	0.9148921842215416	0.2597372390220451	21.839388336931115	0.0106921738839136	0.977157668839186	0.8909323737596707	7.151240824133846	1.886372306905966	0.1039411673284749	0.0777924881399287	0.6578845162458579	0.0189039313292823	148.7630791031797	156.43827940093604	0.0457660025313598	0.0465238153217032	2.150122384866972	1.9343040068422352	13.110028277784687	69.7274366589889	1.7334613341683736	125159.95788168788	44775.37496765353	285.50918165018425	13.731187660802238	0.9128760696934716	0.0842120136162047	4629334.136810787	6248056.374734466	122.44026852896164	37.85952705529805	30.18935744997981	2.74628329115635	1.9995962837310568	91.0546346938029	89.27735588068296	9.116876699037466	4.125182046389311e-08	4.048258246687536e-08	7350.495265783915	2.067800753779166	2.1471335750555243	6.576949209076241	21.8661485237054	5.9223928314312015	24.856443822869583	24.14968920024609	268.01550083202306	0.0144843012638858	5.123815909706755e-06	25.411407522613796	294.9136632182979	0.9921174668528304	5.265652316309614e-06	0.6976816790675466	0.6719299231279842	0.0009456407652185	0.0249348719353057	103.12556059184818	1536.780399218841
10010	3784.0	1.0	2.0609718958329176e-06	6.233943196768686e-07	0.0002926615648307	0.0008422193041863	0.0001446813606125	0.0009461765520465	4.376646176407449e-05	0.0120707564503752	0.0002348839474924	708978.9770147402	5023.25523879277	3428907.525948378	806007053.2030196	8650475288.62219	0.3144777371619368	0.0029522238421636	4.540926799677083	10.820088826574631	9.98815397212126	6290685264.355954	6114048619.352857	0.0102370607667219	5.344522394669354e-07	1.1254353748848869	3.2783164071633334e-07	1.1264445451342355	0.0001384653231642	0.0010762658186059	6.318317999272531e-05	6.39033131723926e-05	0.1864525300059088	0.1774068940084074	2.548495975859108e-05	0.0	0.9888661756681528	1.0315729078541622	2.7029496477815105e-06	0.3441063278157646	0.4961335726784664	0.1891824608946911	0.1892789802698457	0.0408353292614451	0.0629747546743857	0.4815052567556352	0.5310616767895885	29.435506239471824	0.0093900224712447	1.4371625301768676	3.747315996331864	3.262312374662603e-05	0.0059273067666589	0.0	6.5334340217362215	1.0817438635671222	2.2311229981970184	89287769904.55576	300.7102846484429	396718600124.49786	93976.37434824069	56992363.97678059	84327.60484439634	54275357.86712953	78015.09804316596	102.91808382641352	18.534726076983727	0.000148374281097	8047916655.209795	5.057955477895356	18.37646451462506	0.0001561170581174	9367582289.052189	19.493751730346	0.0090471621706466	1.01876382532675	0.0806320280557122	20.734261430707875	0.0102567069221267	0.9714952810564496	0.1366410287880645	8.252606773349019	2.1845552969643376	0.1098987567811187	0.0733807560984084	0.5747633617234504	0.0211790079442899	143.7525073740863	134.0557299299951	0.04815609923669	0.0543711119011931	2.1260479095504947	2.1649237843147557	13.419994766595847	232.48823533791716	0.4754523675718382	135781.38939622376	45005.96900787848	274.31151653216585	16.248104559679447	0.895329493951938	0.0844148626858319	5003150.275988832	6894207.088248307	123.14954641213627	36.53172608900016	31.377150195840606	2.7751124534544536	1.9227191989160903	108.45616688263408	92.09142839958496	10.548627708904217	4.7062918838879543e-08	4.322070933500333e-08	7395.319755336715	2.222254427119279	2.055845983644575	6.403781620883586	25.465931069200263	6.49719639113368	23.66868265939924	21.928789501026834	262.4026992742497	0.0139126820647727	4.426088274621636e-06	22.42584775195511	318.01493024035204	1.0312391076981615	5.052044144333392e-06	0.7616294788063367	0.7669601309422829	0.0187384097808922	0.0011087763122469	112.39147588123215	1654.1094468202557
10011	4546.0	1.0	2.0076664666219123e-06	6.579519599050462e-07	0.0001367006986585	0.0008258364263942	0.0001395140131422	0.0009057638811324	1.1015531561161269e-05	0.0123013873133809	0.000117290418465	711149.7258396059	123938.95717253909	3162831.329952206	2591750.954816651	7671555416.66279	0.2975441020961355	0.003243766662982	5.3968547615161455	10.701181031215317	9.17606747978447	5619019779.798248	5497126194.626003	0.0097488370785511	6.297837146493057e-07	1.048806064535767	3.798232084089548e-07	1.0200275721937813	0.0001405004109673	0.001056569153525	5.531235813384307e-05	7.277073297742182e-05	0.1775661925577975	0.1691850742955644	4.097498974193347e-05	0.0	1.0327348713051685	1.0183937951399844	3.148325440127319e-06	0.395331183438659	0.49877039385999	0.2084345939366883	0.217969091216879	0.0440642745062479	0.0695072340772407	0.5139839828451427	0.4733584889248861	17.313085235703845	0.0094837507332066	1.478755288839283	3.9832011988554497	4.692240378687629e-05	0.0046321427102123	0.0	3.374435147837915	3.34894798379085	2.134131353604757	89767239918.2805	284.8594923614929	421470071258.25806	80969.71158883364	56036634.38840552	88345.91164658511	52729578.01861314	81496.59274781444	90.7526468116206	18.103597226899485	0.0001425462369913	8833414228.466269	1.2565147406611483	17.008403488607648	0.0001341572732214	9462946336.040648	20.14197278301558	0.0091698343646935	0.9183123930806664	0.1255024503205321	21.62697780019833	0.0106387533865321	0.970314275737835	0.2574207791231084	9.685275301835166	1.9954436679406136	0.0968989164382041	0.0699817374299752	0.5911808072390496	0.0211121572341911	141.86002922971642	153.3913190930424	0.0528747036696631	0.0455820809883525	1.974542047382974	2.1851703304966623	13.452501869652526	771.2016263181379	1.0344636414160124	135112.9482785417	49396.57029480061	308.5377976236596	14.263578450263545	0.8863196716102835	0.0922958720921498	4844008.244090127	7250212.083892748	117.6129433133178	35.94204324794286	26.2422773906796	3.128539561545101	1.904713005224091	90.62070785936604	89.59385715722276	9.248586969017891	4.8172938786426076e-08	4.5899041932595295e-08	8245.81915905689	2.072432973980138	2.084982457051122	5.5593004027602255	25.5029819866511	6.22698221726872	25.6112157219134	22.7819086634233	297.13187175734663	0.0139665796965204	4.647844698700795e-06	21.67728850334719	283.7185698608823	1.075026075707887	5.161641232482216e-06	0.6754219644313909	0.7459657535976693	0.0005750150777118	0.0005088238900824	109.2719116039172	1455.6613286997022
10012	5291.0	1.0	2.06379306416078e-06	7.040357596538036e-07	0.0010697074944021	0.0009740967479316	0.0001430550859721	0.0008663195802656	5.377442571045313e-05	0.0122681766214537	0.0001821327751447	640126.2928916926	9975920.537402976	3540266.35780135	94237769.4880314	8634229381.116644	0.2988263513425216	0.0031530128049712	4.7473320868472255	11.634845876534998	9.47540820030251	5942726768.295617	5607101743.985456	0.0095468796548619	5.873996778423461e-07	1.061100808303881	3.456024410394596e-07	1.2155006926163037	0.0001446950846486	0.0009659961820712	6.121957286837745e-05	0.0001309009734818	0.1801735218562523	0.1708820214636101	2.1458311113459444e-05	0.0	0.9923776557338286	0.9718656184861468	3.1880934134865867e-06	0.3613648584491954	0.4656593741931006	0.2197494255313967	0.1937647139871353	0.0397522992352371	0.0607297989132092	0.5182346985874561	0.5008342472247304	15.926166199918455	0.0091096887033353	1.5617071009542096	4.181907991684633	0.0004993229539407	0.0043907078409216	0.0	3.677620535871351	1.7070047847278953	5.346988517159753	90617672297.2623	285.53231424124783	412173978278.4986	80570.37785472155	47102651.01589192	87587.21041134397	56775223.35791224	86641.69046820732	94.98238910851184	16.019642513965394	0.0001335625074218	8960160870.970028	1.3634234410426225	18.109395401033677	0.0001378772921803	8082098420.018401	20.049133032354035	0.0095205212419905	1.0973064126055518	0.1085887956536414	18.443009824725216	0.0099460652422123	0.966749969021516	0.9059032946095238	8.782974417494966	1.80914073238747	0.0995398132402933	0.078621754981382	0.565829316177011	0.0217065613293321	138.82352163528685	154.85415196881038	0.0511721304055904	0.0450288122078809	1.96086786243995	1.9699403519417944	13.251679848687848	63.95320648922037	1.130019907691906	129197.55149677732	46824.30302445777	294.1330337217379	15.428448525571756	0.9225097466170428	0.0946523482917572	5427975.713344997	6232196.096545952	101.99253358697597	35.81179140858781	27.747019438171844	2.983021315987437	1.9219124054739656	101.30194787395148	52.597689153479976	9.795621342917231	4.2909898972599374e-08	4.04651486063958e-08	7844.043528447658	2.205138263231162	2.260638902723733	5.945882702412337	23.863983362449343	6.42763744604898	22.97009824373565	22.87103397057504	273.0587796546027	0.0163018253738791	5.204994137917306e-06	25.133574592240944	270.2553437948566	1.0314323180255565	4.615869484177428e-06	0.7530866581659054	0.7200381446580091	0.0068854038643735	0.0151603805669876	116.3343608910882	1455.5548818168595
10013	3561.0	1.0	2.1555378290472435e-06	6.103196186207964e-07	0.0006719800716038	0.0008413081551932	0.0001407987599118	0.0008984739357484	5.2654119671833525e-06	0.0128497559250545	6.368336102037698e-05	691878.680861296	290457315.7749528	3005569.6867738324	8232.727305466822	7949675671.30539	0.3473942399343462	0.0031502515163163	4.812960898477065	10.16276419386359	9.370898979595324	6501173570.609021	5713341793.666102	0.0102065455359852	6.486426882745642e-07	1.1914353936152633	3.54133598479571e-07	1.1518279619719942	0.0001471859681355	0.0011390133209127	5.26444268186964e-05	6.685758729552998e-05	0.1560665226776189	0.1722479093781318	4.3054518408476274e-05	0.0	1.0099053162730651	1.0418339252516295	3.144656255635879e-06	0.3919403115074401	0.4271464946258309	0.1978516859115972	0.2039743144028213	0.0369030775414792	0.062543178444031	0.5121087599485691	0.5161257882295744	10.348328454672895	0.0101412433225339	1.3563726465987946	4.224399969473015	0.0001501522822428	0.0055735814047651	0.0	7.364524779021921	5.349617970870311	2.160495858261664	79669454392.21756	308.87127532050283	428831938585.1063	92632.72193408672	51451025.81031943	79226.49351244015	48732123.11563059	83022.08762341781	105.61683227227768	15.698444021059036	0.0001356162474368	8048348597.386374	7.475974935751711	18.343044915205294	0.0001540984329607	8886918469.120441	19.97487817686126	0.0105933406701271	0.900970240152957	0.3947645717973927	21.67772756536643	0.0096489600648705	1.055708655812286	0.4098716627638376	7.35073362182874	1.989977061955848	0.0932557965105589	0.0784802859941564	0.5861179524598868	0.0188556469143611	151.9030763896673	151.18060807695986	0.0473588352101315	0.0470443077393938	2.114324934639126	2.129956240454184	14.909377235291096	1.816213190939536	6.294090920216776	121071.47008103329	49241.31618841445	281.23335902876204	15.629498068333383	0.9184728378480476	0.0883090662140878	5227084.551683229	6792722.230865635	115.74044603852896	38.1000522157024	27.54080370866693	2.7406735308286847	2.0243272665181777	102.81011609577808	123.21046160247565	10.660365192501564	4.0569509052483635e-08	4.624503253946286e-08	7819.077582722782	2.27899209895901	2.238046424337947	5.669237885302034	25.59680311147265	5.483908994422695	25.432281195246023	24.236142266978657	279.59728023967926	0.016449065925505	5.072165740903701e-06	21.909661027921157	315.31014933353515	1.0061683033832118	4.60807114431358e-06	0.7501746219420142	0.73593666480905	0.0020671563301783	0.0005628386765608	102.60995595446585	1433.5216011739276
10014	6030.0	1.0	2.178002244807215e-06	6.424694656953062e-07	0.0001578066071485	0.0009325544709453	0.0001501009679431	0.0009102697215655	1.3033881578369831e-05	0.0128146142166826	2.276549375980949e-05	692007.5466628027	271679374.5831097	3554907.4295105934	9212539.992689762	8553697861.59252	0.3304023849947426	0.003257288196009	4.6273453054671005	10.60718785415176	10.849855066147487	6170343488.187442	6305588853.064628	0.009044493575625	6.479893728004021e-07	1.1071811907806115	3.427496427675959e-07	1.1194090105843408	0.0001441217814623	0.0010566687025266	0.0001008057458227	7.407595110280907e-05	0.1886830943653036	0.1759067123222921	6.726455032745166e-05	0.0	0.9959165129119688	1.0262977221886511	3.117049224229821e-06	0.3459754970585077	0.4985660699258179	0.1898519392397072	0.1904451301893672	0.0393133840667303	0.0670923671613197	0.532687835663932	0.5620821002604232	11.862127546557184	0.0105059090565082	1.42697434306088	3.698599542870639	2.5814477791531776e-05	0.003284298110681	0.0	9.87832143412992	9.090863307182971	5.555589834686155	90523162568.0198	269.7172546689702	417855776968.59033	84342.03949862235	52474910.76089138	84334.62199632698	48376232.27998159	89132.80924571805	100.3557654316771	17.22655545487814	0.0001463522015061	8454571179.923107	11.324486987230165	16.626880240078002	0.0001365461069514	9380861290.660048	19.06471954943989	0.0101131270071398	1.0913275692233773	0.3427066966767513	20.53856979565037	0.0107366320447825	1.0838693722310238	0.2663451754668612	4.237795834428888	1.9069057043013504	0.0985749330611143	0.0759622528457604	0.5829871322482845	0.0218066637806629	152.12773385686793	142.78368831017406	0.0493507837511239	0.0526458278032825	2.021771985837412	2.0340360018385666	15.179693507768295	1.6995656003201196	50.61034480961996	135448.96102016198	46229.00898074867	300.9835421395782	14.075942693387724	0.8222077955209509	0.0922779768709163	5031475.458616533	6307841.825402996	113.11880169978166	35.11642980452712	29.85472965389868	2.775856355578776	2.1407710077579964	98.45035851850577	65.28312503044755	10.367072858268031	4.295898113499335e-08	4.2343796410595945e-08	7255.904697217103	2.1354519370821925	1.9541665958302887	6.494444978931773	22.87738215808856	6.396776061490219	25.72255442387329	22.15794311943204	267.2799779953577	0.0145765440168234	5.050271553146169e-06	25.822452934991347	281.6292114595853	1.0187313026278637	4.773802290753058e-06	0.7642174334772751	0.7796587102258885	0.0590388450948878	0.0024297212576675	109.4183120326961	1542.2956993695716
