{
    "synthesized_therapy": {
        "ate_freq_in": 4.108,
        "ate_m10_in": 23.4816,
        "ate_m11_in": 23.4816,
        "ate_m12_in": 23.4816,
        "ate_m13_in": 23.4816,
        "ate_m14_in": 22.4986,
        "ate_m15_in": 23.4816,
        "ate_m1_in": 8.256,
        "ate_m2_in": 23.4816,
        "ate_m3_in": 23.4816,
        "ate_m4_in": 23.4816,
        "ate_m5_in": 23.4816,
        "ate_m6_in": 23.4816,
        "ate_m7_in": 23.4816,
        "ate_m8_in": 23.4816,
        "ate_m9_in": 23.4816,
        "cibi_freq_in": 3.608,
        "cibi_m10_in": 156.544,
        "cibi_m11_in": 156.544,
        "cibi_m12_in": 156.544,
        "cibi_m13_in": 156.544,
        "cibi_m14_in": 156.544,
        "cibi_m15_in": 156.544,
        "cibi_m1_in": 156.544,
        "cibi_m2_in": 156.544,
        "cibi_m3_in": 156.544,
        "cibi_m4_in": 156.544,
        "cibi_m5_in": 156.544,
        "cibi_m6_in": 156.544,
        "cibi_m7_in": 156.544,
        "cibi_m8_in": 156.544,
        "cibi_m9_in": 156.544
    },
    "tumour_diameter": 8.087797725255431,
    "total_drugs": 81.24413888888891,
    "objective": 13.813373714434274,
    "inefficacy": 6.3210664728282016
}
