{
    "ate_drug": [
        3.74603,
        14.3521,
        9.87754,
        7.02745,
        5.66864,
        9.0498,
        14.2987,
        23.857,
        20.5401,
        23.5068,
        4.10415,
        7.68638,
        6.15912,
        11.5325,
        1.08921,
        15.8526
    ],
    "cibi_drug": [
        5.37087,
        63.8911,
        11.6229,
        150.486,
        88.5773,
        111.315,
        147.35,
        30.9431,
        66.4473,
        60.9379,
        67.9267,
        90.626,
        134.877,
        85.3264,
        80.4682,
        28.348
    ],
    "inefficacy": 8.963303210394661,
    "total_drugs": 38.929682812500005,
    "objective_value": 11.959941170605196,
    "tumour_diameter": [
        28.045819318251116,
        28.15106525931509,
        28.255077030031902,
        28.357682167639336,
        28.4587293575987,
        28.55808932532156,
        28.655653600455015,
        28.75133264959356,
        28.845053781912593,
        28.93675910384618,
        29.026403654968647,
        29.113953763362957,
        29.199385597622747,
        29.282683907837317,
        29.363840924275095,
        29.44285539501585,
        29.519731775343523,
        29.594479468628236,
        29.667112214591164,
        29.73764752444831,
        29.806106182554938,
        29.872511801942675,
        29.93689042708945,
        29.999270218442508,
        30.059681130298504,
        30.118154691823484,
        30.17472379835323,
        30.229422541215158,
        30.28228606551897,
        30.33332326021429,
        30.38253247212386,
        30.429934849511486,
        30.47555264805863,
        30.519409062938085,
        30.561528084126714,
        30.601934370765168,
        30.640695424920377,
        30.677883125417882,
        30.713488650578203,
        30.747511346111803,
        30.779959655209538,
        30.810848543922436,
        30.840197529724247,
        30.868029280063062,
        30.89436864624925,
        30.919241996306678,
        30.942676767516925,
        30.964701163044236,
        30.9853439530557,
        31.00463434702922,
        31.022601910422473,
        31.039276522379534,
        31.05468830813207,
        31.06886760658862,
        31.081844926945244,
        31.093650923723455,
        31.10431639190193,
        31.113839512095716,
        31.122205217561483,
        31.129425552944188,
        31.13551349073186,
        31.140482844200953,
        31.14434819361358,
        31.147124823298174,
        31.14882866643061,
        31.14947626573886,
        31.149084726317724,
        31.147671691612263,
        31.145255311678884,
        31.141854230827185,
        31.137487567308327,
        31.13230827729464,
        31.12654404922921,
        31.12014295274515,
        31.113036757835754,
        31.105167599379264,
        31.09649523721475,
        31.086998187182324,
        31.076670761793075,
        31.06551905354576,
        31.053557424172148,
        31.04080593292259,
        31.027288548770954,
        31.013031951857535,
        30.998064741817327,
        30.982370467873242,
        30.96591491528543,
        30.94870310793777,
        30.930741905452628,
        30.91203977091221,
        30.892606581470062,
        30.872453459260363,
        30.851592612955088,
        30.830037203263174,
        30.8078012234283,
        30.784899424185827,
        30.76134726031616,
        30.737160860372896,
        30.712357010325974,
        30.686953146946458,
        30.66096736064611,
        30.63441839257659,
        30.607325644766753,
        30.579709186959033,
        30.5515897661919,
        30.522988818052298,
        30.494063405439675,
        30.46503245633415,
        30.435832824740128,
        30.406395720994034,
        30.37667151453949,
        30.346632082726618,
        30.316268002552587,
        30.285521148783204,
        30.254318304135598,
        30.22264554724902,
        30.19049551286274,
        30.157865757774765,
        30.124757622143825,
        30.091175430465007,
        30.05712592793352,
        30.022617884415407,
        29.98766180739314,
        29.95226973808643,
        29.916455089737724,
        29.880232507022217,
        29.84361773497386,
        29.80662750067313,
        29.769279423254318,
        29.73159194629729,
        29.69358430645214,
        29.65527651942863,
        29.61668938091152,
        29.577844475861685,
        29.53876419227147,
        29.49947173810657,
        29.459991158125852,
        29.420347351308884,
        29.38056609126285,
        29.340674043217458,
        29.30069878328116,
        29.260728326071,
        29.220889829207472,
        29.18108062733346,
        29.14118913266997,
        29.101122379172523,
        29.06081067382114,
        29.020206001265187,
        28.979277590521274,
        28.9380073818641,
        28.896386422373244,
        28.854412275935598,
        28.81208722559022,
        28.76941704501696,
        28.72641015088809,
        28.68307702846033,
        28.639429838468512,
        28.595482148065248,
        28.551248750414203,
        28.50674553391584,
        28.461989375328674,
        28.41699804095062,
        28.37179009470523,
        28.32638482459773,
        28.280802194911047,
        28.235062825849223,
        28.18918799521821,
        28.143199653377092,
        28.09712044662853,
        28.05090885212811,
        28.004497921716087,
        27.95787481548139,
        27.911028969506784,
        27.863951902624006,
        27.816637043913715,
        27.769079578078877,
        27.721377459975,
        27.67365445236952,
        27.62583216949847,
        27.577844396402924,
        27.529646170089574,
        27.481209453345503,
        27.43251860664655,
        27.383566774792428,
        27.33435329377592,
        27.28488190047441,
        27.235159517092733,
        27.185195426826354,
        27.13500071696358,
        27.084587906045478,
        27.033970696271435,
        26.983163810400885,
        26.932182878920592,
        26.881044350015163,
        26.82976540569231,
        26.778363883660163,
        26.72685821504041,
        26.67522006387337,
        26.623402291577893,
        26.57139690228338,
        26.519197395157803,
        26.46679863523237,
        26.414196742050216,
        26.361388992186814,
        26.30837373323149,
        26.25515030739755,
        26.201718984162714,
        26.14808090017928,
        26.09423800689156,
        26.04019302473116,
        25.98594940141662,
        25.931637866011343,
        25.877439959951975,
        25.823274242932545,
        25.769059591412734,
        25.71473585232407,
        25.660263495472545,
        25.605619649629283,
        25.550793620462137,
        25.495783225615448,
        25.44059215087192,
        25.385228134869216,
        25.329701748521362,
        25.274025580527006,
        25.218213698955655,
        25.162251824210593,
        25.106114353158986,
        25.049800339466177,
        24.99331000182152,
        24.936644563239486,
        24.879806104000057,
        24.822797424674185,
        24.76562192800969,
        24.708283527044475,
        24.65078658607883,
        24.59313588343793,
        24.535336593287283,
        24.477394278487285,
        24.419314889658377,
        24.361104768585072,
        24.30277065098214,
        24.244319675632322,
        24.185759389302323,
        24.12709775490229,
        24.068343159673436,
        24.009504424350226,
        23.950710630853855,
        23.892136314005807,
        23.833707994247092,
        23.77535412296798,
        23.717023684477425,
        23.65868518769655,
        23.600322633046016,
        23.541899766902446,
        23.483375147164743,
        23.424738245452154,
        23.365982807087867,
        23.307105653104017,
        23.248105859658587,
        23.1889841958621,
        23.129742735427513,
        23.070384594899586,
        23.010913752487493,
        22.951334914753897,
        22.891653409043258,
        22.831875083312624,
        22.77200621256659,
        22.712053422365514,
        22.65202363292019,
        22.591924036393642,
        22.531762086921212,
        22.471545508065283,
        22.411282307320274,
        22.350980794402663,
        22.290649602484848,
        22.230297702220827,
        22.169934430150636,
        22.109569502463657,
        22.049213032789023,
        21.988875553718323,
        21.928568031906806,
        21.868401929330062,
        21.808528653998966,
        21.748871467119013,
        21.689353828385123,
        21.62991849343897,
        21.57052732767579,
        21.511157713855575,
        21.45179842966962,
        21.392446257412008,
        21.333103541225167,
        21.273776499892605,
        21.214474094326302,
        21.155207269223762,
        21.095988448966565,
        21.036831207596812,
        20.977750052259328,
        20.918760292815687,
        20.859877951475042,
        20.801119697963408,
        20.742502789974075,
        20.684045016017702,
        20.625764651782266,
        20.5676804240967,
        20.509811519875218,
        20.45217758914172,
        20.39479877091191,
        20.337695722118564,
        20.28088964893256,
        20.22433810496168,
        20.167973478256904,
        20.111781687066653,
        20.055750864585534,
        19.999871184049564,
        19.94413470259303,
        19.88853522095575,
        19.83318926139447,
        19.778278746197216,
        19.72373376452981,
        19.669472671770095,
        19.615425925807543,
        19.56154161727978,
        19.50778543385324,
        19.454137451096745,
        19.400588366921895,
        19.34713639658461,
        19.293785009318523,
        19.240541374523126,
        19.187415313252846,
        19.134418594473697,
        19.081564467159815,
        19.028867348338874,
        18.976342624802935,
        18.92400652233722,
        18.871876021158865,
        18.819968792093782,
        18.76830313841014,
        18.71684894811963,
        18.665556929628394,
        18.614418646033492,
        18.56342734089274,
        18.512577793275195,
        18.461866199158045,
        18.411290071808338,
        18.360848158380975,
        18.310540355506053,
        18.260367658184457,
        18.210332091571352,
        18.160436662049598,
        18.110685311386426,
        18.06108287601481,
        18.011735286605816,
        17.962793063940367,
        17.914198340917473,
        17.865890136230608,
        17.81782238132372,
        17.769965289782746,
        17.722303017187183,
        17.67483023974157,
        17.627549119310686,
        17.58046705764887,
        17.533595125908413,
        17.486947010559316,
        17.440538307746166,
        17.39438605465061,
        17.34845170519752,
        17.30267495037927,
        17.25704293713898,
        17.211544918105076,
        17.166172020329245,
        17.120917038749983,
        17.075774246072022,
        17.030739223453924,
        16.98580871123542,
        16.94098049978261,
        16.89625333457905,
        16.851626847008443,
        16.807101498645896,
        16.76267853554404,
        16.718359952461675,
        16.674148450241262,
        16.630047421995485,
        16.586060918365227,
        16.54219362876366,
        16.498450862585184,
        16.454838533410953,
        16.411452108428108,
        16.368425266303383,
        16.32570670848824,
        16.283243141759034,
        16.240994945686406,
        16.198937012791646,
        16.157056460925055,
        16.115335492713687,
        16.073757063700487,
        16.03232032115945,
        15.991027911587908,
        15.949885025235439,
        15.90889875013215,
        15.868077635053902,
        15.827431395987984
    ]
}