{
    "ate_drug": [
        4.66287,
        24.0,
        4.0,
        4.0,
        4.0,
        4.0,
        4.01143,
        4.0,
        4.0,
        4.0,
        7.14333,
        4.01423,
        4.78583,
        4.0,
        4.0,
        0.856668
    ],
    "cibi_drug": [
        3.38428,
        160.0,
        160.0,
        140.0,
        160.0,
        140.0,
        140.0,
        140.0,
        140.0,
        140.0,
        140.0,
        140.0,
        140.0,
        140.0,
        140.0,
        140.0
    ],
    "inefficacy": 7.9539165750352225,
    "total_drugs": 54.99016111111111,
    "objective_value": 12.657541028642811,
    "tumour_diameter": [
        10.356024554320921,
        10.374729929615478,
        10.393413408758743,
        10.412063476207699,
        10.430669752377945,
        10.449222897876684,
        10.467714517188169,
        10.486137060184225,
        10.504483721087666,
        10.522748335178173,
        10.540925278157307,
        10.559009382001454,
        10.576995880019485,
        10.594880389333692,
        10.612658924554317,
        10.630327924333129,
        10.647884271847909,
        10.665325295530721,
        10.682648751633439,
        10.699852792110523,
        10.716935925278342,
        10.733896975300745,
        10.750740978483487,
        10.767473654495317,
        10.784093999034244,
        10.800601158079042,
        10.816994408283872,
        10.833273113489861,
        10.849436670585865,
        10.86548444264759,
        10.881415686187035,
        10.897229484422796,
        10.912924718513064,
        10.928500096780416,
        10.94395424909437,
        10.959285862529617,
        10.974493591114937,
        10.989576252610084,
        11.004533153405728,
        11.019363918484945,
        11.034068459265912,
        11.048646928582318,
        11.063099674394406,
        11.077437478672035,
        11.091671760190803,
        11.105801906384055,
        11.119827352291125,
        11.13374757391113,
        11.147562040438913,
        11.161270149825882,
        11.174871145431455,
        11.188364024913916,
        11.201747461610095,
        11.215019783474586,
        11.2281790386521,
        11.241223153500249,
        11.254150144260436,
        11.266958318766028,
        11.279646418372094,
        11.292213676219742,
        11.304659812534847,
        11.316984987218378,
        11.329189736443075,
        11.341274909806778,
        11.353255756323486,
        11.365148347626224,
        11.376952193413599,
        11.388666940811753,
        11.40029237392376,
        11.411828356337473,
        11.42327475225306,
        11.434628263924123,
        11.44588383733706,
        11.457038376517705,
        11.468088418419914,
        11.479030243208287,
        11.489860094951355,
        11.500574451062162,
        11.511170257550466,
        11.521645075569173,
        11.531997121457703,
        11.54222523289824,
        11.552328789328318,
        11.562307618929621,
        11.5721619103898,
        11.581910007330485,
        11.591571178145964,
        11.601143688149154,
        11.61062593159572,
        11.62001642258809,
        11.629313713945011,
        11.638516289315419,
        11.647622429110214,
        11.656630072992058,
        11.665536722165632,
        11.674339448283941,
        11.683035048485385,
        11.691620334579257,
        11.70009247854719,
        11.708449312585334,
        11.716689517578763,
        11.724812681287014,
        11.732819266001542,
        11.74071052249557,
        11.748488389087244,
        11.756155398324795,
        11.763730057301425,
        11.77122919665242,
        11.778649157053026,
        11.785986523435186,
        11.793238103611827,
        11.8004008259889,
        11.807471607542897,
        11.814447189855745,
        11.821323963036981,
        11.828097821838025,
        11.834764130731566,
        11.841317853249025,
        11.847753849029267,
        11.854067261794818,
        11.860253878882949,
        11.86631037204172,
        11.872234382536185,
        11.878024490155266,
        11.883680105809448,
        11.889201339864474,
        11.894588873577739,
        11.89986861753932,
        11.905067809302658,
        11.910184605933644,
        11.915217392123216,
        11.920164774067343,
        11.925025474939462,
        11.929798195266164,
        11.934481439932403,
        11.939073342578778,
        11.94357154763022,
        11.947973236988675,
        11.952275353943463,
        11.956475004126775,
        11.960569927461423,
        11.964551494379576,
        11.96840861677317,
        11.972137001416318,
        11.975733476638133,
        11.979195844292551,
        11.982522712210068,
        11.985713336958502,
        11.988795508768627,
        11.9917984679739,
        11.994718534876133,
        11.997552266416763,
        12.000296434649433,
        12.0029478938003,
        12.005503407358216,
        12.0079594367258,
        12.010311925122368,
        12.012556146811821,
        12.014686716219277,
        12.01669781967837,
        12.018583646463863,
        12.020338901110438,
        12.021959242719568,
        12.023441550601962,
        12.024783997108942,
        12.025985982620261,
        12.027047986403051,
        12.027971402041025,
        12.028758384665256,
        12.029443057483801,
        12.030061178927946,
        12.030611750960285,
        12.031094164352858,
        12.03150820160677,
        12.031853917220378,
        12.032131475850207,
        12.03233207559383,
        12.032442215387501,
        12.03245451324254,
        12.032360959759659,
        12.032153152649224,
        12.031822750817298,
        12.031362017538093,
        12.030764284269523,
        12.030024225303926,
        12.02913791894358,
        12.028102759844186,
        12.026917278965293,
        12.025580946103684,
        12.024093982555724,
        12.022491674132173,
        12.020811052307788,
        12.019048616788535,
        12.017201138810139,
        12.01526564449085,
        12.013239261987215,
        12.011119020099565,
        12.008901601368716,
        12.006583092215303,
        12.004158810539588,
        12.00162333187984,
        11.998970783330007,
        11.996195377504401,
        11.993292041752794,
        11.990256956017511,
        11.987087880983148,
        11.983784250182403,
        11.980347096320683,
        11.976778884039007,
        11.973083317986283,
        11.969265166880867,
        11.965356917833349,
        11.961388043022806,
        11.957352292793095,
        11.953243814894478,
        11.949057115295574,
        11.94478687331068,
        11.94042770456388,
        11.935973875397071,
        11.931419012509938,
        11.92675589725187,
        11.921976471426495,
        11.917072131415996,
        11.912034281425111,
        11.906854989540625,
        11.901527547305404,
        11.896046803682394,
        11.890409245348206,
        11.884612898066925,
        11.87865712612282,
        11.872542404386303,
        11.866270106433992,
        11.85988269523052,
        11.853424720272235,
        11.84689330787756,
        11.840285946679856,
        11.83360047989611,
        11.826834938871526,
        11.819987321664449,
        11.813055320111099,
        11.806036044999212,
        11.7989258446751,
        11.791720353485664,
        11.78441485042061,
        11.777004892977496,
        11.769487057187323,
        11.76184800750155,
        11.754070593104366,
        11.746148261611019,
        11.738076203985255,
        11.7298511194432,
        11.721470951587728,
        11.712934641968637,
        11.704284748327428,
        11.69556610871367,
        11.686773263326076,
        11.677901093577068,
        11.668944792798223,
        11.659899667957655,
        11.650760881571175,
        11.641523137475145,
        11.632180361954374,
        11.622725481765215,
        11.613150444792979,
        11.603446570306087,
        11.59360519440771,
        11.583618430937799,
        11.573479820742762,
        11.563184721701234,
        11.5527304101206,
        11.542115977222696,
        11.531342110890385,
        11.520410846775336,
        11.509325338439515,
        11.498135226798418,
        11.486892641130956,
        11.475596323251123,
        11.464245560750628,
        11.452840194222313,
        11.441380446953152,
        11.429866694552844,
        11.418286286500162,
        11.406619734792883,
        11.394856409598587,
        11.382984758077239,
        11.370992642034917,
        11.358867985473035,
        11.346599545490902,
        11.33417756699164,
        11.321594166838196,
        11.308843417489193,
        11.295921213778861,
        11.28282501978296,
        11.269553582520853,
        11.256106664538065,
        11.242532932078486,
        11.228883601311601,
        11.215153337514906,
        11.201337103559176,
        11.187430134863119,
        11.173427723956555,
        11.159324937690648,
        11.1451162709169,
        11.130795294296396,
        11.116354411078934,
        11.10178488367891,
        11.0870772290393,
        11.072221942429021,
        11.057210350624159,
        11.042035339588217,
        11.026691792025346,
        11.011176704689857,
        10.995489075169466,
        10.979629661630117,
        10.963600708193253,
        10.947405691063864,
        10.931092752838486,
        10.91470934708438,
        10.898248700551978,
        10.881704374973296,
        10.865070231713869,
        10.848340195623589,
        10.831507947780839,
        10.814566550827063,
        10.797508066569343,
        10.780323288805468,
        10.763001758103098,
        10.74553216542873,
        10.72790310154426,
        10.710103944033621,
        10.692125612560146,
        10.673961019994225,
        10.655605185612101,
        10.637055105396522,
        10.618309487333468,
        10.599368449327615,
        10.58023323788556,
        10.560959643825809,
        10.54160644378598,
        10.522169454193662,
        10.502644866110272,
        10.48302923679678,
        10.463319269858033,
        10.443511521482653,
        10.423602037891646,
        10.40358598619332,
        10.383457411699032,
        10.363209292594448,
        10.342834005208319,
        10.3223241522519,
        10.301673532317967,
        10.280866236999067,
        10.259882855605804,
        10.238715121612547,
        10.217356932547602,
        10.195804054157009,
        10.174053785403656,
        10.152104645422686,
        10.130012075980865,
        10.10783477303477,
        10.085565805690614,
        10.063198584496966,
        10.040726831990346,
        10.01814433141752,
        9.995444596702763,
        9.972620467672696,
        9.949663695963208,
        9.926564658955227,
        9.903312383334278,
        9.879894998303191,
        9.856300571010499,
        9.832518095134235,
        9.808538336807205,
        9.78435434589059,
        9.759961600170673,
        9.73535787993006,
        9.710542996417175,
        9.685518479384232,
        9.660287288028446,
        9.634912301189095,
        9.609460070319253,
        9.583928558710843,
        9.558316382780063,
        9.5326228290442,
        9.506847641783796,
        9.480990732084187,
        9.4550357669086,
        9.428957740377848,
        9.402742483851,
        9.376374522405387,
        9.349837507534268,
        9.323115049081872,
        9.29619171017009,
        9.269053858677394,
        9.2416901730988,
        9.214091769576847,
        9.186252047670669,
        9.158166383450146,
        9.129831777956323,
        9.101246528448103,
        9.072471615801913
    ]
}