{
    "ate_drug": [
        4.29283,
        1.76794,
        23.2236,
        23.2236,
        23.2236,
        23.2236,
        23.2236,
        23.2236,
        23.2236,
        23.2236,
        23.2236,
        23.2236,
        23.2236,
        23.2236,
        23.2236,
        23.2236
    ],
    "cibi_drug": [
        3.66176,
        154.824,
        154.824,
        154.824,
        154.824,
        154.824,
        154.824,
        154.824,
        154.824,
        154.824,
        154.824,
        154.824,
        154.824,
        154.824,
        154.824,
        154.824
    ],
    "inefficacy": 14.94222885412781,
    "total_drugs": 78.70946944444445,
    "objective_value": 21.318952913159475,
    "tumour_diameter": [
        15.935735206906003,
        15.956144353613396,
        15.976122782161983,
        15.995674473797717,
        16.014783240634188,
        16.033429100697468,
        16.051592240252727,
        16.069256401691657,
        16.086410606674153,
        16.103049137296214,
        16.119170604196427,
        16.134776880861086,
        16.149872190388603,
        16.16446241870928,
        16.178554618240916,
        16.192156650979268,
        16.20527694471656,
        16.21792429492699,
        16.230107742363113,
        16.24183647371257,
        16.25311974891426,
        16.263966860558206,
        16.274387079028383,
        16.28438964222763,
        16.29398371742616,
        16.303178386690302,
        16.311982622984623,
        16.32040526949745,
        16.328455022074788,
        16.336218405388976,
        16.34391324677945,
        16.35153721365682,
        16.35903163149776,
        16.366334001009356,
        16.3733876458114,
        16.380148162577896,
        16.386585438335896,
        16.392681974974995,
        16.398429797786463,
        16.403827546801637,
        16.408878243269793,
        16.413587733772818,
        16.417963621820007,
        16.42201456477101,
        16.425749806672933,
        16.42917885217673,
        16.43231126472021,
        16.43515652787999,
        16.437723958744545,
        16.44002265547069,
        16.442061466508868,
        16.443848979461062,
        16.445393504648475,
        16.446703072348544,
        16.447785423926334,
        16.448648005262978,
        16.44929796352868,
        16.44984529843519,
        16.45057167040199,
        16.45146634702098,
        16.452445578705394,
        16.45342209578866,
        16.454317494253345,
        16.455070161348416,
        16.455637419257744,
        16.4559930222377,
        16.45612300226999,
        16.456021848204827,
        16.45568961866184,
        16.455129940799488,
        16.454348665612958,
        16.453352974967334,
        16.452150791521074,
        16.45075038471748,
        16.44916011489618,
        16.44738826619502,
        16.445442941839694,
        16.44333200187359,
        16.441063028237664,
        16.43864330891378,
        16.436079826027022,
        16.433379250558623,
        16.430547935295937,
        16.4275919096773,
        16.424516878660324,
        16.42144301707914,
        16.418680364447233,
        16.416213760065585,
        16.41394759811005,
        16.411782970935416,
        16.409631265163583,
        16.407422729600658,
        16.40510864982772,
        16.402658461722087,
        16.400055114920146,
        16.39729084287824,
        16.394363985503386,
        16.39127679165342,
        16.388033948174865,
        16.384641605158688,
        16.381106732408156,
        16.377436692455625,
        16.373638962355155,
        16.369720953122226,
        16.36568989675087,
        16.361552779187697,
        16.35731630275016,
        16.352986869402717,
        16.3485705683156,
        16.34407317067847,
        16.339500122964594,
        16.33485654227612,
        16.330147216101615,
        16.325495294220396,
        16.32121986910367,
        16.31730364087983,
        16.31364642942418,
        16.310144927220648,
        16.306706687634943,
        16.303258874679873,
        16.29975041128287,
        16.2961489496296,
        16.292436062199894,
        16.288602874316346,
        16.28464679083013,
        16.28056923592118,
        16.276374141605864,
        16.272066947665966,
        16.267653941551075,
        16.263141821559234,
        16.25853741188748,
        16.25384747814323,
        16.24907861204428,
        16.244237162881287,
        16.239329199709886,
        16.234360493359702,
        16.229336505095446,
        16.22426238092522,
        16.219142945202,
        16.213982696409396,
        16.20878580729761,
        16.20367479889759,
        16.198967914448943,
        16.194646968383594,
        16.190611056996264,
        16.18675629375256,
        16.182989767455805,
        16.179238229797278,
        16.175450202430806,
        16.17159291729633,
        16.167647503332002,
        16.16360462090358,
        16.159461194724297,
        16.15521815809674,
        16.150878947178253,
        16.14644850363447,
        16.141932617977453,
        16.137337494063065,
        16.132669466045126,
        16.12793481486835,
        16.123139653637885,
        16.11828985961159,
        16.11339103684347,
        16.108448497626643,
        16.10346725251142,
        16.0984520039704,
        16.093407140495863,
        16.088336732585994,
        16.083244533159263,
        16.078250765273207,
        16.07366816179036,
        16.069478325047623,
        16.06558152731133,
        16.061875182651765,
        16.058267560739704,
        16.05468631725471,
        16.051080543254614,
        16.04741773917857,
        16.04367907580939,
        16.039855097424347,
        16.035942507698614,
        16.031941952963205,
        16.02785654096019,
        16.023690861435384,
        16.019450340329296,
        16.01514081294828,
        16.010768245380486,
        16.006338554491048,
        16.00185749546533,
        15.997330595105154,
        15.992763115167998,
        15.988160034360758,
        15.983526038395807,
        15.978865513995416,
        15.974182543162359,
        15.969480899342292,
        15.964764047964962,
        15.960149329894818,
        15.955942252601346,
        15.952124550914318,
        15.948598476778791,
        15.945263520473006,
        15.942029815334683,
        15.938826468397705,
        15.935603549885219,
        15.932329135266219,
        15.92898466552293,
        15.925560746801974,
        15.922054007460359,
        15.91846493092647,
        15.91479640814652,
        15.911052780175014,
        15.907239206998186,
        15.90336125048337,
        15.899424602181346,
        15.895434907499968,
        15.891397655806756,
        15.887318115389869,
        15.883201297536015,
        15.879051939340624,
        15.874874493479837,
        15.870673122783957,
        15.866451694540574,
        15.86221377682705,
        15.857962639028157,
        15.853812731501396,
        15.85006219572519,
        15.846693054230075,
        15.843609740561055,
        15.840714002429888,
        15.837917992569743,
        15.835152390596196,
        15.83236835652325,
        15.829534632170713,
        15.82663301404631,
        15.823654249843567,
        15.820594969778172,
        15.817455569996207,
        15.814238798949717,
        15.810948822072016,
        15.807590606711177,
        15.804169512785512,
        15.800691028569059,
        15.797160598464677,
        15.793583515824988,
        15.789964859387577,
        15.786309458385785,
        15.782621875236876,
        15.778906396415657,
        15.77516702656325,
        15.771407483099853,
        15.76763119261824,
        15.763841291393476,
        15.76014960563794,
        15.756847531184093,
        15.753917428935925,
        15.751265808529581,
        15.748796555278325,
        15.74642372240024,
        15.744079482830648,
        15.741716033405707,
        15.73930276633861,
        15.736821841417713,
        15.73426417351961,
        15.7316264317808,
        15.728908969526026,
        15.726114441668075,
        15.723246890354547,
        15.720311141848965,
        15.71731240837638,
        15.714256028074528,
        15.711147297051344,
        15.707991364501112,
        15.704793170514947,
        15.70155741199359,
        15.698288525714341,
        15.694990679391509,
        15.691667765918265,
        15.688323398070713,
        15.684960904957075,
        15.681583332501207,
        15.678300251830263,
        15.675397231062995,
        15.672856962940171,
        15.670587795036317,
        15.668495493067233,
        15.666495785315531,
        15.664522158763956,
        15.662527729532789,
        15.660482472457803,
        15.658368881075425,
        15.656178034202274,
        15.653906654168495,
        15.651555076577058,
        15.649125894720559,
        15.64662306309988,
        15.644051305782893,
        15.641415725941592,
        15.638721550801204,
        15.635973966948862,
        15.633178017337185,
        15.630338540481182,
        15.627460136886086,
        15.624547152491932,
        15.621603669874164,
        15.618633502599096,
        15.61564018998782,
        15.61262699360944,
        15.609596897700762,
        15.606657598591744,
        15.60408980095997,
        15.601876497863094,
        15.599927592631008,
        15.598150442296765,
        15.596462189917373,
        15.594797433412552,
        15.593110068966062,
        15.591370569195139,
        15.589561717267532,
        15.587674739685434,
        15.585706413645687,
        15.58365707052662,
        15.58152926272801,
        15.579326881955472,
        15.57705457730113,
        15.574717371154101,
        15.57232040831821,
        15.56986879396326,
        15.567367492437645,
        15.564821267234313,
        15.562234648122159,
        15.55961191480782,
        15.556957088260774,
        15.55427392515672,
        15.551565912663204,
        15.548836265007814,
        15.54608792382181,
        15.543427056802596,
        15.54113039400364,
        15.53918118601349,
        15.537490622491914,
        15.535967374018762,
        15.534529749291677,
        15.533113263521948,
        15.53167245671776,
        15.530178215111512,
        15.528613564668829,
        15.52696985849037,
        15.52524392440569,
        15.523436096071482,
        15.521548898152771,
        15.519586176679155,
        15.517552525072219,
        15.515452905261135,
        15.513292400202683,
        15.511076054015549,
        15.508808772152463,
        15.506495262171436,
        15.504140001301206,
        15.501747220331096,
        15.499320895019782,
        15.496864740597967,
        15.49438220663014,
        15.49187647353735,
        15.489350452942764,
        15.486909079379577,
        15.484825870352465,
        15.483084293052034,
        15.481596584992918,
        15.48027248242698,
        15.479031244112978,
        15.477809130125632,
        15.476561206820053,
        15.475258697746408,
        15.473884828720077,
        15.472431058702096,
        15.47089425966196,
        15.469274770165732,
        15.467575095630473,
        15.465799048151528,
        15.463951179143098,
        15.462036404618685,
        15.460059760467157,
        15.458026244351103,
        15.455940717000136,
        15.453807843538577,
        15.451632061513463,
        15.449417564986057,
        15.447168295855906,
        15.444887938533359,
        15.442579914799982,
        15.440247380337622,
        15.437893225056268,
        15.43562139222442,
        15.433702813812477,
        15.432121134288522,
        15.430789437276504,
        15.42961832452624,
        15.42852782148752,
        15.42745479142743,
        15.426354725859788
    ]
}