======= APRICOPT =========

=== Optimization through COPASI solver ===


Solver settings: 

Method: Genetic Algorithm
    Log Verbosity: 0
    Number of Generations: 25
    Population Size: 64
    Random Number Generator: 1
    Seed: 104
    Mutation Variance: 0.1
    Stop after # Stalled Generations: 0

Population Information: 
Population Size: 0
# Generations / Iterations: 0
Current Generation / Iteration: 0
Population Values: 
   (		)

Population:



Optimization Log:

Function Evaluation	Objective Value		Optimization Parameters
1			39.0758			(	4	24	24	24	24	24	24	24	24	24	24	24	24	24	24	24	3	160	160	160	160	160	160	160	160	160	160	160	160	160	160	160	)
128			34.6302			(	4.32899	7.75788e-122	5.15048e-162	7.22686e-112	6.58885e-123	1.24627e-27	1.06308e-44	24	22.083	23.4997	24	6.101e-236	1.39926e-117	2.53946e-60	24	1.59039e-75	2.96403	160	143.837	3.99283e-144	6.09592e-185	158.014	146.509	3.59732e-114	3.76025e-180	1.00806e-258	2.1685e-50	1.60124e-116	132.845	157.097	160	1.71493e-258	)
256			33.398			(	5.7262	6.89295e-122	6.22373e-162	1.56588e-265	7.98552e-123	6.34873e-44	9.44138e-45	22.2734	19.3656	24	17.3032	5.46861e-236	1.19436e-117	2.00029e-60	24	1.59001e-75	3.03198	128.759	126.389	3.22757e-166	1.49662e-54	3.49585e-43	3.08056e-265	3.95895e-114	1.96754e-294	9.93093e-259	2.18059e-50	2.491e-178	0.169717	160	145.41	1.94328e-258	)
320			33.3888			(	4.33904	8.13099e-122	3.91511e-162	6.11294e-112	5.35794e-63	1.18654e-27	1.11329e-44	24	23.6187	24	1.59894e-223	6.33683e-236	1.47037e-117	2.64916e-60	17.2946	1.3184e-75	3.11535	1.25612e-27	150.808	5.33221e-146	1.91605e-129	3.93293e-86	5.09019e-249	3.40451e-114	6.70454e-243	5.40984e-247	4.05274e-264	8.31164e-291	152.619	152.559	160	1.83466e-258	)
384			32.1134			(	5.75834	5.69369e-122	5.94654e-219	1.50664e-265	7.92736e-123	6.53729e-44	1.22041e-133	23.0728	1.646e-93	9.157e-140	3.00596e-24	2.41568e-91	3.45741e-243	1.97199e-60	2.94409e-40	1.29081e-47	3.05978	134.65	1.49107e-153	1.25437e-271	1.17386e-251	1.99398e-100	5.43115e-293	3.07157e-284	6.36004e-211	3.80909e-175	2.70027e-140	2.35887e-178	3.47694e-107	1.27715e-194	9.3998e-216	9.23784e-16	)
512			28.9035			(	3.60726	5.92174e-122	0	0	0	0	4.65036e-266	16.7426	14.2664	23.8944	5.25151e-101	2.51453e-209	1.16632e-117	0	24	0	3.02697	2.03174e-108	0	0	5.21594e-185	2.32202e-120	0	154.06	7.23727e-310	6.69893e-310	7.28407e-313	0	5.55308e-153	0	0	0	)
640			28.7246			(	5.93325	1.7563e-260	6.79724e-219	9.66953e-112	0	0	4.48098e-266	15.6292	14.7215	23.0368	5.37322e-101	2.71974e-209	1.05167e-117	1.82884e-60	21.4995	0	2.70795	2.09127e-108	0	3.58766e-144	0	0	146.78	119.099	7.50589e-310	7.07829e-310	2.72304e-50	2.13961e-116	2.71022e-107	1.41066e-194	9.62287e-216	0	)
832			28.2559			(	4.27746	1.87799e-260	6.42082e-219	1.54336e-265	8.88612e-123	7.24138e-44	1.59364e-133	17.8458	1.74695e-93	9.9866e-140	3.13902e-24	2.13744e-91	1.29931e-117	6.74587e-68	2.9699e-65	1.83431e-294	2.87292	123.601	1.47293e-153	1.10918e-271	1.22509e-251	160	142.388	126.468	3.12379e-211	4.94182e-175	1.57301e-22	2.94327e-178	3.95162e-107	1.04101e-194	6.82824e-216	5.28225e-251	)
896			27.8153			(	5.38848	7.38785e-122	4.66972e-219	0	7.23803e-59	7.98129e-176	3.30333e-216	22.441	18.8774	4.40302e-84	1.39491e-223	2.29221e-209	3.9834e-243	2.43604e-60	4.09305e-40	1.74672e-47	4.07613	1.49808e-256	89.1506	3.06825e-166	2.28043e-233	2.29957e-100	0	139.076	9.59475e-310	6.6093e-247	5.32482e-242	3.21717e-178	3.91285e-107	0	0	0	)
960			27.2935			(	6	7.43734e-122	4.3496e-219	0	7.48847e-59	7.92697e-176	3.63221e-216	24	19.6038	4.57683e-84	1.69753e-223	2.32799e-209	3.95695e-243	2.85673e-60	3.27368e-40	1.66761e-47	4.98092	1.03863e-256	96.8244	2.56943e-166	2.48021e-233	2.35667e-100	0	135.684	9.97604e-310	7.68949e-247	6.31891e-242	2.7764e-178	3.83592e-107	0	0	0	)
1024			27.2194			(	5.95672	6.70713e-122	4.13849e-219	0	7.23128e-59	7.98963e-176	3.60929e-216	20.1597	19.714	4.40133e-84	1.83109e-223	2.4481e-209	3.74807e-243	2.6915e-60	2.9484e-40	1.44852e-47	5.4537	1.0317e-256	98.8669	2.78558e-166	2.30787e-233	2.4047e-100	0	123.494	1.10455e-309	6.29786e-247	6.79054e-242	2.32211e-322	4.07246e-107	0	7.36345e-216	8.18233e-16	)
1152			26.633			(	5.50858	5.93756e-122	4.65687e-219	2.78002e-197	7.15682e-59	7.01589e-176	1.5216e-304	22.2402	2.24472e-93	1.13454e-139	2.63314e-24	2.34162e-91	4.09382e-243	2.33124e-60	3.0947e-40	1.55672e-47	5.71252	112.164	1.0786e-153	3.06027e-166	2.37443e-233	2.64145e-100	0	108.282	1.0979e-309	5.18574e-247	0	2.45729e-178	2.71741e-107	1.18505e-194	7.56264e-216	7.01273e-16	)
1280			26.6267			(	4.8357	3.56452e-122	4.98635e-162	1.29642e-265	5.51235e-123	5.65892e-44	1.37335e-304	21.8587	1.76663e-93	1.06074e-279	2.7644e-24	1.20306e-91	5.97742e-243	2.22397e-60	2.71362e-40	1.34126e-47	5.15883	3.5382e-157	1.7111e-260	2.45878e-144	3.09569e-233	1.34099e-120	127.995	108.867	2.63967e-211	0	1.28692e-22	3.13623e-147	150.659	9.16049e-224	9.06423e-216	5.24905e-16	)
1344			26.5699			(	5.44042	2.06807e-260	3.75111e-219	0	0	7.01984e-44	3.82037e-216	19.3764	2.22268e-93	9.23596e-140	1.9067e-223	2.31174e-209	3.25319e-243	2.90919e-60	5.41175e-40	1.64547e-75	5.30266	9.29e-257	102.601	5.62009e-146	1.94986e-129	3.5922e-86	0	104.687	1.15929e-309	6.6244e-247	2.9006e-50	3.12074e-147	2.86233e-107	1.6784e-194	9.01501e-216	0	)
1408			26.4932			(	4.75388	8.59214e-122	7.90463e-162	6.6584e-112	8.59034e-165	0	1.13115e-44	17.0418	1.81908e-93	5.66038e-140	7.90249e-132	7.48631e-236	1.01924e-117	2.58394e-60	3.01987e-40	1.44758e-47	6	99.3798	1.01972e-153	2.42734e-166	3.053e-185	2.5981e-120	127.781	89.4733	9.80301e-310	3.14924e-175	2.88586e-140	2.01776e-147	7.39849e-153	9.15327e-214	0	0	)
1472			26.4741			(	5.34827	8.60412e-122	5.69134e-162	1.0284e-111	1.01095e-164	6.5738e-176	3.6847e-216	17.4883	1.93932e-93	5.03789e-84	3.46145e-294	2.72072e-236	3.93625e-243	4.92289e-68	4.11245e-65	1.1467e-75	4.80995	0.0173049	3.57273e-267	3.47646e-144	2.75809e-233	1.75085e-100	0	74.6466	6.28943e-180	1.78086e-102	3.81583e-242	5.2614e-147	3.90235e-146	1.80668e-194	7.5337e-216	0	)
1536			26.3503			(	5.19412	6.38345e-122	3.6709e-219	1.05003e-111	1.04324e-275	3.91697e-44	6.34675e-45	11.3075	2.03646e-93	9.45935e-140	1.77564e-223	1.82192e-91	3.34428e-243	2.47684e-60	2.86268e-40	0	4.55928	1.12723e-256	2.35335e-18	2.73428e-166	2.91696e-233	1.47177e-100	0	83.1605	9.48535e-310	1.60177e-258	3.48838e-50	0	2.7152e-107	1.59356e-244	0	8.86478e-16	)
1600			26.3181			(	5.64305	6.66057e-122	3.93529e-219	7.81469e-112	1.16678e-275	3.71285e-44	6.38339e-45	9.59814	1.86515e-93	9.24319e-140	2.17604e-223	6.75918e-236	1.07033e-117	3.46836e-60	2.51215e-40	1.15433e-75	4.5224	1.31238e-256	1.90892e-18	2.49616e-166	2.73943e-233	1.4292e-100	0	89.6538	9.75096e-310	1.57272e-258	3.79049e-50	0	3.11052e-107	0	0	9.04624e-16	)



Optimization Result:

    Objective Function Value:	26.3181
    Function Evaluations:	1634
    CPU Time [s]:	2938.848
    Evaluations/Second [1/s]:	0.556

    Values[ate_freq_in].InitialValue: 5.64305
    Values[ate_m10_in].InitialValue: 6.66057e-122
    Values[ate_m11_in].InitialValue: 3.93529e-219
    Values[ate_m12_in].InitialValue: 7.81469e-112
    Values[ate_m13_in].InitialValue: 1.16678e-275
    Values[ate_m14_in].InitialValue: 3.71285e-44
    Values[ate_m15_in].InitialValue: 6.38339e-45
    Values[ate_m1_in].InitialValue: 9.59814
    Values[ate_m2_in].InitialValue: 1.86515e-93
    Values[ate_m3_in].InitialValue: 9.24319e-140
    Values[ate_m4_in].InitialValue: 2.17604e-223
    Values[ate_m5_in].InitialValue: 6.75918e-236
    Values[ate_m6_in].InitialValue: 1.07033e-117
    Values[ate_m7_in].InitialValue: 3.46836e-60
    Values[ate_m8_in].InitialValue: 2.51215e-40
    Values[ate_m9_in].InitialValue: 1.15433e-75
    Values[cibi_freq_in].InitialValue: 4.5224
    Values[cibi_m10_in].InitialValue: 1.31238e-256
    Values[cibi_m11_in].InitialValue: 1.90892e-18
    Values[cibi_m12_in].InitialValue: 2.49616e-166
    Values[cibi_m13_in].InitialValue: 2.73943e-233
    Values[cibi_m14_in].InitialValue: 1.4292e-100
    Values[cibi_m15_in].InitialValue: 0
    Values[cibi_m1_in].InitialValue: 89.6538
    Values[cibi_m2_in].InitialValue: 9.75096e-310
    Values[cibi_m3_in].InitialValue: 1.57272e-258
    Values[cibi_m4_in].InitialValue: 3.79049e-50
    Values[cibi_m5_in].InitialValue: 0
    Values[cibi_m6_in].InitialValue: 3.11052e-107
    Values[cibi_m7_in].InitialValue: 0
    Values[cibi_m8_in].InitialValue: 0
    Values[cibi_m9_in].InitialValue: 9.04624e-16


