======= APRICOPT =========

=== Optimization through COPASI solver ===


Solver settings: 

Method: Differential Evolution
    Log Verbosity: 0
    Number of Generations: 25
    Population Size: 64
    Random Number Generator: 1
    Seed: 104
    Mutation Variance: 0.1
    Stop after # Stalled Generations: 0

Population Information: 
Population Size: 0
# Generations / Iterations: 0
Current Generation / Iteration: 0
Population Values: 
   (		)

Population:



Optimization Log:

Function Evaluation	Objective Value		Optimization Parameters
1			35.5383			(	4	24	24	24	24	24	24	24	24	24	24	24	24	24	24	24	3	160	160	160	160	160	160	160	160	160	160	160	160	160	160	160	)
199			30.1178			(	3.65518	0	0	24	1.33561e-167	24	0	24	24	0	24	2.88709e-156	24	0	3.92868e-149	1.46607e-19	3	160	3.59669e-78	7.16341e-75	160	160	0	160	160	160	3.67325e-65	160	0.00162741	0	4.64187e-186	0	)
604			29.0096			(	6	24	0	24	24	24	0	24	1.26803e-78	24	24	1.10318e-64	24	24	24	0	6	160	160	160	160	160	1.92373e-156	160	160	0.316772	7.56904e-112	2.36874e-101	2.99228e-90	160	2.35142e-50	160	)
1009			28.588			(	6	5.01685e-67	0	3.81097e-167	2.24822e-66	24	1.48185e-108	24	2.41759e-78	4.44471e-123	24	0	1.40492e-20	5.12097e-224	24	0	2.95915	0.0371355	0	5.15362e-212	160	160	0	160	2.17294e-30	0.316772	2.36764e-43	0	0	160	2.35142e-50	160	)
1144			27.696			(	6	24	1.47732e-288	3.94852	24	24	3.86597e-81	22.6493	2.53606e-78	24	24	2.20635e-64	0	22.8974	24	0	6	160	160	160	37.7821	160	0	22.9256	0	0.347037	1.51381e-111	4.73748e-101	0	27.6815	7.21346e-50	13.0398	)
1279			27.4099			(	5.71755	24	0	7.47864	0	1.36081e-27	1.16464e-44	23.2251	5.33484e-78	24	24	4.56331e-64	0	24	22.1396	1.50787e-47	5.33411	6.81188e-50	160	160	160	3.67707e-74	0	160	0	0.633587	2.99729e-111	4.76064e-27	2.64726e-107	56.1699	1.45452e-49	0	)
1684			26.915			(	5.71755	0	0	0	0	0	7.24024e-44	23.2251	5.30931e-16	24	0	14.0554	0	0	22.1396	1.50787e-47	5.33411	0	0	0	85.2221	3.67707e-74	0	53.4027	0	4.30458	2.99729e-111	4.76064e-27	0	0	5.46972e-07	0	)
