{
    "ate_drug": [
        3.60198,
        18.7211,
        14.3471,
        14.393,
        14.0608,
        20.3988,
        21.1116,
        5.57946,
        16.9102,
        7.60243,
        12.2251,
        11.034,
        15.0357,
        8.74514,
        4.15412,
        11.8683
    ],
    "cibi_drug": [
        5.96404,
        114.935,
        107.851,
        1.50061,
        9.33915,
        5.39463,
        144.691,
        120.604,
        51.3612,
        123.697,
        46.2148,
        19.5699,
        101.34,
        35.7843,
        144.438,
        63.4341
    ],
    "inefficacy": 8.075378022514526,
    "total_drugs": 40.93086295138889,
    "objective_value": 11.360926515401962,
    "tumour_diameter": [
        28.045853540227334,
        28.15110113569302,
        28.255121069418145,
        28.35774221333967,
        28.458812605611385,
        28.558200914737153,
        28.655796076963778,
        28.751506117751287,
        28.845256318716352,
        28.93698720304648,
        29.026652560259006,
        29.11421771854997,
        29.199658010253145,
        29.282957457689303,
        29.364107600802733,
        29.44310654064256,
        29.519958039493364,
        29.59467079935621,
        29.667257812282028,
        29.737735797243932,
        29.806124703913238,
        29.872447270491133,
        29.93672862859175,
        29.99899595937055,
        30.05927819225914,
        30.11760575637564,
        30.174010370286247,
        30.228524867587534,
        30.28118305173515,
        30.331997001892287,
        30.380970034582948,
        30.428124361808663,
        30.47348310144534,
        30.517070127141274,
        30.558909937648515,
        30.599027547184708,
        30.637448368794725,
        30.674198215971426,
        30.709303112303516,
        30.742789316564465,
        30.774683256743952,
        30.805011493864328,
        30.833800685689937,
        30.861178732821983,
        30.8873246105591,
        30.912203886651504,
        30.93577344573521,
        30.958001502412774,
        30.978871166119063,
        30.99837949487604,
        31.01653448833096,
        31.033351995254687,
        31.048853228296544,
        31.06306301850627,
        31.076008611760443,
        31.087718866063945,
        31.098223724051767,
        31.10752603176146,
        31.115617676268357,
        31.122513685315273,
        31.128229938938656,
        31.132783026681217,
        31.1361901265826,
        31.13846889265276,
        31.139637347181228,
        31.13971380816052,
        31.138716804946426,
        31.13666505516922,
        31.13357744390445,
        31.12947302085204,
        31.124371006535398,
        31.118290801894123,
        31.111252010908622,
        31.103274445056925,
        31.094378148995347,
        31.08458341700338,
        31.07391081215977,
        31.0623811862003,
        31.050015650364045,
        31.036835796492184,
        31.022863417053173,
        31.008120729763444,
        30.99263035015511,
        30.976415315099864,
        30.959499107066236,
        30.941882888428264,
        30.923551491308785,
        30.90448992758832,
        30.884689241829314,
        30.86414589812219,
        30.842860365436152,
        30.82083612999882,
        30.798079004050464,
        30.774596640758,
        30.750398192491655,
        30.725494069896076,
        30.699895766071464,
        30.673615716964676,
        30.646667176618312,
        30.619064098908318,
        30.590821037979175,
        30.56195306431873,
        30.53247571915109,
        30.50240498934816,
        30.471757302452023,
        30.440549533631458,
        30.408799018696378,
        30.376523575184887,
        30.343741516437333,
        30.310471675438922,
        30.276733424675314,
        30.242546697100867,
        30.207932007403517,
        30.172867671277558,
        30.1373151376518,
        30.10127155965838,
        30.064735631330542,
        30.027707459090337,
        29.990188448567146,
        29.95218120412104,
        29.91368939140337,
        29.87471785714311,
        29.835272276041948,
        29.79535926795115,
        29.754986293821943,
        29.714161621715625,
        29.672894341601957,
        29.63123629050247,
        29.58924077366805,
        29.54688174235009,
        29.504143700534595,
        29.46102123081523,
        29.417516024834207,
        29.37363481188779,
        29.329387947877883,
        29.284788463631088,
        29.239851415354877,
        29.19459345775084,
        29.149032557817073,
        29.10318780933945,
        29.057079309606152,
        29.01068094501987,
        28.96394815392275,
        28.9168756066801,
        28.869459586178035,
        28.821697783129007,
        28.773589133141048,
        28.725133690435275,
        28.676332529643524,
        28.6271876696217,
        28.577702008584556,
        28.527879272822993,
        28.47772397187076,
        28.427241360283805,
        28.376437405303054,
        28.32531875789874,
        28.273892731513694,
        28.222167280616972,
        28.17015098624095,
        28.117853042981785,
        28.06528325097273,
        28.012452009037197,
        27.959370352149932,
        27.906049782333643,
        27.85250254140281,
        27.79874140514438,
        27.74477975650244,
        27.690631595264968,
        27.636311549634634,
        27.581952436940885,
        27.52775796723135,
        27.473639030386217,
        27.41948932162337,
        27.365215987321825,
        27.31074745036718,
        27.25603413497256,
        27.20104473938192,
        27.14576149056009,
        27.090176104662415,
        27.034286819444155,
        26.978096338197048,
        26.921610438305912,
        26.86483703724437,
        26.8077855691169,
        26.750466573702713,
        26.692891428727417,
        26.635072181078133,
        26.57702143768871,
        26.518752286773587,
        26.46027822739671,
        26.401613101460697,
        26.342771035050337,
        26.283766402912157,
        26.224613817638545,
        26.16532814095834,
        26.105924510712757,
        26.04641837611897,
        25.986802010969487,
        25.927058346605527,
        25.867189981513324,
        25.80720043304077,
        25.7470940964011,
        25.686876209757525,
        25.62655282419387,
        25.566130796321264,
        25.505617695059712,
        25.445021890577753,
        25.384352478577494,
        25.323619263207142,
        25.262832757629116,
        25.202004206988555,
        25.14126351730693,
        25.08078193137316,
        25.020487229736965,
        24.960312517769665,
        24.900212802444976,
        24.840162740872632,
        24.78015215916331,
        24.72018178741005,
        24.66025998768123,
        24.60040046059391,
        24.54062068722375,
        24.480940888703408,
        24.421383335022323,
        24.361971891474056,
        24.302659381243235,
        24.243370575198213,
        24.184090571083573,
        24.124807013976508,
        24.065509807468114,
        24.00619084878081,
        23.94684378776487,
        23.887463820285,
        23.828047516266107,
        23.768592692669912,
        23.70909830808199,
        23.64956438322818,
        23.589991936128964,
        23.53038292826925,
        23.470740220629832,
        23.41106752773187,
        23.351369393957974,
        23.291651157723162,
        23.231918928270755,
        23.17217956465323,
        23.11244065823588,
        23.05271057185035,
        22.992998216929003,
        22.933313358947213,
        22.873666405858184,
        22.814068452774087,
        22.75453128246844,
        22.695067364965528,
        22.63579130352349,
        22.57687468951696,
        22.51823618553167,
        22.459782705330852,
        22.401435669590647,
        22.343136412779725,
        22.284845517848666,
        22.226539020910746,
        22.168204249659354,
        22.10983646533735,
        22.051436435027576,
        21.99300877697988,
        21.934560835866897,
        21.876101932155542,
        21.817642861375923,
        21.759195563430225,
        21.700772908928826,
        21.64238856248039,
        21.584056892090235,
        21.525792900288696,
        21.467612159802737,
        21.409530754509852,
        21.351565225755007,
        21.293732552998346,
        21.23605014302368,
        21.178535843549955,
        21.12120796680319,
        21.064085318938453,
        21.00713188616665,
        20.95028983520982,
        20.89354726979449,
        20.836894133090826,
        20.780322061974367,
        20.7238242566469,
        20.667395362765006,
        20.6110314229084,
        20.55472956772113,
        20.498488249110434,
        20.442306959267352,
        20.38618621403477,
        20.330127497157395,
        20.274133205940725,
        20.218275582295846,
        20.16263852137906,
        20.107171065975916,
        20.051834001414278,
        19.99660330940197,
        19.941466285908987,
        19.88641827384197,
        19.831460276539772,
        19.776597301626726,
        19.721837249477304,
        19.667190154408367,
        19.612667679854578,
        19.55828278107971,
        19.504049483042035,
        19.449943774229425,
        19.395926600931574,
        19.341991498573826,
        19.288133506921874,
        19.23434898803818,
        19.18063546573852,
        19.12699149346731,
        19.073416553267116,
        19.01991097449925,
        18.96647588438752,
        18.913113159724645,
        18.85982539382208,
        18.806615868644524,
        18.75348853133243,
        18.700447981948408,
        18.64749942715427,
        18.594648710145346,
        18.541902269605423,
        18.489267137435878,
        18.43675093118113,
        18.38436184832003,
        18.332108743495283,
        18.28000080341545,
        18.22804802709981,
        18.17626090367351,
        18.12465050324995,
        18.07322846731344,
        18.02200701881307,
        17.971062633810316,
        17.92050578677656,
        17.870262606388412,
        17.820253588950894,
        17.770413336676963,
        17.72069326328778,
        17.671059927412603,
        17.621491630739154,
        17.571975146307967,
        17.522503201274386,
        17.4730726853076,
        17.42368342810782,
        17.374337369701543,
        17.325037999345643,
        17.27578997821743,
        17.22659888142828,
        17.177471036284473,
        17.128413405755445,
        17.07943350922646,
        17.03053935555693,
        16.981739379956874,
        16.93304238789746,
        16.88445750601016,
        16.835994164751753,
        16.787662085959536,
        16.739471290152668,
        16.691432111099818,
        16.643555214235185,
        16.595825131023062,
        16.548215949508513,
        16.500723775193322,
        16.45334567050828,
        16.40607959092729,
        16.358924328350213,
        16.311879460635172,
        16.26494537964417,
        16.21812296129888,
        16.171413962828638,
        16.12482070834985,
        16.078346128974967,
        16.031993742111244,
        15.985767631146869,
        15.939771226748377,
        15.894161626877569,
        15.848889450468231,
        15.803894452329494,
        15.759125140932689,
        15.714543746599553,
        15.670126601658026,
        15.625861691734958,
        15.581745594011291,
        15.537780907328848,
        15.493974372542528,
        15.450335586198754,
        15.406876138597163,
        15.363609042406006,
        15.320518368613554,
        15.27757689338304,
        15.234782767036464,
        15.192135428469555,
        15.149635455472653,
        15.107284442287199,
        15.065084889262662,
        15.02304010210178
    ]
}