======= APRICOPT =========

=== Optimization through COPASI solver ===


Solver settings: 

Method: Differential Evolution
    Log Verbosity: 0
    Number of Generations: 25
    Population Size: 64
    Random Number Generator: 1
    Seed: 104
    Mutation Variance: 0.1
    Stop after # Stalled Generations: 0

Population Information: 
Population Size: 0
# Generations / Iterations: 0
Current Generation / Iteration: 0
Population Values: 
   (		)

Population:



Optimization Log:

Function Evaluation	Objective Value		Optimization Parameters
1			11.9871			(	4	24	24	24	24	24	24	24	24	24	24	24	24	24	24	24	3	160	160	160	160	160	160	160	160	160	160	160	160	160	160	160	)
199			6.56655			(	3.65518	0	0	24	1.33561e-167	24	0	24	24	0	24	2.88709e-156	24	0	3.92868e-149	1.46607e-19	3	160	3.59669e-78	7.16341e-75	160	160	0	160	160	160	3.67325e-65	160	0.00162741	0	4.64187e-186	0	)
334			2.35406			(	6	5.1189e-112	6.07246e-303	20.1705	1.9633e-84	2.0579e-48	0	1.19086e-183	5.44728e-109	22.8719	8.56418e-69	0.732291	24	5.92508e-190	4.19684e-22	3.07298e-305	5.6048	2.19657e-58	6.23131e-292	148.937	151.958	1.32648e-39	3.55341e-06	147.224	160	8.84619e-205	8.32346e-87	6.53642e-52	0	145.119	2.79058e-154	3.09572e-106	)
469			2.21423			(	5.4584	5.1189e-112	0	20.1705	1.9633e-84	2.0579e-48	0	8.37652e-109	2.32916e-56	22.8719	8.56418e-69	0.732291	24	5.92508e-190	4.19684e-22	2.86374e-80	6	0	0	148.937	151.958	1.32648e-39	3.55341e-06	147.224	160	2.00019e-14	0	6.53642e-52	8.23073e-11	145.119	2.79059e-154	3.09572e-106	)
604			1.71332			(	6	22.9405	4.80397e-305	19.4793	1.21132e-122	24	2.38537e-44	0	1.39398e-40	0	0	0	2.44148e-117	0	6.34815e-50	1.52914e-258	6	1.74692e-45	160	1.15503e-77	5.83219e-145	0	9.61864e-157	160	160	0.158386	0	0	1.49614e-90	156.36	1.17571e-50	160	)
739			1.17169			(	5.74236	0	0	1.14559e-50	5.20974e-80	1.53251e-19	7.12347e-247	1.36968e-108	1.43636e-37	21.5823	9.98902e-127	4.10968e-271	3.8725e-157	0	1.3985e-145	5.02153e-81	6	2.47084e-18	2.49266e-195	1.02188e-31	3.16913e-45	1.37089e-43	0	137.069	1.57915e-59	8.40298e-06	0	0	0	6.98308e-200	2.4019e-101	2.01919e-117	)
874			0.323682			(	5.37131	0	0	0	0	1.53251e-19	0	5.47386e-166	1.43636e-37	3.55954e-52	1.36113e-174	4.10968e-271	6.94679e-131	0	2.49713e-63	1.22429e-55	6	2.47084e-18	4.20953e-06	3.35604e-103	1.03489e-34	1.37089e-43	0	137.069	1.57915e-59	9.6333e-34	3.17524e-32	0	0	6.98308e-200	2.4019e-101	2.01919e-117	)
1684			0.121131			(	3.41144	1.73931e-250	3.42277e-85	9.95062e-262	2.32121e-302	1.91254e-54	1.03173e-299	2.34709e-11	5.82866e-138	1.21815e-230	5.2023e-57	7.27799e-116	5.75298e-15	2.0805e-233	1.92887e-173	1.90943e-62	4.40925	3.39766e-305	1.14076e-50	5.47283e-288	7.58562e-22	6.42713e-83	1.27598e-53	3.71475	1.36777e-167	2.01297e-159	2.73236e-203	1.89277e-184	1.25218e-240	9.31777e-237	1.93874e-112	2.95404e-233	)
