{
    "statistics": {
        "failed_func_evaluations_nan": 0,
        "failed_func_evaluations_exception": 502,
        "execution_time": 2439.0119999999997
    },
    "inefficacy": 25.03371629872663,
    "function_evaluations": 1634,
    "tumour_diameter": 28.34508205996979,
    "objective_value": 23.750864258502308,
    "total_drugs": 12.20519589648341,
    "synthesized_therapy": {
        "ate_m11_in": 18.221831992924567,
        "ate_m10_in": 16.286832355083074,
        "cibi_m8_in": 123.56619272415689,
        "cibi_freq_in": 6.0,
        "cibi_m2_in": 8.10559102483729e-149,
        "cibi_m4_in": 1.6693335205725262e-275,
        "ate_m2_in": 1.6235259343e-314,
        "ate_m15_in": 18.82958261899113,
        "cibi_m11_in": 1.5291095905491524e-179,
        "ate_m9_in": 1.1924447325659908e-165,
        "cibi_m3_in": 6.313615532293159e-200,
        "cibi_m9_in": 0.0,
        "cibi_m12_in": 8.126487394212162e-266,
        "ate_m14_in": 9.422009068047496e-150,
        "cibi_m13_in": 1.607808372491091e-89,
        "ate_m4_in": 0.0,
        "cibi_m15_in": 117.24507216516233,
        "ate_m7_in": 0.0,
        "ate_m12_in": 0.0,
        "ate_freq_in": 5.42820895541516,
        "cibi_m5_in": 1.4717069923439495e-151,
        "ate_m13_in": 6.3551983112172765e-75,
        "cibi_m6_in": 1.6475478518590087e-107,
        "cibi_m14_in": 1.360855513446613e-282,
        "ate_m8_in": 2.3514073699769983e-150,
        "cibi_m1_in": 160.0,
        "ate_m5_in": 15.907040468925398,
        "cibi_m10_in": 1.3632831797110269e-34,
        "ate_m6_in": 1.6344078497023715e-147,
        "ate_m1_in": 23.782340949204418,
        "ate_m3_in": 0.0,
        "cibi_m7_in": 1.2697551275971587e-217
    }
}