{
    "ate_drug": [
        6.0,
        1.04625,
        2.00757,
        4.6304,
        0.0,
        3.13148,
        19.8093,
        20.1345,
        0.0,
        1.49622,
        0.384336,
        0.591193,
        7.26482,
        5.32902,
        13.6057,
        24.0
    ],
    "cibi_drug": [
        6.0,
        13.5981,
        114.568,
        87.2249,
        160.0,
        0.0,
        12.6199,
        160.0,
        3.88666,
        3.85959,
        0.0,
        54.8172,
        0.0,
        2.7476,
        0.0,
        78.8833
    ],
    "inefficacy": 9.788641336745181,
    "total_drugs": 11.982298246527778,
    "objective_value": 10.00800702772344,
    "tumour_diameter": [
        34.164001435180644,
        34.29998410785233,
        34.435721747870865,
        34.571079458035214,
        34.70593929697766,
        34.840198397151575,
        34.97376728032329,
        35.10656835268167,
        35.23853456008514,
        35.36960818959088,
        35.49973979969825,
        35.62888726744409,
        35.757014939961316,
        35.884092879255945,
        36.01009619103114,
        36.135004427555,
        36.258801058683716,
        36.38147299934708,
        36.50301019238079,
        36.62340523745323,
        36.74265306190226,
        36.860750628948985,
        36.977696679165966,
        37.09349150149594,
        37.20813673024705,
        37.32163516570309,
        37.43399061533604,
        37.545207753354944,
        37.65529199680098,
        37.76424939583303,
        37.87208653756826,
        37.97881046024976,
        38.084428578580265,
        38.188948617693384,
        38.2923785549927,
        38.394726569204664,
        38.496000995027536,
        38.59621028660434,
        38.6953629794241,
        38.79346766294554,
        38.89053295404511,
        38.98656747440307,
        39.08157983093942,
        39.17557844685026,
        39.26857163914275,
        39.360567795874985,
        39.45157523887457,
        39.54160221410322,
        39.630656883513424,
        39.71874731820558,
        39.80588149266684,
        39.89206728003215,
        39.97731244785637,
        40.061624654997324,
        40.14501144997075,
        40.227480270665716,
        40.30903844326061,
        40.38969317989227,
        40.469451577316335,
        40.54832061682281,
        40.62630716497657,
        40.703417974302994,
        40.77965968405736,
        40.85503882111732,
        40.929561800994065,
        41.00323492906718,
        41.07606440173105,
        41.14805630782792,
        41.219216630052514,
        41.289551246440794,
        41.35906593189846,
        41.42776635974543,
        41.495658103393176,
        41.56274663782252,
        41.629037341287166,
        41.69453549691238,
        41.7592462943135,
        41.82317483120794,
        41.886326114658296,
        41.94870506409214,
        42.010316510725715,
        42.07116520052797,
        42.13125579547857,
        42.19059287494337,
        42.24918093726333,
        42.307024232371084,
        42.36412686706475,
        42.42049301660285,
        42.47612678488923,
        42.5310322051577,
        42.58521324068243,
        42.63867378550338,
        42.69141766482429,
        42.74344863661044,
        42.79477039023991,
        42.8453865486648,
        42.89530067070251,
        42.94451625349147,
        42.99303673220003,
        43.0408654783478,
        43.08800580104953,
        43.134460946718356,
        43.18023410144563,
        43.22532839173503,
        43.269746885341796,
        43.31349259205314,
        43.35656846419321,
        43.39897739835579,
        43.44072223464007,
        43.48180575835637,
        43.52223070047666,
        43.56199973832015,
        43.6011154962231,
        43.63958054596667,
        43.677397408347964,
        43.71456855241681,
        43.75109639701971,
        43.78698331117265,
        43.82223161464786,
        43.85684357855032,
        43.89082142566303,
        43.92416733186505,
        43.95688342536575,
        43.988971788068774,
        44.02043445598442,
        44.05127341954966,
        44.081490624242534,
        44.1110878551125,
        44.14006680686258,
        44.16842923179387,
        44.19617684178179,
        44.22331130850596,
        44.24983426321183,
        44.275747296888746,
        44.301051752270034,
        44.325749557207956,
        44.34984197227743,
        44.373330429088846,
        44.39621631876328,
        44.41850099220209,
        44.4401857606794,
        44.461271690563294,
        44.48176042889768,
        44.501652961872715,
        44.520950445279276,
        44.53965399581902,
        44.557764691218615,
        44.57528357056507,
        44.592211430513466,
        44.608549644720156,
        44.62429893216364,
        44.63946018068511,
        44.6540342397724,
        44.668021921527775,
        44.68142400088031,
        44.69424101629605,
        44.70647406630211,
        44.718123614572896,
        44.729190287524055,
        44.739674674982,
        44.74957732966812,
        44.758898767391194,
        44.767639265493635,
        44.775799673034435,
        44.783380193579056,
        44.79038119825986,
        44.7968030217417,
        44.80264596220555,
        44.807910281696124,
        44.81259600282272,
        44.816703035406114,
        44.820231427323,
        44.82318119296771,
        44.825552321421846,
        44.82734476160377,
        44.82855843022406,
        44.82919320956847,
        44.829248950378094,
        44.82872547201287,
        44.82762256025724,
        44.825939964004554,
        44.823677394513524,
        44.820834525851446,
        44.81741099499013,
        44.813406402269976,
        44.80882031026948,
        44.80365224407096,
        44.797901690802455,
        44.79156809932619,
        44.78465087993054,
        44.77714940401521,
        44.769063003821294,
        44.760390972072855,
        44.75113256170513,
        44.7412869855458,
        44.73085341600164,
        44.71983098473983,
        44.70821878222522,
        44.69601585794975,
        44.68322121925603,
        44.66983383155273,
        44.65585261782183,
        44.6412764582574,
        44.62610418989273,
        44.61033459652099,
        44.593966447097834,
        44.576998437156256,
        44.5594292271723,
        44.54125743244711,
        44.5224816226674,
        44.5031003214538,
        44.48311200586201,
        44.46251510585053,
        44.44130800355397,
        44.41948903220729,
        44.39705647499541,
        44.37400856531898,
        44.35034348931705,
        44.32605938651547,
        44.301154348911986,
        44.27562641399088,
        44.249473565876,
        44.222693735033786,
        44.19528479828018,
        44.16724457836173,
        44.138570843190514,
        44.10926130568763,
        44.079313622218336,
        44.04872539237596,
        44.017494158057154,
        43.98561740265018,
        43.953092550200864,
        43.919916964417375,
        43.88608794833449,
        43.851602742583005,
        43.81645852500264,
        43.78065240954296,
        43.74418144527338,
        43.70704261536458,
        43.66923283603579,
        43.63074895549488,
        43.59158775280046,
        43.55174593673883,
        43.5112201446439,
        43.470006941189254,
        43.42810281713753,
        43.3855041273939,
        43.342207332292546,
        43.298208632455044,
        43.25350420982717,
        43.20809016565909,
        43.16196251949545,
        43.115117207746,
        43.067549712719035,
        43.019255289363706,
        42.970229414989724,
        42.92046748282792,
        42.86996479820214,
        42.81871657641304,
        42.766717943140314,
        42.713963933259464,
        42.66044948552888,
        42.606169435609836,
        42.5511185131389,
        42.4952913396197,
        42.43868242615,
        42.38128617066087,
        42.32309685476289,
        42.26410864124472,
        42.20431556996318,
        42.1437115551996,
        42.08229038217396,
        42.02004570363217,
        41.95697103634446,
        41.893059757515445,
        41.828305101076744,
        41.76270015389601,
        41.696237851849396,
        41.62891097578023,
        41.56071214732931,
        41.491633824624444,
        41.42166829782916,
        41.350807684536974,
        41.27904392500448,
        41.20636877721994,
        41.13277381178869,
        41.05825040664087,
        40.982789741534056,
        40.90638277437487,
        40.82902030719218,
        40.75069287224134,
        40.67139079740325,
        40.59110418164471,
        40.50982288811845,
        40.4275365370032,
        40.34423421151093,
        40.25990461650576,
        40.17453643478076,
        40.088118089161604,
        40.0006377126018,
        39.912083151390135,
        39.82244195121568,
        39.731701345694766,
        39.63984824514295,
        39.54686922369881,
        39.45275051085648,
        39.357477982466456,
        39.26103714679955,
        39.163413126695296,
        39.064590643274705,
        38.964554002761346,
        38.86328708084206,
        38.760773307884044,
        38.65699565201782,
        38.55193660151417,
        38.445578146283935,
        38.33790175824421,
        38.228888371865125,
        38.11851836141224,
        38.00677151939021,
        37.893627032687974,
        37.77906345772093,
        37.663058694260776,
        37.545589957617274,
        37.426633750582106,
        37.306165831263414,
        37.184161181735114,
        37.06059397360826,
        36.93543753190096,
        36.80866429683756,
        36.680245782307125,
        36.55015253739001,
        36.41835409441464,
        36.28481892514452,
        36.14951438855705,
        36.012406676519916,
        35.87346075602659,
        35.732639549558634,
        35.589904327300474,
        35.445215562670214,
        35.2985322375778,
        35.14981176137411,
        34.99900988234381,
        34.84608059350725,
        34.69097580842957,
        34.533646152128036,
        34.37403950133001,
        34.21210175380913,
        34.047776477322536,
        33.88100476746981,
        33.71172509083521,
        33.53987301614139,
        33.36538145159549,
        33.188179837921524,
        33.00819433609686,
        32.82534751193561,
        32.639558084686584,
        32.450740656963006,
        32.258805188961006,
        32.06365761858525,
        31.865198104866153,
        31.66332157979521,
        31.457917100735454,
        31.248867382532676,
        31.03604828982885,
        30.819328034865627,
        30.59856752115102,
        30.37361820782749,
        30.144322302919612,
        29.910511678363445,
        29.672006907326896,
        29.428616198346592,
        29.18013394902036,
        28.926340390808118,
        28.66699857086086,
        28.401853613126168,
        28.13063051776472,
        27.853031902509798,
        27.568735441874587,
        27.27739064350748,
        26.97861562240172,
        26.67199337622213,
        26.357067124531117,
        26.03333479673185,
        25.70024279087699,
        25.35717848068681,
        25.003461258519636,
        24.638332292678523,
        24.26094134035455,
        23.870331857861554,
        23.465422385714902,
        23.04498407516229,
        22.6076136712842,
        22.15170103376371,
        21.675390283792748,
        21.176538276297354,
        20.652675377246112,
        20.100996136872638,
        19.518477930386144,
        18.902557826626577,
        18.2552573444957
    ]
}