======= APRICOPT =========

=== Optimization through COPASI solver ===


Solver settings: 

Method: Genetic Algorithm
    Log Verbosity: 0
    Number of Generations: 25
    Population Size: 64
    Random Number Generator: 1
    Seed: 104
    Mutation Variance: 0.1
    Stop after # Stalled Generations: 0

Population Information: 
Population Size: 0
# Generations / Iterations: 0
Current Generation / Iteration: 0
Population Values: 
   (		)

Population:



Optimization Log:

Function Evaluation	Objective Value		Optimization Parameters
1			15.8181			(	4	24	24	24	24	24	24	24	24	24	24	24	24	24	24	24	3	160	160	160	160	160	160	160	160	160	160	160	160	160	160	160	)
384			15.0632			(	4.05705	7.79522e-310	23.1045	0	2.45199e-314	24	23.5589	24	21.4015	21.4651	23.2277	22.8632	21.4969	19.8926	24	1.35041e-12	2.61217	160	160	154.444	160	160	160	160	160	160	160	1.41607e-61	7.97405e-165	0	0	160	)
576			10.895			(	4.44217	17.8665	1.4231e-288	24	1.80171e-175	21.2287	24	24	21.6668	24	21.2088	1.3386e-146	24	20.3068	24	23.296	3.75807	3.10367e-98	1.41294e-267	5.87484e-265	1.62579e-203	3.09982e-297	2.08245e-307	5.57251e-215	2.0518e-97	150.465	158.175	160	142.557	160	5.05808e-76	2.65086e-274	)
704			10.4872			(	4.32662	16.8811	1.43195e-288	23.8782	1.78698e-175	21.4268	2.04958e-136	23.0073	20.1523	24	24	1.64031e-146	24	18.5918	24	1.89927e-161	6	3.16466e-98	1.67616e-119	1.05015e-280	1.10086e-285	3.21607e-297	1.70464e-307	6.12997e-215	1.83192e-97	5.14852e-200	160	133.583	148.35	160	160	160	)
832			10.4504			(	3.52183	24	8.79466e-139	20.9593	2.01645e-175	20.9674	17.6467	20.4589	23.3516	22.3422	19.8457	1.01474e-146	15.0927	17.3692	3.23901e-180	21.434	5.79601	7.33989e-235	1.42548e-166	149.855	1.5395e-171	9.87635e-221	4.43229e-97	4.75825e-256	2.95868e-156	149.463	136.128	151.321	133.27	136.543	126.139	0	)
896			9.69305			(	4.4133	24	2.42568e-162	22.6091	1.54503e-175	1.32484e-27	1.36703e-44	22.2241	14.9581	1.13539e-93	22.482	23.8264	22.0027	1.85288e-60	23.4027	1.34878e-12	5.56497	119.249	150.9	3.9059e-310	6.89387e-185	0	0	149.432	1.98596e-156	0	0	0	8.90434e-165	0	0	123.756	)
1024			9.62238			(	3.93336	16.7598	8.45364e-139	20.1399	1.71777e-175	1.17557e-27	1.3502e-44	18.6462	13.3038	1.28474e-93	23.9685	1.20863e-146	24	20.3752	20.744	1.19038e-12	5.30889	108.723	141.183	4.38315e-310	4.92197e-185	3.29397e-297	160	3.46822e-215	1.77307e-156	0	0	0	9.39111e-165	0	0	139.588	)
1088			9.53015			(	4.26491	23.321	2.61708e-162	20.5609	1.14158e-175	1.26299e-27	1.44295e-44	14.8171	14.966	15.6601	24	24	21.1494	1.94154e-60	22.7337	1.30065e-12	6	142.189	155.048	4.67924e-310	1.50897e-285	3.22904e-297	123.785	136.36	1.73509e-156	5.5409e-200	130.456	0	8.58329e-165	0	0	123.349	)
1216			9.45688			(	3.94879	18.1917	3.10398e-288	15.7197	2.06223e-175	1.10825e-27	1.49822e-44	16.1277	12.2888	1.40113e-93	24	1.38133e-146	20.9744	17.4658	19.7027	1.74257e-161	5.17419	3.40269e-98	1.40424e-119	3.93275e-310	5.07351e-185	3.39129e-297	160	151.46	133.409	1.56775e-138	0	0	119.437	134.511	5.73669e-76	138.495	)
1344			9.25938			(	3.88586	18.5841	1.46119e-288	16.2853	1.83323e-175	1.52001e-27	1.48081e-44	21.9212	12.716	1.1536e-93	20.2218	21.024	18.402	1.78452e-60	21.4674	1.62133e-12	6	97.5913	2.23055e-119	5.05935e-310	1.11505e-285	4.17189e-274	126.519	3.39239e-114	144.25	0	0	0	0	9.868e-16	127.493	2.49459e-258	)
1408			9.13239			(	4.48492	17.7647	3.11172e-288	16.4969	2.20609e-175	8.79859e-28	8.33436e-45	14.322	10.8029	1.36668e-93	23.9078	1.52875e-146	23.2902	18.7587	24	2.00252e-12	5.73445	4.10231e-98	6.21624e-76	4.98475e-310	5.11967e-185	0	133.651	156.359	1.40963e-156	0	132.942	1.33905e-61	3.62928e-115	160	6.38266e-76	148.061	)
1536			8.9289			(	4.33329	24	9.93441e-139	23.9934	1.67262e-175	1.13501e-27	1.69813e-44	14.6835	9.29271	13.7454	23.1739	1.23223e-146	20.6906	13.4445	15.496	1.18848e-12	6	134.946	2.89139e-119	2.8752e-310	4.70717e-185	4.17929e-297	140.488	140.014	2.14792e-97	4.8395e-200	113.453	0	3.74962e-115	0	0	2.89961e-258	)



Optimization Result:

    Objective Function Value:	8.9289
    Function Evaluations:	1634
    CPU Time [s]:	4026.468
    Evaluations/Second [1/s]:	0.405815

    Values[ate_freq_in].InitialValue: 4.33329
    Values[ate_m10_in].InitialValue: 24
    Values[ate_m11_in].InitialValue: 9.93441e-139
    Values[ate_m12_in].InitialValue: 23.9934
    Values[ate_m13_in].InitialValue: 1.67262e-175
    Values[ate_m14_in].InitialValue: 1.13501e-27
    Values[ate_m15_in].InitialValue: 1.69813e-44
    Values[ate_m1_in].InitialValue: 14.6835
    Values[ate_m2_in].InitialValue: 9.29271
    Values[ate_m3_in].InitialValue: 13.7454
    Values[ate_m4_in].InitialValue: 23.1739
    Values[ate_m5_in].InitialValue: 1.23223e-146
    Values[ate_m6_in].InitialValue: 20.6906
    Values[ate_m7_in].InitialValue: 13.4445
    Values[ate_m8_in].InitialValue: 15.496
    Values[ate_m9_in].InitialValue: 1.18848e-12
    Values[cibi_freq_in].InitialValue: 6
    Values[cibi_m10_in].InitialValue: 134.946
    Values[cibi_m11_in].InitialValue: 2.89139e-119
    Values[cibi_m12_in].InitialValue: 2.8752e-310
    Values[cibi_m13_in].InitialValue: 4.70717e-185
    Values[cibi_m14_in].InitialValue: 4.17929e-297
    Values[cibi_m15_in].InitialValue: 140.488
    Values[cibi_m1_in].InitialValue: 140.014
    Values[cibi_m2_in].InitialValue: 2.14792e-97
    Values[cibi_m3_in].InitialValue: 4.8395e-200
    Values[cibi_m4_in].InitialValue: 113.453
    Values[cibi_m5_in].InitialValue: 0
    Values[cibi_m6_in].InitialValue: 3.74962e-115
    Values[cibi_m7_in].InitialValue: 0
    Values[cibi_m8_in].InitialValue: 0
    Values[cibi_m9_in].InitialValue: 2.89961e-258


